Division,WeightClassKg,Place,Name,Team,BodyweightKg,Best3SquatKg,Best3BenchKg,Best3DeadliftKg,TotalKg,Equipment,Event,Sex
Varsity,51.71,1,Ray Landry,Manor,51.71,120.2,77.11,142.88,340.19,Single-ply,SBD,M
Varsity,51.71,2,David Longoria,Austin Westlake,51.71,99.79,72.57,136.08,308.44,Single-ply,SBD,M
Varsity,51.71,3,Samuel Ortega,Hutto,50.8,102.06,58.97,117.93,278.96,Single-ply,SBD,M
Varsity,55.79,1,Jessie Rodriguez,Pflugerville Hendrickson,55.34,124.74,65.77,142.88,333.39,Single-ply,SBD,M
Varsity,55.79,DQ,Isaac Gomez,Pflugerville Connally,54.43,,,,,Single-ply,SBD,M
Varsity,59.87,1,Jeffrey Johnson,Seguin,58.97,122.47,83.91,163.29,369.68,Single-ply,SBD,M
Varsity,59.87,2,Tony Baird,Pflugerville Hendrickson,59.87,120.2,83.91,154.22,358.34,Single-ply,SBD,M
Varsity,59.87,3,Anthony Daily,Pflugerville Connally,59.42,142.88,74.84,127.01,344.73,Single-ply,SBD,M
Varsity,59.87,4,Jonathon Mcarty,Leander,58.97,124.74,65.77,133.81,324.32,Single-ply,SBD,M
Varsity,67.13,1,Sigi Martinez,Leander Rouse,65.77,197.31,102.06,165.56,464.93,Single-ply,SBD,M
Varsity,67.13,2,Eli Arzola,Seguin,61.87,156.49,102.06,174.63,433.18,Single-ply,SBD,M
Varsity,67.13,3,Chris Hendricks,Leander Rouse,63.96,163.29,90.72,179.17,433.18,Single-ply,SBD,M
Varsity,67.13,4,Dexter Williams,Pflugerville Connally,67.13,151.95,90.72,179.17,421.84,Single-ply,SBD,M
Varsity,67.13,5,Humberto Lopez,Hutto,65.77,142.88,81.65,158.76,383.29,Single-ply,SBD,M
Varsity,67.13,6,Ian Zamorsky,Hutto,66.68,129.27,81.65,154.22,365.14,Single-ply,SBD,M
Varsity,67.13,7,Miles Pastuso,Pflugerville,66.22,92.99,81.65,111.13,285.76,Single-ply,SBD,M
Varsity,67.13,DQ,Evans Kelton,Manor,65.32,,,,,Single-ply,SBD,M
Varsity,74.84,1,Erik Estrada,Hutto,73.48,192.78,108.86,226.8,528.44,Single-ply,SBD,M
Varsity,74.84,2,Placid Unegbu,Pflugerville Connally,73.48,176.9,102.06,172.37,451.32,Single-ply,SBD,M
Varsity,74.84,3,Osi Enemkapali,Pflugerville,74.84,176.9,102.06,167.83,446.79,Single-ply,SBD,M
Varsity,74.84,4,Aivery Scheffer,Leander Rouse,74.39,170.1,97.52,163.29,430.91,Single-ply,SBD,M
Varsity,74.84,5,Sam Lightsey,Leander,70.31,83.91,79.38,102.06,265.35,Single-ply,SBD,M
Varsity,82.1,1,Javier Garcia,Seguin,82.1,204.12,115.67,219.99,539.77,Single-ply,SBD,M
Varsity,82.1,2,Jj Johnson,Manor,82.1,183.7,124.74,219.99,528.44,Single-ply,SBD,M
Varsity,82.1,3,Nelson Lugala,Pflugerville Connally,78.93,204.12,102.06,215.46,521.63,Single-ply,SBD,M
Varsity,82.1,4,Tyron Owens,Manor,79.38,201.85,115.67,199.58,517.1,Single-ply,SBD,M
Varsity,82.1,5,Deryl Bunton,Austin Anderson,77.11,181.44,113.4,192.78,487.61,Single-ply,SBD,M
Varsity,82.1,6,Chanceton Chase,Pflugerville Connally,82.1,170.1,124.74,188.24,483.08,Single-ply,SBD,M
Varsity,82.1,7,Luke Evans,Hutto,81.19,163.29,104.33,204.12,471.74,Single-ply,SBD,M
Varsity,82.1,8,Demetrius Hood,Leander Rouse,78.93,170.1,92.99,183.7,446.79,Single-ply,SBD,M
Varsity,82.1,9,Denzell Hutchens,Manor,78.93,165.56,106.59,167.83,439.98,Single-ply,SBD,M
Varsity,82.1,10,Tyler Minnick,Hutto,81.65,163.29,102.06,174.63,439.98,Single-ply,SBD,M
Varsity,82.1,11,Edward Butt,Pflugerville Connally,79.38,151.95,95.25,183.7,430.91,Single-ply,SBD,M
Varsity,82.1,12,William Waldon,Leander,80.74,147.42,102.06,158.76,408.23,Single-ply,SBD,M
Varsity,82.1,13,Hayden Ramsey,Leander Rouse,78.93,158.76,95.25,142.88,396.89,Single-ply,SBD,M
Varsity,82.1,DQ,Carlos Zepeda,Seguin,79.83,,,,,Single-ply,SBD,M
Varsity,89.81,1,Tyron McMillon,Pflugerville Hendrickson,89.81,226.8,111.13,206.38,544.31,Single-ply,SBD,M
Varsity,89.81,2,Jaylon Brown,Pflugerville Hendrickson,87.54,197.31,122.47,210.92,530.7,Single-ply,SBD,M
Varsity,89.81,3,Marcus Mesta,Manor,88.45,204.12,117.93,199.58,521.63,Single-ply,SBD,M
Varsity,89.81,4,Quinton Grant,Manor,88,183.7,111.13,192.78,487.61,Single-ply,SBD,M
Varsity,89.81,5,Mathew George,Seguin,87.09,156.49,97.52,170.1,424.11,Single-ply,SBD,M
Varsity,89.81,6,Hunter Orona,Leander,86.18,147.42,102.06,165.56,415.04,Single-ply,SBD,M
Varsity,89.81,7,Shaquan Foster,Pflugerville Hendrickson,89.81,142.88,92.99,147.42,383.29,Single-ply,SBD,M
Varsity,89.81,8,Cody Offield,Hutto,88.45,124.74,90.72,145.15,360.61,Single-ply,SBD,M
Varsity,89.81,9,Dylan Isabel,Leander,86.64,133.81,65.77,149.69,349.27,Single-ply,SBD,M
Varsity,99.79,1,Jacob Almaguer,Seguin,92.08,226.8,124.74,217.72,569.26,Single-ply,SBD,M
Varsity,99.79,2,Chasin Allen,Hutto,99.79,197.31,117.93,240.4,555.65,Single-ply,SBD,M
Varsity,99.79,3,Tevin Dillard,Manor,96.16,204.12,129.27,219.99,553.38,Single-ply,SBD,M
Varsity,99.79,4,Garrett Hoover,Pflugerville Hendrickson,91.17,188.24,113.4,179.17,480.81,Single-ply,SBD,M
Varsity,99.79,5,Michael Rodriguez,Hutto,94.35,174.63,90.72,190.51,455.86,Single-ply,SBD,M
Varsity,109.77,1,Pj Hall,Seguin,108.86,278.96,158.76,267.62,705.34,Single-ply,SBD,M
Varsity,109.77,2,Andy Flores,Pflugerville Hendrickson,105.23,249.48,124.74,204.12,578.33,Single-ply,SBD,M
Varsity,109.77,3,Adam Burns,Pflugerville Connally,109.77,210.92,111.13,215.46,537.51,Single-ply,SBD,M
Varsity,109.77,4,Many Jarimilo,Manor,105.23,199.58,106.59,183.7,489.88,Single-ply,SBD,M
Varsity,109.77,5,Miguel Ramirez,Pflugerville Hendrickson,102.06,183.7,111.13,165.56,460.4,Single-ply,SBD,M
Varsity,109.77,6,Albert Briceno,Pflugerville,103.87,183.7,111.13,158.76,453.59,Single-ply,SBD,M
Varsity,109.77,7,Ross Husstedler,Pflugerville,108.86,163.29,108.86,165.56,437.72,Single-ply,SBD,M
Varsity,109.77,8,James Torres,Leander,103.42,174.63,102.06,158.76,435.45,Single-ply,SBD,M
Varsity,124.74,1,Hunter Ullrich,Seguin,114.31,231.33,136.08,215.46,582.87,Single-ply,SBD,M
Varsity,124.74,2,Jacob Valdez,Austin Anderson,124.74,226.8,129.27,204.12,560.19,Single-ply,SBD,M
Varsity,124.74,3,Jacob Gonzales,Austin Anderson,124.74,204.12,136.08,197.31,537.51,Single-ply,SBD,M
Varsity,124.74,4,Hayden Washington,Pflugerville Connally,118.39,192.78,113.4,204.12,510.29,Single-ply,SBD,M
Varsity,124.74,5,Jimmy DeLeon,Manor,117.48,210.92,113.4,183.7,508.02,Single-ply,SBD,M
Varsity,124.74,6,Zach Renfrew,Pflugerville Hendrickson,117.48,188.24,108.86,201.85,498.95,Single-ply,SBD,M
Varsity,124.74,7,Paul Guerra,Pflugerville Connally,119.29,183.7,113.4,183.7,480.81,Single-ply,SBD,M
Varsity,124.74,8,Lawrence Jeter,Pflugerville Hendrickson,111.13,192.78,97.52,174.63,464.93,Single-ply,SBD,M
Varsity,124.74,9,Mason Bell,Pflugerville Hendrickson,115.21,183.7,99.79,167.83,451.32,Single-ply,SBD,M
Varsity,124.74,10,Kaleb Quintanilla,Seguin,124.74,204.12,136.08,,340.19,Single-ply,SB,M
Varsity,124.74+,1,Carlos Trevino,Seguin,126.55,244.94,158.76,258.55,662.24,Single-ply,SBD,M
Varsity,124.74+,2,Alen Pinjic,Pflugerville Connally,125.01,204.12,124.74,195.04,523.9,Single-ply,SBD,M
Varsity,124.74+,3,Alexander Womack,Pflugerville,140.16,138.35,81.65,142.88,362.87,Single-ply,SBD,M
Junior Varsity,55.79,1,Santosh Dongal,Waco Connally,55.79,102.06,68.04,131.54,301.64,Single-ply,SBD,M
Junior Varsity,67.13,1,Tazh Maloy,Pflugerville Hendrickson,64.86,138.35,88.45,163.29,390.09,Single-ply,SBD,M
Junior Varsity,67.13,2,Federico Evangelista,Pflugerville Connally,65.32,136.08,92.99,161.03,390.09,Single-ply,SBD,M
Junior Varsity,67.13,3,Keydrian Thomas,Pflugerville Connally,67.13,151.95,74.84,151.95,378.75,Single-ply,SBD,M
Junior Varsity,67.13,4,Zae Giles,Manor,61.69,106.59,72.57,138.35,317.51,Single-ply,SBD,M
Junior Varsity,74.84,1,Kole Sneed,Pflugerville Connally,74.84,151.95,102.06,183.7,437.72,Single-ply,SBD,M
Junior Varsity,74.84,2,Aaron Carter,Pflugerville Connally,71.21,151.95,102.06,151.95,405.97,Single-ply,SBD,M
Junior Varsity,74.84,3,Tyare Ihonvbere,Manor,74.84,151.95,77.11,170.1,399.16,Single-ply,SBD,M
Junior Varsity,74.84,4,Jamiah Payton,Waco Connally,71.67,136.08,95.25,145.15,376.48,Single-ply,SBD,M
Junior Varsity,74.84,5,Chris Luca,Pflugerville Connally,69.85,122.47,70.31,145.15,337.93,Single-ply,SBD,M
Junior Varsity,74.84,6,Ryan Sanchez,Leander Rouse,71.67,131.54,77.11,129.27,337.93,Single-ply,SBD,M
Junior Varsity,74.84,7,Z Mahmoud,Leander Rouse,69.85,122.47,,,122.47,Single-ply,S,M
Junior Varsity,82.1,1,Niyi Akeredolu,Pflugerville Hendrickson,80.29,142.88,70.31,183.7,396.89,Single-ply,SBD,M
Junior Varsity,82.1,2,Nico Delacruz,Pflugerville Hendrickson,78.93,151.95,70.31,158.76,381.02,Single-ply,SBD,M
Junior Varsity,82.1,3,John Laughlin,Waco Connally,78.02,120.2,74.84,124.74,319.78,Single-ply,SBD,M
Junior Varsity,82.1,4,Caleb Hanson,Waco Connally,79.83,111.13,61.23,113.4,285.76,Single-ply,SBD,M
Junior Varsity,82.1,5,Ray Hall,Manor,82.1,145.15,,,145.15,Single-ply,S,M
Junior Varsity,82.1,6,Jacob Brown,Austin Anderson,81.65,92.99,,,92.99,Single-ply,S,M
Junior Varsity,89.81,1,Dominique Briscoe,Manor,88.9,158.76,106.59,224.53,489.88,Single-ply,SBD,M
Junior Varsity,89.81,2,Justin Thompson,Waco Connally,83.91,183.7,108.86,190.51,483.08,Single-ply,SBD,M
Junior Varsity,89.81,3,Jason Slauenwhite,Pflugerville Hendrickson,84.37,142.88,88.45,163.29,394.63,Single-ply,SBD,M
Junior Varsity,89.81,4,Matt Holt,Pflugerville Hendrickson,84.82,115.67,74.84,142.88,333.39,Single-ply,SBD,M
Junior Varsity,89.81,5,Christian Rivera,Waco Connally,88,133.81,,,133.81,Single-ply,S,M
Junior Varsity,99.79,1,Austin Brown,Pflugerville Connally,96.16,158.76,83.91,151.95,394.63,Single-ply,SBD,M
Junior Varsity,99.79,2,David Quinton,Pflugerville Hendrickson,91.63,142.88,83.91,158.76,385.55,Single-ply,SBD,M
Junior Varsity,99.79,3,Andrew Cobus,Pflugerville Hendrickson,95.25,122.47,,,122.47,Single-ply,S,M
Junior Varsity,99.79,DQ,Colton Wells,Leander Rouse,95.71,,,,,Single-ply,S,M
Junior Varsity,109.77,1,Brandon Donnermeyer,Manor,109.77,183.7,97.52,165.56,446.79,Single-ply,SBD,M
Junior Varsity,109.77,2,Dalton Shoemaker,Austin Anderson,102.51,142.88,102.06,156.49,401.43,Single-ply,SBD,M
Junior Varsity,109.77,3,Zach Sandlin,Pflugerville Hendrickson,107.05,138.35,92.99,161.03,392.36,Single-ply,SBD,M
Junior Varsity,109.77,4,Paul Arculeo,Pflugerville Hendrickson,101.6,136.08,83.91,151.95,371.95,Single-ply,SBD,M
Junior Varsity,124.74,1,Marcus Hudson,Manor,112.94,174.63,104.33,204.12,483.08,Single-ply,SBD,M
Junior Varsity,124.74,2,Blake Browning,Pflugerville Hendrickson,121.11,183.7,111.13,174.63,469.47,Single-ply,SBD,M
Junior Varsity,124.74,3,Eric Cabrera,Pflugerville Connally,122.47,142.88,102.06,142.88,387.82,Single-ply,SBD,M
Junior Varsity,124.74,4,Isaiah Robinson,Pflugerville Connally,119.75,170.1,,,170.1,Single-ply,S,M
Junior Varsity,124.74+,1,Tre Thomas,Pflugerville Hendrickson,157.85,215.46,120.2,210.92,546.58,Single-ply,SBD,M
Junior Varsity,124.74+,2,Rajab Rajab,Austin Anderson,127.91,181.44,81.65,181.44,444.52,Single-ply,SBD,M
