Division,WeightClassKg,Place,Name,Team,BodyweightKg,Best3SquatKg,Best3BenchKg,Best3DeadliftKg,TotalKg,Equipment,Event,Sex
Boys,51.71,DQ,Matt Perez,Ralls,50.53,131.54,,,,Single-ply,SBD,M
Boys,59.87,1,Ryan McClesky,Clarendon,59.87,129.27,70.31,149.69,349.27,Single-ply,SBD,M
Boys,67.13,1,Cody Castor,Childress,66.04,181.44,106.59,181.44,469.47,Single-ply,SBD,M
Boys,67.13,2,John Lugo,Ralls,67.13,185.97,97.52,158.76,442.25,Single-ply,SBD,M
Boys,67.13,3,Isiah Zavala,Ralls,61.6,165.56,99.79,156.49,421.84,Single-ply,SBD,M
Boys,67.13,4,A'Kayzon Garrett,Childress,62.32,147.42,74.84,161.03,383.29,Single-ply,SBD,M
Boys,67.13,5,Raul Rojas,Childress,66.59,142.88,88.45,145.15,376.48,Single-ply,SBD,M
Boys,67.13,6,Caton Grahn,Clarendon,67.13,127.01,77.11,149.69,353.8,Single-ply,SBD,M
Boys,67.13,7,Pablo Martinez,Memphis,67.13,102.06,63.5,104.33,269.89,Single-ply,SBD,M
Boys,74.84,1,Matthew Resendez,Tulia,73.39,156.49,88.45,174.63,419.57,Single-ply,SBD,M
Boys,74.84,2,Juan Castillo,Tulia,72.94,145.15,90.72,149.69,385.55,Single-ply,SBD,M
Boys,74.84,3,Miguel Salinas,Childress,67.59,142.88,88.45,149.69,381.02,Single-ply,SBD,M
Boys,82.1,1,Pedro Villarreal,Ralls,77.29,172.37,111.13,199.58,483.08,Single-ply,SBD,M
Boys,82.1,2,Jaime Lizama,Childress,81.56,185.97,113.4,183.7,483.08,Single-ply,SBD,M
Boys,82.1,3,Martez Vrana,Wichita Falls Hirschi,77.56,147.42,102.06,172.37,421.84,Single-ply,SBD,M
Boys,82.1,4,Rufino Mata,Childress,81.37,106.59,88.45,136.08,331.12,Single-ply,SBD,M
Boys,89.81,1,Tanner Mills,Childress,85.18,170.1,122.47,210.92,503.49,Single-ply,SBD,M
Boys,89.81,2,D'Artanyion Hernandez,Wichita Falls Hirschi,87.91,124.74,74.84,154.22,353.8,Single-ply,SBD,M
Boys,99.79,1,Adrian Arthur,Wichita Falls Hirschi,95.25,233.6,131.54,249.48,614.62,Single-ply,SBD,M
Boys,99.79,2,Oscar Juarez,Childress,99.79,231.33,115.67,204.12,551.11,Single-ply,SBD,M
Boys,99.79,3,Casey Gill,Tulia,96.89,210.92,127.01,199.58,537.51,Single-ply,SBD,M
Boys,99.79,4,Thomas Ellifritz,Childress,94.8,197.31,95.25,181.44,474,Single-ply,SBD,M
Boys,109.77,1,Raymond Rios,Wichita Falls Hirschi,103.96,124.74,63.5,124.74,312.98,Single-ply,SBD,M
Boys,109.77,DQ,Jose Morin,Memphis,102.06,,,,,Single-ply,SBD,M
Boys,124.74,1,Seth Greer,Clarendon,122.11,229.06,176.9,247.21,653.17,Single-ply,SBD,M
Boys,124.74,2,Austin McCarty,Childress,121.65,256.28,181.44,204.12,641.83,Single-ply,SBD,M
Boys,124.74,3,Bodey Lange,Tulia,116.94,213.19,129.27,181.44,523.9,Single-ply,SBD,M
Boys,124.74,4,Jayden Workman,Electra,115.94,190.51,131.54,176.9,498.95,Single-ply,SBD,M
Boys,124.74+,1,Carlos Romero,Childress,132.54,235.87,124.74,195.04,555.65,Single-ply,SBD,M
Boys,124.74+,2,Alex Munoz,Memphis,140.61,156.49,86.18,151.95,394.63,Single-ply,SBD,M
