Division,WeightClassKg,Place,Name,Team,BodyweightKg,Best3SquatKg,Best3BenchKg,Best3DeadliftKg,TotalKg,Equipment,Event,Sex
Boys,51.71,1,Dalton Dewveall,Llano,51.71,129.27,70.31,142.88,342.46,Single-ply,SBD,M
Boys,51.71,2,Jason Ayers,Lampasas,51.48,124.74,68.04,136.08,328.85,Single-ply,SBD,M
Boys,51.71,3,Marlwin Perez,Brownwood,50.35,113.4,58.97,124.74,297.1,Single-ply,SBD,M
Boys,55.79,1,Seth Kercheville,Liberty Hill,54.43,117.93,74.84,124.74,317.51,Single-ply,SBD,M
Boys,55.79,2,Johnathon Flores,Lampasas,53.52,95.25,65.77,131.54,292.57,Single-ply,SBD,M
Boys,55.79,3,Jose Briggs,Burnet,55.45,86.18,63.5,108.86,258.55,Single-ply,SBD,M
Boys,55.79,4,Clayton Dougherty,Lampasas,54.43,90.72,52.16,104.33,247.21,Single-ply,SBD,M
Boys,59.87,1,Will Meng,Liberty Hill,59.65,158.76,95.25,154.22,408.23,Single-ply,SBD,M
Boys,59.87,2,Jon Brown,Burnet,59.87,124.74,88.45,156.49,369.68,Single-ply,SBD,M
Boys,59.87,3,Luke Argo,Lampasas,59.19,147.42,83.91,136.08,367.41,Single-ply,SBD,M
Boys,67.13,4,C Goodgion,Brownwood,60.1,99.79,54.43,115.67,269.89,Single-ply,SBD,M
Boys,74.84,1,Trevor Penny,Llano,67.36,163.29,102.06,183.7,449.06,Single-ply,SBD,M
Boys,67.13,2,Christian Rodriguez,Llano,65.32,183.7,90.72,158.76,433.18,Single-ply,SBD,M
Boys,67.13,3,John Heflin,Llano,62.82,154.22,72.57,145.15,371.95,Single-ply,SBD,M
Boys,67.13,4,Freddie White,Liberty Hill,64.41,129.27,95.25,136.08,360.61,Single-ply,SBD,M
Boys,67.13,5,Nathan Keese,Lampasas,66,133.81,72.57,145.15,351.53,Single-ply,SBD,M
Boys,67.13,6,Brandon Barfield,Liberty Hill,63.28,124.74,88.45,136.08,349.27,Single-ply,SBD,M
Boys,67.13,7,T Duque,Brownwood,66.22,99.79,111.13,136.08,347,Single-ply,SBD,M
Boys,67.13,8,X Armenta,Brownwood,64.86,124.74,68.04,111.13,303.91,Single-ply,SBD,M
Boys,67.13,9,Tommy Smith,Burnet,62.41,88.45,54.43,117.93,260.82,Single-ply,SBD,M
Boys,67.13,DQ,Steven Gallardo,Burnet,65.09,,,,,Single-ply,SBD,M
Boys,74.84,1,Avery Gary,Lampasas,71.21,172.37,115.67,181.44,469.47,Single-ply,SBD,M
Boys,74.84,2,Brock Foster,Burnet,74.84,156.49,102.06,174.63,433.18,Single-ply,SBD,M
Boys,74.84,3,Mason Campbell,Burnet,70.31,138.35,90.72,151.95,381.02,Single-ply,SBD,M
Boys,74.84,4,Chris Swope,Lampasas,71.44,136.08,90.72,154.22,381.02,Single-ply,SBD,M
Boys,82.1,5,Curtis Readance,Burnet,74.96,138.35,83.91,156.49,378.75,Single-ply,SBD,M
Boys,74.84,6,Jace Hankins,Lampasas,72.8,136.08,74.84,154.22,365.14,Single-ply,SBD,M
Boys,74.84,7,Keylan Herman,Liberty Hill,68.72,136.08,79.38,145.15,360.61,Single-ply,SBD,M
Boys,74.84,8,Alex Gonzales,Burnet,74.39,124.74,70.31,145.15,340.19,Single-ply,SBD,M
Boys,74.84,9,Dakota Pratt,Burnet,70.94,106.59,72.57,127.01,306.17,Single-ply,SBD,M
Boys,74.84,DQ,Anthony Pierno,Lampasas,72.12,,,,,Single-ply,SBD,M
Boys,74.84,DQ,Kaleb Bell,Burnet,74.84,136.08,,,,Single-ply,SBD,M
Boys,82.1,1,Cullen Ferrill,Burnet,81.99,181.44,111.13,190.51,483.08,Single-ply,SBD,M
Boys,82.1,2,Van Shamblin,Liberty Hill,79.83,197.31,102.06,176.9,476.27,Single-ply,SBD,M
Boys,82.1,3,Hunter Wilkerson,Lampasas,77.34,170.1,111.13,190.51,471.74,Single-ply,SBD,M
Boys,82.1,4,Colton Cunningham,Liberty Hill,78.47,172.37,102.06,172.37,446.79,Single-ply,SBD,M
Boys,82.1,5,S Tompkin,Brownwood,80.97,181.44,83.91,165.56,430.91,Single-ply,SBD,M
Boys,82.1,6,J Geis,Brownwood,78.93,142.88,102.06,181.44,426.38,Single-ply,SBD,M
Boys,82.1,7,M. Gibson,Brownwood,77.56,176.9,102.06,142.88,421.84,Single-ply,SBD,M
Boys,82.1,8,Drake Hall,Burnet,78.36,140.61,95.25,154.22,390.09,Single-ply,SBD,M
Boys,82.1,9,Clint Ringstaff,Burnet,77.11,147.42,90.72,140.61,378.75,Single-ply,SBD,M
Boys,82.1,10,Grant Smith,Liberty Hill,76.43,124.74,95.25,154.22,374.21,Single-ply,SBD,M
Boys,89.81,1,Jared McHazlett,Burnet,89.81,181.44,117.93,226.8,526.17,Single-ply,SBD,M
Boys,89.81,2,Weston McIntire,Lampasas,89.13,170.1,117.93,199.58,487.61,Single-ply,SBD,M
Boys,89.81,3,Laine Wiggins,Lampasas,83.01,172.37,111.13,185.97,469.47,Single-ply,SBD,M
Boys,89.81,4,Eric Walker,Burnet,89.81,167.83,106.59,174.63,449.06,Single-ply,SBD,M
Boys,89.81,5,Colin Mayne,Llano,87.09,154.22,102.06,172.37,428.64,Single-ply,SBD,M
Boys,89.81,6,Matt McLeod,Liberty Hill,88.9,149.69,92.99,163.29,405.97,Single-ply,SBD,M
Boys,89.81,7,Justin Wilson,Liberty Hill,88.9,129.27,92.99,167.83,390.09,Single-ply,SBD,M
Boys,89.81,8,Kody Knowles,Liberty Hill,84.82,142.88,86.18,145.15,374.21,Single-ply,SBD,M
Boys,99.79,9,Quint Smith,Lampasas,90.04,149.69,88.45,136.08,374.21,Single-ply,SBD,M
Boys,89.81,10,Tristen Briggs,Burnet,83.91,120.2,97.52,154.22,371.95,Single-ply,SBD,M
Boys,89.81,11,C Benedict,Brownwood,88.68,136.08,79.38,154.22,369.68,Single-ply,SBD,M
Boys,89.81,12,Kyle Huppee,Liberty Hill,85.73,136.08,88.45,131.54,356.07,Single-ply,SBD,M
Boys,89.81,DQ,Stratt Stiles,Llano,87.09,145.15,,,,Single-ply,SBD,M
Boys,99.79,1,J Bocknite,Brownwood,96.84,204.12,124.74,226.8,555.65,Single-ply,SBD,M
Boys,99.79,2,Caleb Penny,Llano,91.63,226.8,129.27,197.31,553.38,Single-ply,SBD,M
Boys,99.79,3,Jacob Covington,Liberty Hill,92.31,188.24,124.74,183.7,496.68,Single-ply,SBD,M
Boys,99.79,4,Lance Armentrout,Burnet,93.44,181.44,124.74,167.83,474,Single-ply,SBD,M
Boys,99.79,5,Jarrett Thornley,Burnet,96.62,167.83,111.13,181.44,460.4,Single-ply,SBD,M
Boys,99.79,6,Adam Prado,Lampasas,98.88,183.7,106.59,158.76,449.06,Single-ply,SBD,M
Boys,99.79,7,J. Price,Brownwood,95.71,172.37,90.72,165.56,428.64,Single-ply,SBD,M
Boys,109.77,8,Colton Hall,Liberty Hill,100.02,142.88,104.33,158.76,405.97,Single-ply,SBD,M
Boys,99.79,9,Caul Smith,Lampasas,90.72,149.69,90.72,140.61,381.02,Single-ply,SBD,M
Boys,99.79,DQ,Eric Yescas,Lampasas,93.44,,,,,Single-ply,SBD,M
Boys,99.79,DQ,Cameron Chafin,Burnet,95.71,185.97,,,,Single-ply,SBD,M
Boys,109.77,1,Christopher Saldivar,Burnet,104.33,217.72,131.54,176.9,526.17,Single-ply,SBD,M
Boys,109.77,2,R. Lewis,Brownwood,105.46,215.46,111.13,181.44,508.02,Single-ply,SBD,M
Boys,109.77,3,Christian Saldivar,Burnet,104.33,190.51,122.47,165.56,478.54,Single-ply,SBD,M
Boys,109.77,4,Bailey Cloughy,Liberty Hill,103.19,165.56,106.59,165.56,437.72,Single-ply,SBD,M
Boys,109.77,5,Juan Mungia,Llano,102.51,156.49,102.06,170.1,428.64,Single-ply,SBD,M
Boys,109.77,6,R Deltoro,Brownwood,103.65,136.08,58.97,142.88,337.93,Single-ply,SBD,M
Boys,109.77,7,C. Rangel,Brownwood,100.7,127.01,61.23,142.88,331.12,Single-ply,SBD,M
Boys,109.77,8,Bradly Keeling,Burnet,105.69,83.91,61.23,111.13,256.28,Single-ply,SBD,M
Boys,124.74,1,Will Smith,Liberty Hill,111.81,231.33,149.69,199.58,580.6,Single-ply,SBD,M
Boys,124.74,2,Robert Salvateirra,Liberty Hill,113.62,197.31,111.13,188.24,496.68,Single-ply,SBD,M
Boys,124.74,3,Zach McLeskey,Burnet,110.68,170.1,106.59,174.63,451.32,Single-ply,SBD,M
Boys,124.74,4,Aaron Cook,Burnet,113.4,136.08,108.86,136.08,381.02,Single-ply,SBD,M
Boys,124.74,5,Vegan Jennings,Lampasas,112.72,165.56,61.23,142.88,369.68,Single-ply,SBD,M
Boys,124.74,DQ,Jullian Brown,Lampasas,122.7,124.74,97.52,,,Single-ply,SBD,M
Boys,124.74+,1,Jake Dibble,Lampasas,144.92,249.48,136.08,219.99,605.55,Single-ply,SBD,M
Boys,124.74+,2,Jacob Sanders,Liberty Hill,131.09,238.14,129.27,199.58,566.99,Single-ply,SBD,M
Boys,124.74+,3,Jacob Reed,Burnet,131.54,219.99,147.42,199.58,566.99,Single-ply,SBD,M
Boys,124.74+,4,Chris Nix,Lampasas,128.37,149.69,102.06,181.44,433.18,Single-ply,SBD,M
Boys,124.74+,5,Garrett Carlson,Llano,126.55,165.56,102.06,161.03,428.64,Single-ply,SBD,M
Boys,124.74+,DQ,Will Shular,Lampasas,149.91,,,,,Single-ply,SBD,M
Boys,,NS,D. Martinez,Brownwood,,,,,,Single-ply,SBD,M
Boys,,NS,R Soto,Brownwood,,,,,,Single-ply,SBD,M
