Division,WeightClassKg,Place,Name,Team,BodyweightKg,Best3SquatKg,Best3BenchKg,Best3DeadliftKg,TotalKg,Equipment,Event,Sex
Boys,51.71,1,Nate Garza,Georgetown,50.3,129.27,74.84,136.08,340.19,Single-ply,SBD,M
Boys,51.71,2,Jack Dombrowski,Dripping Springs,50.8,102.06,63.5,117.93,283.5,Single-ply,SBD,M
Boys,51.71,3,Aaron Ragsdale,Jarrell,50.8,97.52,61.23,99.79,258.55,Single-ply,SBD,M
Boys,55.79,1,Ivan Venegas,Dripping Springs,55.11,176.9,102.06,174.63,453.59,Single-ply,SBD,M
Boys,55.79,2,Michael Marullo,Georgetown East View,55.16,142.88,92.99,136.08,371.95,Single-ply,SBD,M
Boys,55.79,3,Nick Sanchez,Georgetown,52.62,124.74,88.45,138.35,351.53,Single-ply,SBD,M
Boys,55.79,4,Max Cervantes,Mexia,55.7,111.13,77.11,113.4,301.64,Single-ply,SBD,M
Boys,55.79,5,Lucas Stevenson,Austin Lake Travis,54.25,83.91,56.7,102.06,242.67,Single-ply,SBD,M
Boys,59.87,1,Hunter Mullins,Jarrell,58.2,197.31,106.59,206.38,510.29,Single-ply,SBD,M
Boys,59.87,2,Capel Glee,Killeen Shoemaker,59.74,133.81,74.84,138.35,347,Single-ply,SBD,M
Boys,59.87,3,Logan Heller,Mexia,59.42,120.2,61.23,136.08,317.51,Single-ply,SBD,M
Boys,59.87,4,Freddie Greer,Mexia,55.93,106.59,61.23,120.2,288.03,Single-ply,SBD,M
Boys,67.13,1,Juan Rios,Dripping Springs,65.27,213.19,129.27,201.85,544.31,Single-ply,SBD,M
Boys,67.13,2,Josh Howard,Hutto,66.81,190.51,120.2,201.85,512.56,Single-ply,SBD,M
Boys,67.13,3,Alex Hernandez,Jarrell,63.23,170.1,97.52,172.37,439.98,Single-ply,SBD,M
Boys,67.13,4,Zyle Nance,Dripping Springs,62.01,154.22,102.06,165.56,421.84,Single-ply,SBD,M
Boys,67.13,5,Caleb Carlisle,Jarrell,65.09,151.95,83.91,176.9,412.77,Single-ply,SBD,M
Boys,67.13,6,Ryan Wall,Georgetown East View,65.27,129.27,74.84,145.15,349.27,Single-ply,SBD,M
Boys,67.13,7,Xavier Torres,Georgetown,65.45,117.93,88.45,122.47,328.85,Single-ply,SBD,M
Boys,67.13,8,Kaleb Halfmann,Austin Lake Travis,65.36,120.2,70.31,136.08,326.59,Single-ply,SBD,M
Boys,67.13,9,Leonel Molina,Mexia,62.19,124.74,61.23,136.08,322.05,Single-ply,SBD,M
Boys,67.13,10,Scott Fox,Robinson,62.37,113.4,70.31,133.81,317.51,Single-ply,SBD,M
Boys,67.13,11,Paul Lietzke,Pflugerville Hendrickson,63.41,117.93,77.11,120.2,315.25,Single-ply,SBD,M
Boys,67.13,12,Philip Hanley,Robinson,60.01,117.93,65.77,117.93,301.64,Single-ply,SBD,M
Boys,67.13,13,Trenten Hibler,Jarrell,66.59,97.52,45.36,106.59,249.48,Single-ply,SBD,M
Boys,74.84,1,Tucker Trejo,Hutto,73.94,188.24,120.2,201.85,510.29,Single-ply,SBD,M
Boys,74.84,2,Zane Bolding,Hutto,69.31,161.03,102.06,181.44,444.52,Single-ply,SBD,M
Boys,74.84,3,TJ Eldridge,Pflugerville Hendrickson,72.03,165.56,92.99,183.7,442.25,Single-ply,SBD,M
Boys,74.84,4,Fabricio Williams,Georgetown,72.89,154.22,113.4,167.83,435.45,Single-ply,SBD,M
Boys,74.84,5,Cameron Forrest,Hutto,71.94,156.49,97.52,165.56,419.57,Single-ply,SBD,M
Boys,74.84,6,Jarrell Wiley,Mexia,71.67,124.74,88.45,158.76,371.95,Single-ply,SBD,M
Boys,74.84,7,Cameron Nielson,Georgetown,71.85,111.13,61.23,124.74,297.1,Single-ply,SBD,M
Boys,74.84,DQ,Juan Venegas,Dripping Springs,71.49,185.97,,,,Single-ply,SBD,M
Boys,82.1,1,Matt Hemphill,Dripping Springs,81.87,249.48,158.76,249.48,657.71,Single-ply,SBD,M
Boys,82.1,2,Jayden Medina,Hutto,80.88,185.97,117.93,217.72,521.63,Single-ply,SBD,M
Boys,82.1,3,Cooper Wagenschein,Robinson,77.79,158.76,95.25,192.78,446.79,Single-ply,SBD,M
Boys,82.1,4,Caleb Forrest,Hutto,77.47,142.88,106.59,183.7,433.18,Single-ply,SBD,M
Boys,82.1,5,Matt Anderson,Georgetown,79.02,138.35,86.18,183.7,408.23,Single-ply,SBD,M
Boys,82.1,6,Jordan Oswald,Georgetown East View,80.15,140.61,111.13,145.15,396.89,Single-ply,SBD,M
Boys,82.1,7,Jack Rees,Pflugerville Hendrickson,80.33,140.61,79.38,149.69,369.68,Single-ply,SBD,M
Boys,89.81,1,Jake Cox,Dripping Springs,86.91,219.99,117.93,226.8,564.72,Single-ply,SBD,M
Boys,89.81,2,Dre'Vaun Cooper,Mexia,89.04,192.78,113.4,199.58,505.76,Single-ply,SBD,M
Boys,89.81,3,Maui Trevino,Austin Lake Travis,86.27,192.78,115.67,192.78,501.22,Single-ply,SBD,M
Boys,89.81,4,Javier Preciado,Hutto,83.28,183.7,115.67,167.83,467.2,Single-ply,SBD,M
Boys,89.81,5,Alan Hernandez,Georgetown,86.5,176.9,115.67,170.1,462.66,Single-ply,SBD,M
Boys,89.81,6,Isaiah Knight,Georgetown East View,86.05,167.83,111.13,163.29,442.25,Single-ply,SBD,M
Boys,89.81,7,Tate Sehon,Robinson,87.18,154.22,102.06,158.76,415.04,Single-ply,SBD,M
Boys,89.81,8,Alex Mahannah,Georgetown,87.32,111.13,70.31,124.74,306.17,Single-ply,SBD,M
Boys,99.79,1,Paul Sanchez,Hutto,98.47,288.03,151.95,288.03,728.02,Single-ply,SBD,M
Boys,99.79,2,David Mata,Georgetown,92.53,247.21,129.27,208.65,585.13,Single-ply,SBD,M
Boys,99.79,3,Joey Gonzalez,Georgetown East View,97.57,172.37,120.2,188.24,480.81,Single-ply,SBD,M
Boys,99.79,4,Cornez Harris,Killeen Shoemaker,89.99,179.17,108.86,188.24,476.27,Single-ply,SBD,M
Boys,99.79,5,Colten McClosky,Mexia,98.47,179.17,115.67,158.76,453.59,Single-ply,SBD,M
Boys,99.79,6,Tyson Boen,Robinson,93.12,172.37,90.72,172.37,435.45,Single-ply,SBD,M
Boys,99.79,7,James Diechler,Mexia,96.3,156.49,95.25,174.63,426.38,Single-ply,SBD,M
Boys,99.79,8,Konor McNeil,Mexia,93.71,165.56,102.06,151.95,419.57,Single-ply,SBD,M
Boys,99.79,9,Ryan Durnell,Austin Lake Travis,91.94,142.88,88.45,151.95,383.29,Single-ply,SBD,M
Boys,99.79,10,Caleb Sammons,Georgetown East View,96.21,138.35,95.25,149.69,383.29,Single-ply,SBD,M
Boys,99.79,11,Leaunte Glee,Killeen Shoemaker,93.8,145.15,79.38,142.88,367.41,Single-ply,SBD,M
Boys,99.79,12,Alex Thiel,Georgetown,95.75,124.74,95.25,136.08,356.07,Single-ply,SBD,M
Boys,99.79,13,Jacob Estrada,Georgetown,99.29,104.33,68.04,102.06,274.42,Single-ply,SBD,M
Boys,109.77,1,Jace Chambers,Pflugerville Hendrickson,106.87,231.33,151.95,251.74,635.03,Single-ply,SBD,M
Boys,109.77,2,Lordswill Uwa-Ndukwe,Hutto,109.5,226.8,122.47,242.67,591.94,Single-ply,SBD,M
Boys,109.77,3,Rey Sanchez,Pflugerville Hendrickson,107.5,215.46,133.81,215.46,564.72,Single-ply,SBD,M
Boys,109.77,4,Daniel Wilde,Robinson,104.78,213.19,115.67,204.12,532.97,Single-ply,SBD,M
Boys,109.77,5,Thomas Clawson,Jarrell,108.45,192.78,133.81,197.31,523.9,Single-ply,SBD,M
Boys,109.77,6,Hunter Robertson,Pflugerville Hendrickson,102.06,201.85,95.25,174.63,471.74,Single-ply,SBD,M
Boys,109.77,7,Josh Escobedo,Robinson,108.82,185.97,108.86,170.1,464.93,Single-ply,SBD,M
Boys,109.77,8,Brady Haug,Robinson,106.96,172.37,106.59,181.44,460.4,Single-ply,SBD,M
Boys,109.77,9,Migel Vivero,Georgetown East View,108.23,163.29,120.2,174.63,458.13,Single-ply,SBD,M
Boys,109.77,10,Roger Leal,Robinson,109.04,181.44,79.38,179.17,439.98,Single-ply,SBD,M
Boys,109.77,11,Dawson Weiss,Austin Lake Travis,109.13,165.56,106.59,161.03,433.18,Single-ply,SBD,M
Boys,124.74,1,Andrew Salem,Austin Lake Travis,115.39,215.46,163.29,224.53,603.28,Single-ply,SBD,M
Boys,124.74,2,Mark Grimm,Hutto,124.06,224.53,127.01,238.14,589.67,Single-ply,SBD,M
Boys,124.74,3,Kaleb Wenson,Austin Lake Travis,116.71,197.31,136.08,222.26,555.65,Single-ply,SBD,M
Boys,124.74,4,Zack Holmes,Hutto,114.67,229.06,120.2,192.78,542.04,Single-ply,SBD,M
Boys,124.74,5,Stephen Ansumana,Dripping Springs,112.63,204.12,120.2,213.19,537.51,Single-ply,SBD,M
Boys,124.74,6,Chad Wolf,Austin Lake Travis,116.21,188.24,122.47,192.78,503.49,Single-ply,SBD,M
Boys,124.74,7,Landry Heller,Mexia,120.93,170.1,158.76,142.88,471.74,Single-ply,SBD,M
Boys,124.74,8,Arvin Jones,Killeen Shoemaker,112.67,158.76,127.01,183.7,469.47,Single-ply,SBD,M
Boys,124.74,9,Joshua Jett,Georgetown,111.13,167.83,106.59,176.9,451.32,Single-ply,SBD,M
Boys,124.74,10,David Lopez,Georgetown,114.17,136.08,90.72,170.1,396.89,Single-ply,SBD,M
Boys,124.74,11,Gabe Valdespino,Pflugerville Hendrickson,114.21,142.88,90.72,147.42,381.02,Single-ply,SBD,M
Boys,124.74,12,Jacob Jackson,Georgetown,117.16,127.01,70.31,142.88,340.19,Single-ply,SBD,M
Boys,124.74+,1,Walker Riley,Pflugerville Hendrickson,130.5,219.99,129.27,208.65,557.92,Single-ply,SBD,M
Boys,124.74+,2,Michael Rodriguez,Georgetown East View,140.48,204.12,136.08,210.92,551.11,Single-ply,SBD,M
Boys,124.74+,3,Trace Snyder,Robinson,148.6,167.83,111.13,195.04,474,Single-ply,SBD,M
Boys,124.74+,4,Jacob Gallimore,Robinson,144.7,185.97,95.25,181.44,462.66,Single-ply,SBD,M
