Division,WeightClassKg,Place,Name,Team,BodyweightKg,Best3SquatKg,Best3BenchKg,Best3DeadliftKg,TotalKg,Equipment,Event,Sex
Girls,44.23,1,Kyra Rodriguez,Cleveland,42.91,120.2,45.36,113.4,278.96,Single-ply,SBD,F
Girls,44.23,2,Breanna DeWalt,Coldspring-Oakhurst,44.18,74.84,31.75,97.52,204.12,Single-ply,SBD,F
Girls,44.23,3,Sarah Stokes,Cleveland Tarkington,43.18,61.23,38.56,81.65,181.44,Single-ply,SBD,F
Girls,44.23,4,Tylarr Bossett,Hamshire-Fannett,44.09,70.31,36.29,74.84,181.44,Single-ply,SBD,F
Girls,44.23,5,Jaysa Crochet,Buna,42.37,72.57,31.75,74.84,179.17,Single-ply,SBD,F
Girls,44.23,6,Emily Brawner,Shepherd,41.37,61.23,34.02,81.65,176.9,Single-ply,SBD,F
Girls,44.23,DQ,Maggie Fuertes,Liberty,42.27,,,,,Single-ply,SBD,F
Girls,47.85,1,Chanel Weekes,Shepherd,47.81,104.33,49.9,133.81,288.03,Single-ply,SBD,F
Girls,47.85,2,Cherylle Finley,Stafford,47.72,104.33,49.9,104.33,258.55,Single-ply,SBD,F
Girls,47.85,3,Megan Elkins,Needville,46.54,95.25,43.09,92.99,231.33,Single-ply,SBD,F
Girls,47.85,4,Savannah Day,Hamshire-Fannett,46.36,86.18,47.63,92.99,226.8,Single-ply,SBD,F
Girls,47.85,5,Jade Woodie,Sour Lake Hardin-Jefferson,47.17,72.57,36.29,95.25,204.12,Single-ply,SBD,F
Girls,47.85,6,Carmen Guzman,Hamshire-Fannett,46.08,77.11,40.82,81.65,199.58,Single-ply,SBD,F
Girls,47.85,7,Lauren Camacho,Hamshire-Fannett,47.45,83.91,38.56,74.84,197.31,Single-ply,SBD,F
Girls,51.94,1,Alejandra Avila,Silsbee,49.9,142.88,65.77,142.88,351.53,Single-ply,SBD,F
Girls,51.94,2,Cheyenne Mize,Shepherd,50.71,108.86,49.9,124.74,283.5,Single-ply,SBD,F
Girls,51.94,3,Jacey Walker,Bridge City,51.89,111.13,54.43,111.13,276.69,Single-ply,SBD,F
Girls,51.94,4,Angelika Martinez,Shepherd,50.8,111.13,49.9,104.33,265.35,Single-ply,SBD,F
Girls,51.94,5,Misty Wilkins,Cleveland,51.8,90.72,38.56,117.93,247.21,Single-ply,SBD,F
Girls,51.94,6,Shlisa Rodgers,Liberty,49.8,97.52,43.09,102.06,242.67,Single-ply,SBD,F
Girls,51.94,7,Brianna Morelion,Buna,50.71,92.99,43.09,104.33,240.4,Single-ply,SBD,F
Girls,51.94,8,Britton Edgerly,Orangefield,51.71,81.65,38.56,106.59,226.8,Single-ply,SBD,F
Girls,51.94,9,Kacey Anthony,Buna,51.8,83.91,43.09,88.45,215.46,Single-ply,SBD,F
Girls,51.94,DQ,Talor Colbert,West Orange-Stark,51.71,,,,,Single-ply,SBD,F
Girls,51.94,DQ,Kendra Fisher,Buna,48.9,,,,,Single-ply,SBD,F
Girls,56.02,1,Lexi Bradford,Shepherd,54.43,131.54,56.7,131.54,319.78,Single-ply,SBD,F
Girls,56.02,2,Alyssa Patterson,Shepherd,55.07,117.93,54.43,127.01,299.37,Single-ply,SBD,F
Girls,56.02,3,Bridgette Parkin,Needville,53.98,97.52,52.16,111.13,260.82,Single-ply,SBD,F
Girls,56.02,4,Bailee Blueitt,Buna,55.79,97.52,40.82,117.93,256.28,Single-ply,SBD,F
Girls,56.02,5,Shelby Broussard,Hamshire-Fannett,54.61,90.72,47.63,111.13,249.48,Single-ply,SBD,F
Girls,56.02,6,Isis Simmons,West Orange-Stark,53.07,97.52,45.36,102.06,244.94,Single-ply,SBD,F
Girls,56.02,7,Chloe Smith,Sour Lake Hardin-Jefferson,54.25,90.72,43.09,111.13,244.94,Single-ply,SBD,F
Girls,56.02,8,Taylor Mize,Shepherd,55.07,79.38,40.82,104.33,224.53,Single-ply,SBD,F
Girls,56.02,9,Jordan Pierce,Coldspring-Oakhurst,55.52,83.91,43.09,95.25,222.26,Single-ply,SBD,F
Girls,56.02,DQ,Jennifer Barrett,Stafford,55.79,108.86,40.82,,,Single-ply,SBD,F
Girls,60.1,1,Demi Nguyen,Shepherd,59.87,131.54,61.23,122.47,315.25,Single-ply,SBD,F
Girls,60.1,2,Destiny Howard,Shepherd,59.87,124.74,63.5,122.47,310.71,Single-ply,SBD,F
Girls,60.1,3,Keana Hogan,Buna,59.24,111.13,61.23,113.4,285.76,Single-ply,SBD,F
Girls,60.1,4,Shelbea Permenter,Buna,58.6,108.86,54.43,113.4,276.69,Single-ply,SBD,F
Girls,60.1,5,Jamie Parks,Shepherd,59.15,108.86,49.9,108.86,267.62,Single-ply,SBD,F
Girls,60.1,6,Alexis Alexander,Coldspring-Oakhurst,58.15,92.99,40.82,124.74,258.55,Single-ply,SBD,F
Girls,60.1,7,Ganessa Sanchez,Needville,59.01,111.13,43.09,99.79,254.01,Single-ply,SBD,F
Girls,60.1,8,Gabby Salas,Shepherd,58.79,88.45,45.36,108.86,242.67,Single-ply,SBD,F
Girls,60.1,9,Kylie Palmer,Needville,57.61,92.99,56.7,88.45,238.14,Single-ply,SBD,F
Girls,60.1,10,Angela Clegg,Coldspring-Oakhurst,57.15,81.65,34.02,104.33,219.99,Single-ply,SBD,F
Girls,67.36,1,Crystal Ballin,Buna,66.04,142.88,70.31,163.29,376.48,Single-ply,SBD,F
Girls,67.36,2,Brittny Welker,Shepherd,65.32,129.27,68.04,117.93,315.25,Single-ply,SBD,F
Girls,67.36,3,Lauren Turner,Shepherd,65.59,136.08,47.63,124.74,308.44,Single-ply,SBD,F
Girls,67.36,4,Taylor Reynolds,Hamshire-Fannett,63.23,124.74,49.9,124.74,299.37,Single-ply,SBD,F
Girls,67.36,5,Skylar Hammons,Orangefield,66.41,92.99,49.9,104.33,247.21,Single-ply,SBD,F
Girls,67.36,6,Bailee Burch,Cleveland,62.05,92.99,38.56,102.06,233.6,Single-ply,SBD,F
Girls,67.36,7,Lily Tydlacka,Needville,66.5,81.65,47.63,99.79,229.06,Single-ply,SBD,F
Girls,67.36,8,Pamela Castillo,Cleveland Tarkington,64.32,79.38,40.82,90.72,210.92,Single-ply,SBD,F
Girls,67.36,DQ,Jessica Oliver,Coldspring-Oakhurst,66.77,,,,,Single-ply,SBD,F
Girls,67.36,DQ,Audrey LeBlanc,Bridge City,65.86,,,,,Single-ply,SBD,F
Girls,67.36,DQ,Samantha Belongia,Coldspring-Oakhurst,62.23,,,,,Single-ply,SBD,F
Girls,75.07,1,Rachel Smith,Buna,74.84,140.61,63.5,124.74,328.85,Single-ply,SBD,F
Girls,75.07,2,Taylor Kelley,Coldspring-Oakhurst,71.4,133.81,56.7,120.2,310.71,Single-ply,SBD,F
Girls,75.07,3,Janna Rychlik,Needville,73.39,136.08,63.5,97.52,297.1,Single-ply,SBD,F
Girls,75.07,4,Kelly Pratt,Cleveland Tarkington,72.3,124.74,40.82,122.47,288.03,Single-ply,SBD,F
Girls,75.07,5,Sarah Sams,Bridge City,74.93,104.33,63.5,120.2,288.03,Single-ply,SBD,F
Girls,75.07,6,Jachryia Locks,West Orange-Stark,73.66,111.13,47.63,124.74,283.5,Single-ply,SBD,F
Girls,75.07,7,Korra Stephens,Shepherd,70.67,108.86,49.9,122.47,281.23,Single-ply,SBD,F
Girls,75.07,8,Daijah Roberts,West Orange-Stark,74.48,102.06,52.16,120.2,274.42,Single-ply,SBD,F
Girls,75.07,9,Carlee Dearing,Bridge City,70.49,108.86,52.16,99.79,260.82,Single-ply,SBD,F
Girls,75.07,DQ,Madison Neal,West Orange-Stark,74.84,,,,,Single-ply,SBD,F
Girls,82.33,1,Callie Saurage,Hamshire-Fannett,80.65,158.76,92.99,142.88,394.63,Single-ply,SBD,F
Girls,82.33,2,Ja'Tayjah Vital,West Orange-Stark,82.19,124.74,65.77,142.88,333.39,Single-ply,SBD,F
Girls,82.33,3,I'Kea Byrd,Coldspring-Oakhurst,78.47,111.13,47.63,131.54,290.3,Single-ply,SBD,F
Girls,82.33,4,Rikki Bodin,Bridge City,76.48,117.93,63.5,102.06,283.5,Single-ply,SBD,F
Girls,82.33,5,Samantha Hargrave,Bridge City,78.02,99.79,54.43,97.52,251.74,Single-ply,SBD,F
Girls,90.04,1,Emily Warren,Bridge City,85.73,131.54,68.04,124.74,324.32,Single-ply,SBD,F
Girls,90.04,2,Kaitlin McFarland,Sour Lake Hardin-Jefferson,83.28,102.06,52.16,165.56,319.78,Single-ply,SBD,F
Girls,90.04,3,Keili Ginsel,Hamshire-Fannett,87,131.54,63.5,124.74,319.78,Single-ply,SBD,F
Girls,90.04,4,Katlin Gordon,Orangefield,86.27,97.52,54.43,104.33,256.28,Single-ply,SBD,F
Girls,90.04,5,Kaley Kirkendall,Buna,84.46,61.23,34.02,79.38,174.63,Single-ply,SBD,F
Girls,90.04,DQ,Staniquia Phipps,Coldspring-Oakhurst,84.19,,,,,Single-ply,SBD,F
Girls,100.02,1,Vinterica Richardson,Coldspring-Oakhurst,90.9,136.08,68.04,120.2,324.32,Single-ply,SBD,F
Girls,100.02,2,Grace McCullough,Sour Lake Hardin-Jefferson,91.53,106.59,52.16,127.01,285.76,Single-ply,SBD,F
Girls,100.02,3,Rielly Causey,Buna,98.16,95.25,58.97,95.25,249.48,Single-ply,SBD,F
Girls,100.02,4,Cara Ethridge,Cleveland Tarkington,97.07,70.31,47.63,111.13,229.06,Single-ply,SBD,F
Girls,100.02,DQ,Nora Weatherford,Cleveland,94.71,95.25,36.29,,,Single-ply,SBD,F
Girls,100.02,DQ,McKenzie Garza,Needville,98.88,106.59,,,,Single-ply,SBD,F
Girls,100.02+,1,Bobby Denard,Buna,118.12,113.4,77.11,113.4,303.91,Single-ply,SBD,F
Girls,100.02+,2,Ariel Elzie,Coldspring-Oakhurst,111.13,102.06,45.36,136.08,283.5,Single-ply,SBD,F
Girls,100.02+,3,Shania Lawson,La Marque,136.08,83.91,61.23,136.08,281.23,Single-ply,SBD,F
Girls,100.02+,4,Abigail Scott,Coldspring-Oakhurst,117.84,97.52,36.29,92.99,226.8,Single-ply,SBD,F
Girls,100.02+,DQ,Briana Williams,Cleveland,100.7,,,,,Single-ply,SBD,F
Girls,100.02+,DQ,Aarron Logan,La Marque,123.74,,,,,Single-ply,SBD,F
