Division,WeightClassKg,Place,Name,Team,BodyweightKg,Best3SquatKg,Best3BenchKg,Best3DeadliftKg,TotalKg,Equipment,Event,Sex
Boys,51.71,1,Jesse Ramirez,San Angelo Lake View,51.71,127.01,83.91,158.76,369.68,Single-ply,SBD,M
Boys,51.71,2,Gunnar McNeill,San Angelo Grape Creek,50.35,113.4,54.43,120.2,288.03,Single-ply,SBD,M
Boys,51.71,3,Jared Gandy,Mertzon Irion County,47.26,104.33,58.97,122.47,285.76,Single-ply,SBD,M
Boys,51.71,4,Jacob Schultz,San Angelo Grape Creek,51.71,99.79,47.63,106.59,254.01,Single-ply,SBD,M
Boys,51.71,5,Marco Sandate,San Angelo Lake View,48.08,92.99,49.9,108.86,251.74,Single-ply,SBD,M
Boys,55.79,1,Ryan Hurst,San Angelo Grape Creek,55.79,158.76,61.23,147.42,367.41,Single-ply,SBD,M
Boys,55.79,2,Mario Manquero,Garden City,55.34,129.27,74.84,129.27,333.39,Single-ply,SBD,M
Boys,55.79,3,David Valdez,Eden,53.98,113.4,54.43,147.42,315.25,Single-ply,SBD,M
Boys,55.79,4,Bailey Espinoza,Eldorado,55.79,120.2,61.23,122.47,303.91,Single-ply,SBD,M
Boys,55.79,5,Stephen Seely,San Angelo Lake View,55.34,102.06,52.16,117.93,272.16,Single-ply,SBD,M
Boys,55.79,6,Lorenzo Garcia,San Angelo Lake View,54.43,86.18,52.16,120.2,258.55,Single-ply,SBD,M
Boys,55.79,DQ,Taylor White,San Angelo Grape Creek,55.34,104.33,,,,Single-ply,SBD,M
Boys,59.87,1,Austin Martinez,Mertzon Irion County,59.51,190.51,99.79,167.83,458.13,Single-ply,SBD,M
Boys,59.87,2,John Hernandez,San Angelo Lake View,59.87,145.15,90.72,179.17,415.04,Single-ply,SBD,M
Boys,59.87,3,Michael Vargas,Ozona,57.15,149.69,72.57,147.42,369.68,Single-ply,SBD,M
Boys,59.87,4,Julio Dominguez,San Angelo Lake View,59.87,111.13,79.38,172.37,362.87,Single-ply,SBD,M
Boys,59.87,5,Brandon Mireles,San Angelo Lake View,59.42,136.08,65.77,154.22,356.07,Single-ply,SBD,M
Boys,59.87,6,Tyler Pacheco,San Angelo Lake View,59.42,133.81,68.04,142.88,344.73,Single-ply,SBD,M
Boys,59.87,7,Victor Muro,San Angelo Lake View,59.87,111.13,74.84,154.22,340.19,Single-ply,SBD,M
Boys,67.13,8,Rodrigo Saldania,San Angelo Grape Creek,60.06,117.93,68.04,142.88,328.85,Single-ply,SBD,M
Boys,59.87,9,Anthony Moreno,San Angelo Lake View,57.61,104.33,63.5,129.27,297.1,Single-ply,SBD,M
Boys,59.87,10,Coltin Neuman,McCamey,58.97,113.4,45.36,106.59,265.35,Single-ply,SBD,M
Boys,59.87,11,Cristian Jimenez,McCamey,58.51,90.72,43.09,83.91,217.72,Single-ply,SBD,M
Boys,67.13,1,Jeremy Curtis,Mertzon Irion County,66.68,185.97,81.65,176.9,444.52,Single-ply,SBD,M
Boys,67.13,2,Hunter Sykes,San Angelo Lake View,66.22,163.29,95.25,165.56,424.11,Single-ply,SBD,M
Boys,67.13,3,Caleb Saldavar,San Angelo Grape Creek,67.13,154.22,86.18,154.22,394.63,Single-ply,SBD,M
Boys,67.13,4,Greg McIntyre,Eden,64.86,136.08,90.72,149.69,376.48,Single-ply,SBD,M
Boys,67.13,5,Deyton Riddle,San Angelo Lake View,64.86,131.54,79.38,161.03,371.95,Single-ply,SBD,M
Boys,67.13,6,Edson Dehoyos,San Angelo Central,60.33,142.88,79.38,142.88,365.14,Single-ply,SBD,M
Boys,67.13,7,Caleb Howe,San Angelo Lake View,63.96,127.01,61.23,167.83,356.07,Single-ply,SBD,M
Boys,67.13,8,Colton Belew,Garden City,61.69,154.22,72.57,120.2,347,Single-ply,SBD,M
Boys,67.13,9,Ryan Kennedy,Ozona,63.05,145.15,63.5,136.08,344.73,Single-ply,SBD,M
Boys,67.13,10,Austin Odem,Garden City,66.68,138.35,74.84,129.27,342.46,Single-ply,SBD,M
Boys,67.13,11,Eli Peterson,San Angelo Lake View,61.69,120.2,72.57,140.61,333.39,Single-ply,SBD,M
Boys,67.13,12,Mark Martinez,Mertzon Irion County,66.86,140.61,72.57,120.2,333.39,Single-ply,SBD,M
Boys,67.13,13,Jordan Zarate,McCamey,63.05,102.06,68.04,127.01,297.1,Single-ply,SBD,M
Boys,67.13,14,Felipe Samora,Rocksprings,61.23,102.06,70.31,115.67,288.03,Single-ply,SBD,M
Boys,67.13,15,David Venages,McCamey,62.14,102.06,52.16,108.86,263.08,Single-ply,SBD,M
Boys,67.13,16,Juan Marquez,Big Lake Reagan County,63.5,127.01,,,127.01,Single-ply,S,M
Boys,67.13,DQ,Daniel Perez,McCamey,66.22,172.37,,,,Single-ply,S,M
Boys,74.84,1,Kyle Dean,Ozona,72.57,215.46,108.86,197.31,521.63,Single-ply,SBD,M
Boys,74.84,2,Jobe Skinner,San Angelo Grape Creek,73.03,170.1,74.84,179.17,424.11,Single-ply,SBD,M
Boys,74.84,3,Jonathan Robinson,San Angelo Lake View,68.95,147.42,97.52,176.9,421.84,Single-ply,SBD,M
Boys,74.84,4,Angel Moreno,San Angelo Lake View,73.03,167.83,90.72,161.03,419.57,Single-ply,SBD,M
Boys,74.84,5,Jj Casarez,McCamey,74.39,145.15,97.52,174.63,417.3,Single-ply,SBD,M
Boys,74.84,6,Fernando Saucedo,Big Lake Reagan County,74.84,136.08,92.99,183.7,412.77,Single-ply,SBD,M
Boys,74.84,7,Jessie Garcia,San Angelo Lake View,69.4,149.69,92.99,154.22,396.89,Single-ply,SBD,M
Boys,74.84,8,Ricky Rushenburg,San Angelo Grape Creek,68.04,183.7,70.31,131.54,385.55,Single-ply,SBD,M
Boys,74.84,9,Chapman Royall,Garden City,70.31,124.74,72.57,165.56,362.87,Single-ply,SBD,M
Boys,74.84,10,Philip Rader,Mertzon Irion County,73.75,131.54,65.77,158.76,356.07,Single-ply,SBD,M
Boys,74.84,11,Cody Majorowski,San Angelo Central,68.49,90.72,74.84,154.22,319.78,Single-ply,SBD,M
Boys,74.84,12,Adam Gonzales,Ozona,73.48,120.2,56.7,117.93,294.84,Single-ply,SBD,M
Boys,74.84,13,Christian Perez,Ozona,68.49,90.72,68.04,97.52,256.28,Single-ply,SBD,M
Boys,82.1,1,Conrad Duran,San Angelo Lake View,82.1,188.24,113.4,199.58,501.22,Single-ply,SBD,M
Boys,82.1,2,Maurico Valdez,San Angelo Lake View,79.38,197.31,102.06,197.31,496.68,Single-ply,SBD,M
Boys,82.1,3,Tyler Hastings,Mertzon Irion County,80.56,199.58,97.52,190.51,487.61,Single-ply,SBD,M
Boys,82.1,4,Ben Bowman,San Angelo Central,77.11,190.51,106.59,183.7,480.81,Single-ply,SBD,M
Boys,82.1,5,Giovanni Galindo,San Angelo Lake View,75.75,145.15,90.72,167.83,403.7,Single-ply,SBD,M
Boys,82.1,6,Zachary Sifuentes,Rocksprings,81.65,145.15,97.52,158.76,401.43,Single-ply,SBD,M
Boys,89.81,7,Dylan Ortega,Mertzon Irion County,82.19,149.69,90.72,149.69,390.09,Single-ply,SBD,M
Boys,82.1,8,Michael Queen,San Angelo Lake View,79.83,136.08,86.18,142.88,365.14,Single-ply,SBD,M
Boys,82.1,9,Trenton Gardner,Big Lake Reagan County,75.75,113.4,74.84,145.15,333.39,Single-ply,SBD,M
Boys,82.1,10,JohnPaul Urias,McCamey,79.38,131.54,70.31,127.01,328.85,Single-ply,SBD,M
Boys,82.1,DQ,Efron Rodriguez,San Angelo Grape Creek,81.65,142.88,90.72,,,Single-ply,SBD,M
Boys,82.1,DQ,Noah Tambunga,Ozona,75.3,117.93,,,,Single-ply,SBD,M
Boys,89.81,1,Marcos Rodarte,San Angelo Grape Creek,87.09,192.78,88.45,188.24,469.47,Single-ply,SBD,M
Boys,89.81,2,Matt Garcia,Mertzon Irion County,88.99,167.83,117.93,167.83,453.59,Single-ply,SBD,M
Boys,89.81,3,Mario Sifuentes,Ozona,85.28,156.49,92.99,158.76,408.23,Single-ply,SBD,M
Boys,89.81,4,Brandon Dominguez,Ozona,87.54,156.49,83.91,158.76,399.16,Single-ply,SBD,M
Boys,89.81,5,Pedro Ybarra,McCamey,85.28,138.35,65.77,142.88,347,Single-ply,SBD,M
Boys,89.81,DQ,Johnathan Young,Garden City,89.81,192.78,,,,Single-ply,SBD,M
Boys,99.79,1,Aaron Allen #2,San Angelo Lake View,99.34,240.4,115.67,258.55,614.62,Single-ply,SBD,M
Boys,99.79,2,Anthony Mata,Eldorado,99.79,226.8,122.47,222.26,571.53,Single-ply,SBD,M
Boys,99.79,3,Zach Pfluger,San Angelo Central,99.34,226.8,124.74,165.56,517.1,Single-ply,SBD,M
Boys,99.79,4,Ben Alexander,San Angelo Central,97.07,181.44,115.67,197.31,494.42,Single-ply,SBD,M
Boys,99.79,5,Brandon McIntyre,Eden,99.79,170.1,113.4,204.12,487.61,Single-ply,SBD,M
Boys,99.79,6,Anthony McCarson,San Angelo Grape Creek,97.98,181.44,99.79,185.97,467.2,Single-ply,SBD,M
Boys,99.79,7,Austin Davidson,Mertzon Irion County,95.53,163.29,92.99,174.63,430.91,Single-ply,SBD,M
Boys,99.79,8,Armando Cortez,San Angelo Lake View,97.98,147.42,88.45,167.83,403.7,Single-ply,SBD,M
Boys,99.79,9,Hazael Damian,Ozona,99.79,142.88,77.11,163.29,383.29,Single-ply,SBD,M
Boys,99.79,10,Michael Ibarra,Ozona,99.79,117.93,81.65,136.08,335.66,Single-ply,SBD,M
Boys,99.79,DQ,Coy Carney,San Angelo Grape Creek,99.34,201.85,,,,Single-ply,SBD,M
Boys,99.79,DQ,Mario Cardenas,San Angelo Lake View,97.98,,,,,Single-ply,SBD,M
Boys,109.77,1,Robert Martinez,San Angelo Central,104.33,294.84,140.61,238.14,673.58,Single-ply,SBD,M
Boys,109.77,2,George Vela,Eden,108.86,226.8,113.4,204.12,544.31,Single-ply,SBD,M
Boys,109.77,3,Angel Aguilera,Big Lake Reagan County,108.41,181.44,111.13,154.22,446.79,Single-ply,SBD,M
Boys,109.77,4,Tres Perez,Ozona,103.87,158.76,95.25,170.1,424.11,Single-ply,SBD,M
Boys,109.77,5,Anthony Avila,Ozona,102.51,136.08,104.33,158.76,399.16,Single-ply,SBD,M
Boys,109.77,DQ,Gerald Willams,San Angelo Grape Creek,100.24,,,,,Single-ply,SBD,M
Boys,109.77,DQ,Brandon Lopez,San Angelo Lake View,104.78,170.1,99.79,,,Single-ply,SBD,M
Boys,109.77,DQ,Joshua Smith,San Angelo Lake View,101.15,,,,,Single-ply,SBD,M
Boys,124.74,1,Tanner Holt,San Angelo Grape Creek,121.11,235.87,151.95,244.94,632.76,Single-ply,SBD,M
Boys,124.74,2,Mike Childress,San Angelo Central,112.04,258.55,158.76,204.12,621.42,Single-ply,SBD,M
Boys,124.74,3,Ricky Ciuba,Mertzon Irion County,117.39,249.48,145.15,215.46,610.08,Single-ply,SBD,M
Boys,124.74,4,Michael Molina,McCamey,112.04,249.48,127.01,190.51,566.99,Single-ply,SBD,M
Boys,124.74,5,Nick Evans,San Angelo Central,111.13,213.19,92.99,204.12,510.29,Single-ply,SBD,M
Boys,124.74,6,Xavier Spurlock,Rocksprings,116.12,181.44,124.74,181.44,487.61,Single-ply,SBD,M
Boys,124.74,7,Joe Borrego,Ozona,111.13,170.1,102.06,181.44,453.59,Single-ply,SBD,M
Boys,124.74,8,Christian Delgado,San Angelo Lake View,120.2,181.44,99.79,140.61,421.84,Single-ply,SBD,M
Boys,124.74,9,Frankie Mier,Garden City,122.02,140.61,90.72,149.69,381.02,Single-ply,SBD,M
Boys,124.74+,1,Tim Meza,San Angelo Central,134.72,276.69,140.61,226.8,644.1,Single-ply,SBD,M
Boys,124.74+,2,Emmitt Spurlock,Rocksprings,125.19,217.72,138.35,195.04,551.11,Single-ply,SBD,M
Boys,124.74+,3,Max Rivero,San Angelo Central,135.17,226.8,117.93,185.97,530.7,Single-ply,SBD,M
Boys,124.74+,4,Hayden Vinson,San Angelo Central,129.73,219.99,108.86,192.78,521.63,Single-ply,SBD,M
Boys,124.74+,5,James Marroquin,San Angelo Lake View,127.01,201.85,115.67,199.58,517.1,Single-ply,SBD,M
Boys,124.74+,6,Tony Flores,Big Lake Reagan County,129.27,179.17,99.79,170.1,449.06,Single-ply,SBD,M
Boys,124.74+,7,Damien Venages,McCamey,127.46,167.83,83.91,167.83,419.57,Single-ply,SBD,M
Boys,124.74+,DQ,Adolf Mascorro,San Angelo Lake View,138.35,154.22,,,,Single-ply,SBD,M
