Division,WeightClassKg,Place,Name,Team,BodyweightKg,Best3SquatKg,Best3BenchKg,Best3DeadliftKg,TotalKg,Equipment,Event,Sex
Girls,44.23,1,Emilee Jones,Simms Bowie,41.73,70.31,27.22,83.91,181.44,Single-ply,SBD,F
Girls,44.23,DQ,Jessica Oviedo,New Summerfield,42.46,27.22,15.88,49.9,,Single-ply,SBD,F
Girls,44.23,DQ,Ana Suarez,New Summerfield,43.82,29.48,15.88,45.36,,Single-ply,SBD,F
Girls,44.23,DQ,Angela Hernandez,Kemp,44,,,,,Single-ply,SBD,F
Girls,44.23,DQ,Jenafer Matich,Kemp,44,,,,,Single-ply,SBD,F
Girls,47.85,1,Ebony Castleberry,Linden-Kildare,47.63,99.79,40.82,106.59,247.21,Single-ply,SBD,F
Girls,47.85,2,Carlie Gibson,Palestine Westwood,46.99,95.25,36.29,108.86,240.4,Single-ply,SBD,F
Girls,47.85,3,Alicia Estrada,Kemp,47.81,95.25,52.16,92.99,240.4,Single-ply,SBD,F
Girls,47.85,4,Gillian Dossey,Linden-Kildare,47.63,81.65,38.56,74.84,195.04,Single-ply,SBD,F
Girls,47.85,5,Jaelan Linville,Mount Enterprise,46.13,74.84,36.29,72.57,183.7,Single-ply,SBD,F
Girls,47.85,DQ,Joanna Adame,New Summerfield,47.72,27.22,24.95,58.97,,Single-ply,SBD,F
Girls,47.85,DQ,Tanya Suarez,New Summerfield,47.81,65.77,29.48,86.18,,Single-ply,SBD,F
Girls,51.94,1,Luisa Soto,White Oak,51.62,113.4,45.36,113.4,272.16,Single-ply,SBD,F
Girls,51.94,2,Paige Oliver,Palestine Westwood,49.99,102.06,36.29,120.2,258.55,Single-ply,SBD,F
Girls,51.94,3,Haylie Martin,Big Sandy Harmony,48.17,97.52,47.63,108.86,254.01,Single-ply,SBD,F
Girls,51.94,4,Carmen Villarreal,Kemp,50.98,97.52,47.63,97.52,242.67,Single-ply,SBD,F
Girls,51.94,5,Treasure Hines,Linden-Kildare,51.71,92.99,52.16,97.52,242.67,Single-ply,SBD,F
Girls,51.94,6,Jacee Ballow,Eustace,50.62,106.59,36.29,97.52,240.4,Single-ply,SBD,F
Girls,51.94,7,Madison Hunt,Gladewater Union Grove,48.99,90.72,47.63,95.25,233.6,Single-ply,SBD,F
Girls,51.94,8,Lane Carr,Maud,51.89,90.72,40.82,99.79,231.33,Single-ply,SBD,F
Girls,51.94,9,Bailee Bradshaw,Joaquin,51.26,68.04,34.02,81.65,183.7,Single-ply,SBD,F
Girls,51.94,DQ,Sara Rangel,New Summerfield,51.71,,,,,Single-ply,SBD,F
Girls,51.94,DQ,Diana Torres,New Summerfield,51.44,,,,,Single-ply,SBD,F
Girls,51.94,DQ,Bailee Casteel,Troup,50.71,,,,,Single-ply,SBD,F
Girls,56.02,1,Jaiden Rose,Shelbyville,55.16,111.13,58.97,106.59,276.69,Single-ply,SBD,F
Girls,56.02,2,Kailey Farmer,Hughes Springs,55.61,102.06,56.7,99.79,258.55,Single-ply,SBD,F
Girls,56.02,3,Kiley Kennedy,Palestine Westwood,54.7,86.18,40.82,115.67,242.67,Single-ply,SBD,F
Girls,56.02,4,Jaylen Lewis,Gladewater Sabine,52.62,88.45,45.36,99.79,233.6,Single-ply,SBD,F
Girls,56.02,5,Madilynn Newman,Gladewater Union Grove,53.8,81.65,43.09,102.06,226.8,Single-ply,SBD,F
Girls,56.02,6,Amber Tuft,Elysian Fields,54.98,79.38,31.75,97.52,208.65,Single-ply,SBD,F
Girls,56.02,DQ,Karen Torres,New Summerfield,52.89,56.7,29.48,70.31,,Single-ply,SBD,F
Girls,56.02,DQ,Jasmine Suarez,New Summerfield,54.61,31.75,20.41,47.63,,Single-ply,SBD,F
Girls,56.02,DQ,Veronica Sanchez,New Summerfield,52.07,,,,,Single-ply,SBD,F
Girls,56.02,DQ,La'Keia Patterson,Linden-Kildare,55.79,,,,,Single-ply,SBD,F
Girls,56.02,DQ,Jaylin Conteras,Kemp,55.79,,,,,Single-ply,SBD,F
Girls,56.02,DQ,Yesi Avalos,Laird Hill Leveretts Chapel,55.79,,,,,Single-ply,SBD,F
Girls,56.02,DQ,Emily Jones,Mineola,55.79,,,,,Single-ply,SBD,F
Girls,60.1,1,Collen Pulpan,White Oak,60.06,127.01,70.31,117.93,315.25,Single-ply,SBD,F
Girls,60.1,2,Kelsie Richmond,Eustace,57.61,115.67,52.16,129.27,297.1,Single-ply,SBD,F
Girls,60.1,3,Anna Gaddis,Eustace,56.88,99.79,58.97,117.93,276.69,Single-ply,SBD,F
Girls,60.1,4,Daniela Gonzalez,Palestine Westwood,58.06,108.86,61.23,104.33,274.42,Single-ply,SBD,F
Girls,60.1,5,Breanna Jackson,Shelbyville,59.6,106.59,43.09,120.2,269.89,Single-ply,SBD,F
Girls,60.1,6,Kaeli Chalk,Gladewater Union Grove,56.43,102.06,43.09,122.47,267.62,Single-ply,SBD,F
Girls,60.1,7,Bethany Alexander,Kemp,57.06,113.4,43.09,108.86,265.35,Single-ply,SBD,F
Girls,60.1,8,Claire Pittman,Hughes Springs,56.7,115.67,47.63,99.79,263.08,Single-ply,SBD,F
Girls,60.1,9,Raegan Hope,Mineola,59.69,104.33,40.82,104.33,249.48,Single-ply,SBD,F
Girls,60.1,10,Madison Boelter,Elysian Fields,58.6,79.38,36.29,120.2,235.87,Single-ply,SBD,F
Girls,60.1,DQ,Catherine Spurgeon,Mineola,59.87,,,,,Single-ply,SBD,F
Girls,60.1,DQ,Janzel Baroy,Palestine Westwood,59.87,,,,,Single-ply,SBD,F
Girls,60.1,DQ,Hailey Lawson,New Summerfield,59.51,,,,,Single-ply,SBD,F
Girls,60.1,DQ,Riley Strawn,Mount Enterprise,59.87,111.13,58.97,,,Single-ply,SBD,F
Girls,67.36,1,Lauren Ummell,White Oak,65.41,142.88,79.38,147.42,369.68,Single-ply,SBD,F
Girls,67.36,2,Samantha Hagood,Cumby,66.59,131.54,47.63,140.61,319.78,Single-ply,SBD,F
Girls,67.36,3,Dewayna Johnson,New London West Rusk,64.59,120.2,61.23,129.27,310.71,Single-ply,SBD,F
Girls,67.36,4,Savannah Johnson,Winona,60.87,113.4,56.7,122.47,292.57,Single-ply,SBD,F
Girls,67.36,5,Bailee Russell,Big Sandy Harmony,62.14,113.4,47.63,115.67,276.69,Single-ply,SBD,F
Girls,67.36,6,Caitlin Case,Kemp,67.04,117.93,52.16,106.59,276.69,Single-ply,SBD,F
Girls,67.36,7,Makayla Daniels,Maud,65.23,111.13,47.63,111.13,269.89,Single-ply,SBD,F
Girls,67.36,8,Katherine Patterson,Gladewater Sabine,65.5,108.86,43.09,117.93,269.89,Single-ply,SBD,F
Girls,67.36,9,Cassidy Olazabel,Diana New Diana,60.96,102.06,52.16,106.59,260.82,Single-ply,SBD,F
Girls,67.36,10,Ashlynn Smith,Gladewater Sabine,64.86,102.06,45.36,108.86,256.28,Single-ply,SBD,F
Girls,67.36,11,Jessica Decco,New London West Rusk,65.05,74.84,43.09,88.45,206.38,Single-ply,SBD,F
Girls,67.36,12,Sophia Wenzel,Linden-Kildare,67.22,72.57,31.75,99.79,204.12,Single-ply,SBD,F
Girls,67.36,13,Ashton Roberts,Simms Bowie,60.87,74.84,36.29,90.72,201.85,Single-ply,SBD,F
Girls,67.36,DQ,Mackenzie Craine,Kemp,65.59,,,,,Single-ply,SBD,F
Girls,67.36,DQ,Chloey Dalrymple,Kemp,67.13,,,,,Single-ply,SBD,F
Girls,67.36,DQ,Ariel Webb,Gladewater Sabine,67.13,,,,,Single-ply,SBD,F
Girls,67.36,DQ,Ashley Hagood,Cumby,64.41,,,,,Single-ply,SBD,F
Girls,67.36,DQ,Addison Solomon,Troup,66.59,124.74,54.43,,,Single-ply,SBD,F
Girls,67.36,DQ,Britney Berlanga,Winona,60.69,,,,,Single-ply,SBD,F
Girls,75.07,1,Bailey Braddock,Cumby,74.93,165.56,63.5,158.76,387.82,Single-ply,SBD,F
Girls,75.07,2,Kinsey Rogers,Kemp,71.4,124.74,68.04,113.4,306.17,Single-ply,SBD,F
Girls,75.07,3,Brenda Rojo,Troup,70.94,124.74,54.43,108.86,288.03,Single-ply,SBD,F
Girls,75.07,4,Jasmine Peralta,Palestine Westwood,70.94,122.47,45.36,120.2,288.03,Single-ply,SBD,F
Girls,75.07,5,Madeline Neeley,Simms Bowie,70.13,117.93,43.09,113.4,274.42,Single-ply,SBD,F
Girls,75.07,6,Lacie Brown,Mineola,69.49,102.06,45.36,117.93,265.35,Single-ply,SBD,F
Girls,75.07,7,Jane McNair,Laird Hill Leveretts Chapel,73.39,97.52,45.36,95.25,238.14,Single-ply,SBD,F
Girls,75.07,8,Zoe Mills,Hawkins,67.86,58.97,29.48,83.91,172.37,Single-ply,SBD,F
Girls,75.07,DQ,Andrea Folsom,Hughes Springs,74.84,,,,,Single-ply,SBD,F
Girls,75.07,DQ,Gwynn Hennessey,Mineola,74.84,,,,,Single-ply,SBD,F
Girls,75.07,DQ,Lauren Alumete,Mineola,74.84,,,,,Single-ply,SBD,F
Girls,75.07,DQ,Abby Dahlgren,New London West Rusk,74.84,,,,,Single-ply,SBD,F
Girls,75.07,DQ,Cheyenne Henson,Troup,72.03,,,,,Single-ply,SBD,F
Girls,82.33,1,Brianna Garcia,Ore City,81.92,140.61,88.45,136.08,365.14,Single-ply,SBD,F
Girls,82.33,2,Jaz Atkins,Joaquin,77.2,142.88,72.57,142.88,358.34,Single-ply,SBD,F
Girls,82.33,3,Maci Mattingly,Malakoff Cross Roads,81.1,129.27,63.5,158.76,351.53,Single-ply,SBD,F
Girls,82.33,4,Hailey Jacobs,Winona,81.65,142.88,56.7,151.95,351.53,Single-ply,SBD,F
Girls,82.33,5,Elizabeth Whitwell,Longview Spring Hill,76.75,120.2,58.97,140.61,319.78,Single-ply,SBD,F
Girls,82.33,6,Kaitlin Hunter,Gladewater Sabine,76.11,111.13,61.23,145.15,317.51,Single-ply,SBD,F
Girls,82.33,7,Kourtlin Hunter,Gladewater Sabine,76.11,115.67,58.97,140.61,315.25,Single-ply,SBD,F
Girls,82.33,8,Baylee Glover,Simms Bowie,81.19,122.47,56.7,131.54,310.71,Single-ply,SBD,F
Girls,82.33,9,Jalen Denmark,Hughes Springs,75.39,108.86,68.04,108.86,285.76,Single-ply,SBD,F
Girls,82.33,10,Aubrey Williamson,Laird Hill Leveretts Chapel,78.02,117.93,45.36,113.4,276.69,Single-ply,SBD,F
Girls,82.33,11,Lirio Rodriguez,Diana New Diana,80.2,113.4,45.36,104.33,263.08,Single-ply,SBD,F
Girls,82.33,DQ,Brianna Morrow,Hughes Springs,82.1,,,,,Single-ply,SBD,F
Girls,82.33,DQ,Sydnee Martin,New London West Rusk,82.1,,,,,Single-ply,SBD,F
Girls,82.33,DQ,Melonia Lofton,New Summerfield,82.1,,,,,Single-ply,SBD,F
Girls,90.04,1,Esmeralda Amaro,Laird Hill Leveretts Chapel,84.46,181.44,63.5,127.01,371.95,Single-ply,SBD,F
Girls,90.04,2,Bailey Wilder,Gladewater Union Grove,88.18,127.01,68.04,124.74,319.78,Single-ply,SBD,F
Girls,90.04,3,Shelby Walker,Simms Bowie,88.36,127.01,47.63,129.27,303.91,Single-ply,SBD,F
Girls,90.04,DQ,Elizabeth Thomas,Cumby,89.81,,,,,Single-ply,SBD,F
Girls,100.02,1,Desere Cooper,Joaquin,92.62,181.44,70.31,170.1,421.84,Single-ply,SBD,F
Girls,100.02,2,Savannah Reynolds,Laird Hill Leveretts Chapel,95.62,167.83,58.97,142.88,369.68,Single-ply,SBD,F
Girls,100.02,3,Bailey Palmertree,Diana New Diana,90.85,138.35,45.36,124.74,308.44,Single-ply,SBD,F
Girls,100.02,4,Hannah Merritt,Gladewater Sabine,97.89,113.4,49.9,127.01,290.3,Single-ply,SBD,F
Girls,100.02,DQ,Jessica Baeza,Kemp,99.79,,,,,Single-ply,SBD,F
Girls,100.02,DQ,KeKe Floyd,Ore City,99.79,,,,,Single-ply,SBD,F
Girls,100.02+,1,Shelby Swaim,Joaquin,132.72,156.49,86.18,145.15,387.82,Single-ply,SBD,F
Girls,100.02+,2,Tori Hill,White Oak,107.14,140.61,54.43,122.47,317.51,Single-ply,SBD,F
Girls,100.02+,DQ,Morgan Clark,Gladewater Union Grove,119.2,,,,,Single-ply,SBD,F
Girls,100.02+,DQ,Molly Mason,Joaquin,100.43,124.74,,,,Single-ply,SBD,F
Girls,,NS,Emily Lewallen,Palestine Westwood,,,,,,Single-ply,SBD,F
Girls,,NS,Alex Goodwin,White Oak,,,,,,Single-ply,SBD,F
