Place,Name,BirthYear,Country,BodyweightKg,Bench1Kg,Bench2Kg,Bench3Kg,Best3BenchKg,TotalKg,WeightClassKg,Division,Event,Sex,Equipment
1,Christian Klein,1970,Germany,59,-155,-155,155,155,155,59,Masters 1,B,M,Single-ply
2,Petri Niemi,1971,Finland,58.14,135,-140,-142.5,135,135,59,Masters 1,B,M,Single-ply
3,Ari-Pekka Töllikkö,1970,Finland,59,120,-140,-140,120,120,59,Masters 1,B,M,Single-ply
1,Olivier Waymel,1966,France,65.34,175,185,192.5,192.5,192.5,66,Masters 1,B,M,Single-ply
2,Francisco Rodríguez Gutiérrez,1969,Spain,65.92,140,150,160,160,160,66,Masters 1,B,M,Single-ply
1,Alphonse Cucuzella,1966,France,72.98,210,220,-231,220,220,74,Masters 1,B,M,Single-ply
2,Andreas Pöhls,1968,Germany,73.47,180,-190,-190,180,180,74,Masters 1,B,M,Single-ply
3,Rafal Szendera,1971,Poland,73.13,140,-145,145,145,145,74,Masters 1,B,M,Single-ply
4,Johannes Scholberg,1972,Norway,73.85,-140,140,145,145,145,74,Masters 1,B,M,Single-ply
1,Cyril Pinguet,1972,France,82.02,230,-240,-240,230,230,83,Masters 1,B,M,Single-ply
2,Vesa Hartikainen,1969,Finland,82.17,202.5,-207.5,207.5,207.5,207.5,83,Masters 1,B,M,Single-ply
3,Martin Turek,1972,Czechia,82.27,197.5,-202.5,207.5,207.5,207.5,83,Masters 1,B,M,Single-ply
4,Vladimír Nebola,1970,Czechia,82.65,-190,190,200,200,200,83,Masters 1,B,M,Single-ply
5,Ireneusz Fuja,1970,Poland,82.24,185,-192.5,197.5,197.5,197.5,83,Masters 1,B,M,Single-ply
6,Stig Frohol,1968,Norway,82.21,-195,195,-205,195,195,83,Masters 1,B,M,Single-ply
7,Jesús Ruíz Ortiz,1972,Spain,82.69,-145,145,-160,145,145,83,Masters 1,B,M,Single-ply
1,Jiří Kati,1965,Czechia,91.57,250,-257.5,-257.5,250,250,93,Masters 1,B,M,Single-ply
2,Michel Marneur,1968,France,91.72,240,-250,-252.5,240,240,93,Masters 1,B,M,Single-ply
3,Olaf Brandl,1970,Germany,92.59,-220,220,230,230,230,93,Masters 1,B,M,Single-ply
4,Uwe Hering,1963,Germany,92.32,220,227.5,-230,227.5,227.5,93,Masters 1,B,M,Single-ply
5,Robert Dawidowicz,1972,Sweden,92.28,215,220,-227.5,220,220,93,Masters 1,B,M,Single-ply
6,Henrik Bo Jensen,1967,Denmark,91.57,180,187.5,-200,187.5,187.5,93,Masters 1,B,M,Single-ply
DQ,Svein-Olav Farstad,1965,Norway,91.63,-235,-240,-240,,,93,Masters 1,B,M,Single-ply
DQ,Miroslav Paukert,1963,Czechia,91.66,-220,-225,-227.5,,,93,Masters 1,B,M,Single-ply
1,Philippe Szezepanski,1964,France,100.95,240,245,250,250,250,105,Masters 1,B,M,Single-ply
2,Juha Lehto,1966,Finland,104.01,-240,247.5,-250,247.5,247.5,105,Masters 1,B,M,Single-ply
3,Gilbert Bier,1970,France,104.61,-245,-245,247.5,247.5,247.5,105,Masters 1,B,M,Single-ply
4,Khaled Ghazal,1972,Czechia,103.32,-225,-225,225,225,225,105,Masters 1,B,M,Single-ply
DQ,Imrich Švec,1966,Slovakia,103.8,-235,-242.5,-247.5,,,105,Masters 1,B,M,Single-ply
DQ,Arild Kraakenes,1968,Norway,104.61,-237.5,-245,-245,,,105,Masters 1,B,M,Single-ply
1,Markus Karner,1970,Austria,117.95,270,275,277.5,277.5,277.5,120,Masters 1,B,M,Single-ply
2,Pål Guddal,1971,Norway,118.79,260,-272.5,-272.5,260,260,120,Masters 1,B,M,Single-ply
3,Robert Blom,1966,Sweden,119.41,235,240,245,245,245,120,Masters 1,B,M,Single-ply
4,Wolfgang Zimmermann,1968,Germany,110.59,235,242.5,-250,242.5,242.5,120,Masters 1,B,M,Single-ply
5,Wieslaw Dominik,1965,Poland,119.36,-215,-225,230,230,230,120,Masters 1,B,M,Single-ply
6,Stewart Cowan,1963,UK,108.7,205,212.5,-220,212.5,212.5,120,Masters 1,B,M,Single-ply
DQ,Morten Haug Harald,1969,Norway,114.04,-222.5,-222.5,-227.5,,,120,Masters 1,B,M,Single-ply
DQ,Petr Lahoda,1970,Czechia,117.29,-250,-250,-250,,,120,Masters 1,B,M,Single-ply
1,Ewald Enzinger,1966,Austria,143.15,315,341,-351,341,341,120+,Masters 1,B,M,Single-ply
2,Juho Jaatinen,1966,Finland,137.15,-292.5,292.5,300,300,300,120+,Masters 1,B,M,Single-ply
3,Jaroslav Šoukal,1972,Czechia,147.45,270,282.5,-295,282.5,282.5,120+,Masters 1,B,M,Single-ply
4,Jean-Yves Minelle,1966,France,154.22,275,-282.5,-285,275,275,120+,Masters 1,B,M,Single-ply
5,Jürgen Löther,1963,Germany,128.11,247.5,-252.5,255,255,255,120+,Masters 1,B,M,Single-ply
6,Renaud Mathon,1969,France,132.66,-250,250,-262.5,250,250,120+,Masters 1,B,M,Single-ply
7,Jürgen Rekittke,1969,Germany,157.72,-240,240,-262.5,240,240,120+,Masters 1,B,M,Single-ply
8,Jiří Lacina,1969,Czechia,120.1,205,212.5,-220,212.5,212.5,120+,Masters 1,B,M,Single-ply
DQ,Jan Vestergaard,1966,Denmark,120.59,-190,-190,-190,,,120+,Masters 1,B,M,Single-ply
DQ,Timo Rantala,1963,Finland,124.26,,,,,,120+,Masters 1,B,M,Single-ply
1,Štefan Koľšovský,1961,Slovakia,58.62,140,145,-150,145,145,59,Masters 2,B,M,Single-ply
2,Seppo Flink,1953,Finland,58.75,105,107.5,-110,107.5,107.5,59,Masters 2,B,M,Single-ply
3,Alexander Moiseev,1954,Belarus,58.19,-95,95,102.5,102.5,102.5,59,Masters 2,B,M,Single-ply
1,Karsten Gelhar,1957,Germany,65.73,137.5,145,150,150,150,66,Masters 2,B,M,Single-ply
2,Peter Muigg,1958,Austria,65.39,140,-142.5,-145,140,140,66,Masters 2,B,M,Single-ply
3,Yuriy Emelyanov,1958,Russia,65.38,137.5,-145,-145,137.5,137.5,66,Masters 2,B,M,Single-ply
4,Marian Piwowarczyk,1961,Poland,62,80,100,-110,100,100,66,Masters 2,B,M,Single-ply
1,Erkki Rajala,1962,Finland,73,202.5,205.5,-212.5,205.5,205.5,74,Masters 2,B,M,Single-ply
2,Eugeniusz Mehlich,1955,Poland,73.64,-162.5,162.5,-170,162.5,162.5,74,Masters 2,B,M,Single-ply
DQ,Tomáš Ježek,1960,Czechia,72.98,-165,-167.5,-170,,,74,Masters 2,B,M,Single-ply
DQ,Klaus Griesch,1959,Germany,73.12,-167.5,-170,-172.5,,,74,Masters 2,B,M,Single-ply
1,Rémy Krayzel,1955,Czechia,82.19,-185,190,195,195,195,83,Masters 2,B,M,Single-ply
2,Detlef Götzke,1962,Germany,81.5,-180,185,192.5,192.5,192.5,83,Masters 2,B,M,Single-ply
3,Jukka Saunamäki,1961,Sweden,80.47,185,190,-195,190,190,83,Masters 2,B,M,Single-ply
4,Stig Björkqvist,1960,Finland,81.2,182.5,187.5,-192.5,187.5,187.5,83,Masters 2,B,M,Single-ply
5,Philippe Langevin,1961,France,80.48,170,-175,-187.5,170,170,83,Masters 2,B,M,Single-ply
DQ,Tomas Ring,1960,Sweden,82.45,-177.5,-177.5,-177.5,,,83,Masters 2,B,M,Single-ply
DQ,Erik Rasmussen,1962,Denmark,83,,,,,,83,Masters 2,B,M,Single-ply
1,Peer Hänsicke,1961,Germany,92.45,-212.5,212.5,-220,212.5,212.5,93,Masters 2,B,M,Single-ply
2,Ilkka Launonen,1954,Finland,90.64,-200,200,-205,200,200,93,Masters 2,B,M,Single-ply
3,Gyorgy Tabori,1954,Hungary,91.23,-180,-180,180,180,180,93,Masters 2,B,M,Single-ply
4,Aleksandr Vlasov,1955,Russia,86.47,170,-177.5,-177.5,170,170,93,Masters 2,B,M,Single-ply
DQ,Jean-Charles Marchadier,1962,France,90.61,-195,-195,-195,,,93,Masters 2,B,M,Single-ply
DQ,Conny Andersson,1959,Sweden,92.47,-197.5,-197.5,-197.5,,,93,Masters 2,B,M,Single-ply
1,Vladimirs Kovalskis,1958,Latvia,102.6,200,210,215,215,215,105,Masters 2,B,M,Single-ply
2,Mariusz Willem,1959,Netherlands,102.46,-210,210,-212.5,210,210,105,Masters 2,B,M,Single-ply
3,Zoltan Safrany,1960,Hungary,101.53,-192.5,192.5,207.5,207.5,207.5,105,Masters 2,B,M,Single-ply
4,Thomas Müller,1962,Germany,100.22,205,-210,-210,205,205,105,Masters 2,B,M,Single-ply
5,Harri Hagfors,1961,Finland,103.96,195,202.5,205,205,205,105,Masters 2,B,M,Single-ply
6,Pascal Merlier,1959,France,99.72,185,195,-202.5,195,195,105,Masters 2,B,M,Single-ply
7,Martin Flett,1956,UK,104.86,190,-200,-205,190,190,105,Masters 2,B,M,Single-ply
DQ,Rostislav Cejnek,1962,Czechia,101.46,-217.5,-220,-220,,,105,Masters 2,B,M,Single-ply
1,Mariusz Hadrysiak,1961,Poland,111.05,260,278,285,285,285,120,Masters 2,B,M,Single-ply
2,Zoltán Kanát,1962,Czechia,114.48,220,242.5,-252.5,242.5,242.5,120,Masters 2,B,M,Single-ply
3,Bernd Meyer,1961,Germany,117.31,225,-230,-232.5,225,225,120,Masters 2,B,M,Single-ply
4,Jiří Krčmář,1962,Czechia,114.82,220,-232.5,-232.5,220,220,120,Masters 2,B,M,Single-ply
5,Allan Hulme,1956,UK,109.35,-205,205,-212.5,205,205,120,Masters 2,B,M,Single-ply
6,Rudolf Fenyvesi,1959,Hungary,112.42,-145,145,152.5,152.5,152.5,120,Masters 2,B,M,Single-ply
7,Julian Massey,1956,UK,116.5,75,95,115,115,115,120,Masters 2,B,M,Single-ply
DQ,Björn Iversen,1955,Sweden,109.59,-230,-230,-230,,,120,Masters 2,B,M,Single-ply
DQ,Morten Kaland,1959,Norway,118.43,-230,-230,-230,,,120,Masters 2,B,M,Single-ply
1,Eberhard Schwanke,1953,Germany,145.29,-250,-250,250,250,250,120+,Masters 2,B,M,Single-ply
2,Patrice Lefebvre,1962,France,126.56,230,235,-250,235,235,120+,Masters 2,B,M,Single-ply
3,Renaldo Rossetti,1960,France,152.95,120,190,-225,190,190,120+,Masters 2,B,M,Single-ply
DQ,Kari Alakorpi,1959,Finland,133.03,-225,-225,-240,,,120+,Masters 2,B,M,Single-ply
DQ,Jürgen Lochner,1959,Germany,155.05,-270,-270,-270,,,120+,Masters 2,B,M,Single-ply
1,Guy Laurent,1950,France,58.15,97.5,105,-107.5,105,105,59,Masters 3,B,M,Single-ply
1,Dieter Schuck,1948,Germany,65.32,-115,-115,115,115,115,66,Masters 3,B,M,Single-ply
2,Juha Inkinen,1946,Finland,65.57,100,102.5,105,105,105,66,Masters 3,B,M,Single-ply
DQ,Claude Sitruk,1950,France,65.31,-165,-165,-165,,,66,Masters 3,B,M,Single-ply
1,Michel Dernoncourt,1946,France,73.22,-142.5,147.5,152.5,152.5,152.5,74,Masters 3,B,M,Single-ply
2,Antero Kauranen,1948,Finland,73.12,110,142.5,-152.5,142.5,142.5,74,Masters 3,B,M,Single-ply
1,Bjarne Synstad,1951,Norway,81.35,190,200,-212.5,200,200,83,Masters 3,B,M,Single-ply
2,Nikolay Volkov,1951,Russia,78.73,-165,-165,165,165,165,83,Masters 3,B,M,Single-ply
3,Alex Lee,1944,UK,78.28,-162.5,162.5,-165,162.5,162.5,83,Masters 3,B,M,Single-ply
4,Wolf-Peter Springstein,1951,Germany,80.33,155,162.5,-167.5,162.5,162.5,83,Masters 3,B,M,Single-ply
5,Hans Jørgen Jørgensen,1944,Denmark,80.12,145,150,-162.5,150,150,83,Masters 3,B,M,Single-ply
DQ,Allan Eriksson,1946,Sweden,79.44,-157.5,-157.5,-162.5,,,83,Masters 3,B,M,Single-ply
DQ,Reima Häkkinen,1950,Finland,81.44,-170,-170,-170,,,83,Masters 3,B,M,Single-ply
1,Arne Boe Kjell,1952,Norway,87.85,200,-202.5,-202.5,200,200,93,Masters 3,B,M,Single-ply
2,Laurent Durocher,1952,France,91.75,170,175,-202.5,175,175,93,Masters 3,B,M,Single-ply
3,Georgijs Agadzhanjans,1946,Latvia,90.28,160,-165,-165,160,160,93,Masters 3,B,M,Single-ply
4,Fred Marienfeldt,1948,Germany,91.48,-160,160,-165,160,160,93,Masters 3,B,M,Single-ply
5,Paul Wray,1950,UK,86.94,135,-140,-145,135,135,93,Masters 3,B,M,Single-ply
6,Tapani Puhakka,1944,Finland,89.96,110,117.5,-122.5,117.5,117.5,93,Masters 3,B,M,Single-ply
DQ,Jiří Horník,1948,Czechia,91.13,-165,-165,-165,,,93,Masters 3,B,M,Single-ply
1,Wojciech Grabowski,1951,Poland,102.77,225,235,-240,235,235,105,Masters 3,B,M,Single-ply
2,Matti Silvander,1944,Finland,101.6,190,195,200,200,200,105,Masters 3,B,M,Single-ply
3,Helmut Reimann,1951,Germany,101.39,-187.5,190,197.5,197.5,197.5,105,Masters 3,B,M,Single-ply
4,Tom Collins,1946,UK,103.39,185,190,-195,190,190,105,Masters 3,B,M,Single-ply
5,Luboš Maršík,1952,Czechia,94.77,-180,180,-195,180,180,105,Masters 3,B,M,Single-ply
6,Janos Pokornyi,1952,Hungary,102.27,-160,160,-192.5,160,160,105,Masters 3,B,M,Single-ply
7,Franz Mracek,1947,Austria,104.45,-155,155,-162.5,155,155,105,Masters 3,B,M,Single-ply
8,Václav Primus,1948,Czechia,99.93,122.5,-127.5,-135,122.5,122.5,105,Masters 3,B,M,Single-ply
1,Dainis Reinholds,1951,Latvia,114.85,-222.5,-222.5,222.5,222.5,222.5,120,Masters 3,B,M,Single-ply
2,Hans-Peter Falk,1951,Germany,110.09,-207.5,207.5,-212.5,207.5,207.5,120,Masters 3,B,M,Single-ply
3,Josef Duna,1950,Czechia,110.27,177.5,-187.5,-187.5,177.5,177.5,120,Masters 3,B,M,Single-ply
4,Sven-Erik Wallin,1951,Sweden,112.93,150,-157.5,-157.5,150,150,120,Masters 3,B,M,Single-ply
DQ,Christer Nylund,1944,Finland,111.65,-195,-195,-195,,,120,Masters 3,B,M,Single-ply
1,Antonín Šota,1952,Czechia,120.79,170,190,-200,190,190,120+,Masters 3,B,M,Single-ply
2,Raul Randmäe,1948,Estonia,146.63,-190,-190,190,190,190,120+,Masters 3,B,M,Single-ply
3,Ivan Veselý,1949,Czechia,121.94,125,-170,-170,125,125,120+,Masters 3,B,M,Single-ply
1,Alexander Diepold,1937,Germany,63.4,107.5,-112.5,-112.5,107.5,107.5,66,Masters 4,B,M,Single-ply
1,Anatolijs Kuzmins,1941,Latvia,73.21,-137.5,-137.5,137.5,137.5,137.5,74,Masters 4,B,M,Single-ply
DQ,Boleslaw Maka,1942,Poland,72.16,-137.5,-137.5,-137.5,,,74,Masters 4,B,M,Single-ply
1,Manfred Grothe,1940,Germany,80.96,135,140,-142.5,140,140,83,Masters 4,B,M,Single-ply
2,Bill McFadyen,1934,UK,75.86,135,-140,-140,135,135,83,Masters 4,B,M,Single-ply
3,Marc Huchet,1938,France,80.1,127.5,-130,-137.5,127.5,127.5,83,Masters 4,B,M,Single-ply
4,Horst Lorenz,1940,Germany,79.4,117.5,120,-125,120,120,83,Masters 4,B,M,Single-ply
1,Daniel Reybrouck,1942,Belgium,83.35,147.5,155,160,160,160,93,Masters 4,B,M,Single-ply
2,Daniel Pasternak,1936,Sweden,91.75,120,-127.5,-127.5,120,120,93,Masters 4,B,M,Single-ply
3,Adolf Rohrbacher,1938,Austria,90.06,90,-100,-100,90,90,93,Masters 4,B,M,Single-ply
1,Marion Friedrich,1965,Germany,46.09,87.5,90,95,95,95,47,Masters 1,B,F,Single-ply
2,Christine Lesellier,1963,France,46.15,80,85,-90,85,85,47,Masters 1,B,F,Single-ply
1,Mervi Sirkiä,1972,Finland,51.8,90,92.5,95,95,95,52,Masters 1,B,F,Single-ply
2,Magdolna Petróczki,1968,Hungary,50.96,85,-87.5,-87.5,85,85,52,Masters 1,B,F,Single-ply
3,Nathalie Feraud,1967,France,47.67,80,-87.5,-87.5,80,80,52,Masters 1,B,F,Single-ply
1,Ann Kristin Olsen,1967,Norway,56.33,85,90,-107.5,90,90,57,Masters 1,B,F,Single-ply
2,Eira Pajuharju,1964,Finland,56.07,65,72.5,-80,72.5,72.5,57,Masters 1,B,F,Single-ply
1,Isabelle Iliev,1967,France,62.03,112.5,117.5,-125,117.5,117.5,63,Masters 1,B,F,Single-ply
2,Tarja Uppala,1965,Finland,62.81,105,112.5,-117.5,112.5,112.5,63,Masters 1,B,F,Single-ply
3,Iris Kunkel,1964,Germany,62.33,107.5,110,-115,110,110,63,Masters 1,B,F,Single-ply
4,Petra Nothnagel,1966,Germany,61.97,75,77.5,80,80,80,63,Masters 1,B,F,Single-ply
5,Marcela Zazvonilová,1971,Czechia,60.94,57.5,62.5,65,65,65,63,Masters 1,B,F,Single-ply
1,Satu Luoto,1969,Finland,66.23,90,95,97.5,97.5,97.5,72,Masters 1,B,F,Single-ply
2,Erzsébet Schneider,1965,Hungary,71.82,90,-95,-97.5,90,90,72,Masters 1,B,F,Single-ply
1,Nathalie Gransard,1964,France,83.99,90,95,-100,95,95,84,Masters 1,B,F,Single-ply
2,Krisztina Szeiler,1968,Hungary,82.89,65,80,85,85,85,84,Masters 1,B,F,Single-ply
1,Joanne Schaefer,1967,Netherlands,106.73,180,187.5,191,191,191,84+,Masters 1,B,F,Single-ply
2,Carola Graul,1969,Germany,86.85,97.5,105,-112.5,105,105,84+,Masters 1,B,F,Single-ply
1,Brigitte Landon,1961,France,46.36,65,67.5,70,70,70,47,Masters 2,B,F,Single-ply
1,Martine Roche,1956,France,51.75,80,85,-87.5,85,85,52,Masters 2,B,F,Single-ply
2,Vuokko Viitasaari,1954,Finland,51.62,67.5,72.5,-77.5,72.5,72.5,52,Masters 2,B,F,Single-ply
3,Václava Zodererová,1961,Czechia,51.27,55,57.5,-60,57.5,57.5,52,Masters 2,B,F,Single-ply
1,Irina Bekhtereva,1959,Russia,54.45,80,82.5,-87.5,82.5,82.5,57,Masters 2,B,F,Single-ply
2,Lucette Raffier,1957,France,53.24,70,-75,75,75,75,57,Masters 2,B,F,Single-ply
3,Lydie Grouet,1960,France,56.21,52.5,70,-72.5,70,70,57,Masters 2,B,F,Single-ply
1,Patricia Maciejewski,1961,France,62.49,102.5,107.5,-113,107.5,107.5,63,Masters 2,B,F,Single-ply
2,Daisy Blondan,1959,France,62.43,80,-82.5,82.5,82.5,82.5,63,Masters 2,B,F,Single-ply
3,Eva Fülöpne-Sahin,1962,Hungary,59.65,72.5,-77.5,-80,72.5,72.5,63,Masters 2,B,F,Single-ply
4,Marianne Lankau,1953,Germany,62.15,65,67.5,70,70,70,63,Masters 2,B,F,Single-ply
1,Regina Haas,1962,Germany,71.14,115,-120,-120,115,115,72,Masters 2,B,F,Single-ply
2,Evelyne Herbin,1956,France,63.9,80,90,-95,90,90,72,Masters 2,B,F,Single-ply
1,Hana Takáčová,1954,Czechia,83.33,130,137.5,142.5,142.5,142.5,84,Masters 2,B,F,Single-ply
2,Ursula Häuser,1960,Germany,74.42,107.5,110,115,115,115,84,Masters 2,B,F,Single-ply
3,Åsa Halvarsson,1961,Sweden,75.85,102.5,110,-112.5,110,110,84,Masters 2,B,F,Single-ply
4,Heli Valtonen,1961,Finland,73.8,85,90,-95,90,90,84,Masters 2,B,F,Single-ply
5,Anke Beninga,1954,Germany,79.67,70,80,-87.5,80,80,84,Masters 2,B,F,Single-ply
1,Merja Mynttinen,1958,Finland,93.1,127.5,132.5,135,135,135,84+,Masters 2,B,F,Single-ply
2,Annika Jutila,1962,Finland,101.54,-112.5,112.5,-120,112.5,112.5,84+,Masters 2,B,F,Single-ply
3,Barbara Meyer,1961,Germany,86.15,85,90,-100,90,90,84+,Masters 2,B,F,Single-ply
4,Zsuzsanna Karpati,1960,Hungary,84.19,-70,70,77.5,77.5,77.5,84+,Masters 2,B,F,Single-ply
1,Françoise Heligon,1943,France,45.09,55,-57.5,57.5,57.5,57.5,47,Masters 3,B,F,Single-ply
1,Adina Hyková,1943,Czechia,59.62,72.5,75,-77.5,75,75,63,Masters 3,B,F,Single-ply
2,Anita Thimm,1950,Germany,60.64,72.5,75,-77.5,75,75,63,Masters 3,B,F,Single-ply
3,Friederike Pfeiffer,1952,Austria,62.65,70,72.5,-77.5,72.5,72.5,63,Masters 3,B,F,Single-ply
4,Ursula Nothnagel,1936,Germany,61.26,55,57.5,-60,57.5,57.5,63,Masters 3,B,F,Single-ply
1,Maritta Jaurola,1950,Finland,70.25,75,80,-82.5,80,80,72,Masters 3,B,F,Single-ply
2,Anna Dittler,1946,Hungary,71.85,65,72.5,-82.5,72.5,72.5,72,Masters 3,B,F,Single-ply
1,Martine Laurent,1951,France,77.79,75,77.5,80,80,80,84,Masters 3,B,F,Single-ply
1,Pirkko Inkinen,1950,Finland,87.55,50,55,60,60,60,84+,Masters 3,B,F,Single-ply
