Place,Name,Sex,Event,Division,WeightClassKg,Equipment,BirthYear,Team,State,BodyweightKg,Squat1Kg,Squat2Kg,Squat3Kg,Best3SquatKg,Bench1Kg,Bench2Kg,Bench3Kg,Best3BenchKg,Deadlift1Kg,Deadlift2Kg,Deadlift3Kg,Best3DeadliftKg,TotalKg
1,Megan Range,F,B,FR-O,72,Raw,1984,,NE,70.60,,,,,75,82.5,-85,82.5,,,,,82.5
DQ,Greg Wurst,M,B,M-M,105,Single-ply,1964,,NE,103.80,,,,,-212.5,-212.5,-212.5,,,,,,
1,Richard Debower,M,B,MR-M,83,Raw,1958,,NE,82.60,,,,,85,90,92.5,92.5,,,,,92.5
1,Brian Farley,M,B,MR-O,120+,Raw,1993,,NE,123.90,,,,,150,165,-182.5,165.0,,,,,165
1,Rachel Blair,F,SBD,F-O,84,Single-ply,1996,Midland University,NE,81.30,190,207.5,-212.5,207.5,105,112.5,-117.5,112.5,175,-182.5,-182.5,175.0,495
1,Breanna Santos,F,SBD,FR-G,57,Raw,1998,Midland University,TX,57.00,-85,92.5,97.5,97.5,55,-62.5,-62.5,55.0,95,110,-120,110.0,262.5
1,Myra Hale,F,SBD,FR-M,57,Raw,1972,,NE,57.00,-45,52.5,62.5,62.5,32.5,35,-40,35.0,62.5,70,85,85.0,182.5
1,Heidi Wallace,F,SBD,FR-M,72,Raw,1975,,NE,70.40,105,112.5,120,120.0,60,-65,65,65.0,155,165,-172.5,165.0,350
1,Coco Chairez,F,SBD,FR-M,84,Raw,1977,,NE,77.20,127.5,132.5,-142.5,132.5,55,-60,-60,55.0,147.5,157.5,-165,157.5,345
2,Carri Nelsen,F,SBD,FR-M,84,Raw,1974,The Kinetic Training Lab,NE,73.90,42.5,47.5,62.5,62.5,27.5,35,-50,35.0,70,72.5,82.5,82.5,180
1,Wendy Gustafson,F,SBD,FR-M,84+,Raw,1974,,NE,97.60,80,-87.5,90,90.0,60,65,-70,65.0,92.5,102.5,112.5,112.5,267.5
1,Ashley Stollberg,F,SBD,FR-O,63,Raw,1986,,NE,62.70,127.5,-132.5,132.5,132.5,62.5,-67.5,67.5,67.5,127.5,137.5,-140,137.5,337.5
2,Molly Bird,F,SBD,FR-O,63,Raw,1984,,NE,62.10,72.5,77.5,-82.5,77.5,50,52.5,55,55.0,85,90,100,100.0,232.5
1,Heidi Wallace,F,SBD,FR-O,72,Raw,1975,,NE,70.40,105,112.5,120,120.0,60,-65,65,65.0,155,165,-172.5,165.0,350
2,Melissa Cropsey,F,SBD,FR-O,72,Raw,1985,,NE,71.00,97.5,105,-112.5,105.0,55,60,-65,60.0,130,140,145,145.0,310
3,Jessica Halligan,F,SBD,FR-O,72,Raw,1992,,NE,69.80,102.5,107.5,-115,107.5,50,52.5,-55,52.5,127.5,137.5,142.5,142.5,302.5
4,Justin Karr,F,SBD,FR-O,72,Raw,1995,,NE,65.80,-92.5,92.5,97.5,97.5,45,-50,-50,45.0,85,90,100,100.0,242.5
DQ,Chelsi Mcpherson-Andera,F,SBD,FR-O,72,Raw,1994,,NE,71.30,-92.5,-92.5,-95,,-60,62.5,-67.5,62.5,95,110,120,120.0,
1,Kendra Bryant,F,SBD,FR-O,84,Raw,1986,,NE,79.00,120,132.5,142.5,142.5,65,67.5,-72.5,67.5,130,147.5,157.5,157.5,367.5
2,Coco Chairez,F,SBD,FR-O,84,Raw,1977,,NE,77.20,127.5,132.5,-142.5,132.5,55,-60,-60,55.0,147.5,157.5,-165,157.5,345
3,Samantha Newton,F,SBD,FR-O,84,Raw,1990,,NE,77.80,-120,120,135,135.0,72.5,-82.5,-82.5,72.5,110,125,135,135.0,342.5
4,Brooke Miller,F,SBD,FR-O,84,Raw,1989,,NE,84.00,110,117.5,120,120.0,52.5,55,-57.5,55.0,130,137.5,-147.5,137.5,312.5
5,Celeste Illian,F,SBD,FR-O,84,Raw,1990,,NE,75.20,105,115,-120,115.0,50,55,-57.5,55.0,125,135,-140,135.0,305
6,Jodie Smith #2,F,SBD,FR-O,84,Raw,1993,,NE,81.40,100,107.5,112.5,112.5,52.5,-57.5,-57.5,52.5,115,125,140,140.0,305
7,Sarah Kearns,F,SBD,FR-O,84,Raw,1986,,NE,77.90,70,80,-87.5,80.0,45,55,-62.5,55.0,82.5,95,102.5,102.5,237.5
8,Miranda Liermann,F,SBD,FR-O,84,Raw,1981,The Kinetic Training Lab,NE,83.90,-75,75,-102.5,75.0,35,45,-65,45.0,102.5,107.5,-122.5,107.5,227.5
1,Ashley Hohensee,F,SBD,FR-O,84+,Raw,1990,,NE,91.70,150,165,182.5,182.5,65,72.5,-77.5,72.5,142.5,170,-182.5,170.0,425
2,Nicole Taylor,F,SBD,FR-O,84+,Raw,1991,,NE,93.70,100,107.5,117.5,117.5,55,60,65,65.0,130,140,150,150.0,332.5
3,Crissy Smith,F,SBD,FR-O,84+,Raw,1982,,NE,96.60,-55,60,67.5,67.5,47.5,55,-60,55.0,92.5,97.5,100,100.0,222.5
1,Izabel Prado,F,SBD,FR-T,63,Raw,2004,The Kinetic Training Lab,NE,57.70,47.5,55,65,65.0,27.5,-32.5,32.5,32.5,65,67.5,-85,67.5,165
1,Jaileigh Sorgenfrei,F,SBD,F-T,84,Single-ply,2002,,NE,77.10,90,97.5,112.5,112.5,47.5,57.5,62.5,62.5,125,140,147.5,147.5,322.5
DQ,Christopher Garcia,M,SBD,M-G,120+,Single-ply,1998,,TX,163.70,-350,350,375,375.0,215,-227.5,,215.0,-287.5,-287.5,-287.5,,
1,Dustin Taylor,M,SBD,M-O,93,Single-ply,1985,,NE,91.70,150,-162.5,-162.5,150.0,-142.5,142.5,-165,142.5,165,185,-192.5,185.0,477.5
1,JP Parke,M,SBD,MR-G,66,Raw,1998,,IL,65.50,182.5,185,-190,185.0,87.5,95,97.5,97.5,225,235,-241,235.0,517.5
1,Denny Lawrence,M,SBD,MR-G,74,Raw,1961,,IA,69.50,162.5,175,180,180.0,107.5,110,-112.5,110.0,215,230,240,240.0,530
2,Brady Meyer,M,SBD,MR-G,74,Raw,1997,,SD,72.00,175,-180,-180,175.0,85,90,-97.5,90.0,200,205,-210,205.0,470
3,Simon Holtschlag,M,SBD,MR-G,74,Raw,2001,,IL,73.10,165,175,177.5,177.5,75,-85,85,85.0,180,192.5,-205,192.5,455
4,Joey Ho,M,SBD,MR-G,74,Raw,2002,,IA,71.80,155,162.5,172.5,172.5,85,90,-97.5,90.0,172.5,177.5,185,185.0,447.5
1,Michael Waller,M,SBD,MR-G,93,Raw,1991,,NE,92.40,182.5,227.5,235,235.0,-182.5,182.5,185,185.0,227.5,245,262.5,262.5,682.5
2,Matthew Dunn,M,SBD,MR-G,93,Raw,1988,,IA,83.40,140,145,150,150.0,107.5,112.5,117.5,117.5,182.5,192.5,202.5,202.5,470
3,Zayne Francis,M,SBD,MR-G,93,Raw,2002,,SD,88.00,127.5,135,137.5,137.5,70,75,77.5,77.5,180,190,-195,190.0,405
1,Russel Steinshouer,M,SBD,MR-M,74,Raw,1959,,NE,73.20,147.5,162.5,,162.5,110,-115,-115,110.0,182.5,200,-205,200.0,472.5
1,Joel Waters,M,SBD,MR-M,83,Raw,1977,,NE,78.50,192.5,202.5,210,210.0,97.5,102.5,-105,102.5,232.5,242.5,252.5,252.5,565
2,Richard Debower,M,SBD,MR-M,83,Raw,1958,,NE,82.60,70,80,102.5,102.5,85,90,92.5,92.5,137.5,145,147.5,147.5,342.5
1,Paul Jacobsen,M,SBD,MR-M,93,Raw,1961,,NE,91.30,-127.5,-127.5,127.5,127.5,110,115,-120,115.0,182.5,192.5,200,200.0,442.5
2,Michael Pruss,M,SBD,MR-M,93,Raw,1962,,NE,91.60,117.5,125,132.5,132.5,115,-120,-120,115.0,155,160,165,165.0,412.5
1,Allen Ptacek,M,SBD,MR-M,105,Raw,1976,The Kinetic Training Lab,NE,104.80,135,165,190,190.0,62.5,105,-120,105.0,165,190,200,200.0,495
DD,Todd Uhlir,M,SBD,MR-M,120,Raw,1975,,NE,116.60,247.5,265,285,285.0,175,-185,195,195.0,247.5,265,287.5,287.5,
DQ,Mark Mckenzie,M,SBD,MR-M,120,Raw,1966,,NE,112.50,-165,,,,,,,,,,,,
1,Josh Davis,M,SBD,MR-O,66,Raw,1996,,NE,62.50,125,132.5,,132.5,90,-102.5,-107.5,90.0,-145,150,-172.5,150.0,372.5
2,Eric Taylor,M,SBD,MR-O,66,Raw,1988,,NE,62.30,102.5,112.5,-130,112.5,85,95,100,100.0,142.5,155,-165,155.0,367.5
1,Ariel Merivil,M,SBD,MR-O,74,Raw,1983,,NE,73.60,210,217.5,227.5,227.5,135,142.5,-150,142.5,242.5,257.5,-272.5,257.5,627.5
2,Cody Nilson,M,SBD,MR-O,74,Raw,1985,,NE,73.20,165,175,182.5,182.5,90,95,-100,95.0,187.5,-192.5,-192.5,187.5,465
DQ,Tommy Alvarez,M,SBD,MR-O,74,Raw,1995,,NE,72.50,-142.5,-142.5,-142.5,,117.5,-122.5,125,125.0,170,175,187.5,187.5,
1,Travis Bird,M,SBD,MR-O,83,Raw,1981,,NE,79.30,102.5,-110,117.5,117.5,-75,-80,87.5,87.5,130,140,155,155.0,360
1,Klint Conroy,M,SBD,MR-O,93,Raw,1994,,NE,91.60,192.5,197.5,-202.5,197.5,142.5,145,-150,145.0,237.5,-245,-245,237.5,580
2,Mykhail Kuhns,M,SBD,MR-O,93,Raw,1988,The Kinetic Training Lab,NE,89.60,-62.5,75,97.5,97.5,52.5,57.5,67.5,67.5,107.5,-122.5,122.5,122.5,287.5
1,Lucas Osborn,M,SBD,MR-O,105,Raw,1994,,NE,104.40,205,225,230,230.0,155,165,-177.5,165.0,260,-275,285,285.0,680
2,Michael Sivels,M,SBD,MR-O,105,Raw,1989,The Kinetic Training Lab,NE,103.20,195,220,230,230.0,130,140,147.5,147.5,215,225,245,245.0,622.5
3,Jason Hall,M,SBD,MR-O,105,Raw,1984,,NE,102.10,185,197.5,210,210.0,142.5,155,-162.5,155.0,227.5,-237.5,-237.5,227.5,592.5
4,Matthew Walter,M,SBD,MR-O,105,Raw,1983,The Kinetic Training Lab,NE,101.30,170,182.5,-195,182.5,137.5,147.5,-152.5,147.5,195,205,227.5,227.5,557.5
5,Brad Jarecki,M,SBD,MR-O,105,Raw,1984,,NE,99.30,-170,172.5,-182.5,172.5,135,-142.5,-142.5,135.0,232.5,237.5,245,245.0,552.5
6,Blake Johnson,M,SBD,MR-O,105,Raw,1994,,NE,97.20,-180,180,200,200.0,120,135,-145,135.0,180,202.5,-230,202.5,537.5
DD,Todd Uhlir,M,SBD,MR-O,120,Raw,1975,,NE,116.60,247.5,265,285,285.0,175,-185,195,195.0,247.5,265,287.5,287.5,
2,Camden Grasmick,M,SBD,MR-O,120,Raw,1992,,NE,112.30,212.5,227.5,-247.5,227.5,125,132.5,-147.5,132.5,230,240,252.5,252.5,612.5
3,Patrick Cropsey,M,SBD,MR-O,120,Raw,1987,,NE,114.80,-205,205,-215,205.0,135,145,-150,145.0,220,230,-240,230.0,580
1,Mike Kracl,M,SBD,MR-O,120+,Raw,1988,,NE,128.00,250,262.5,-272.5,262.5,165,170,172.5,172.5,267.5,285,290,290.0,725
2,Robert Stolley,M,SBD,MR-O,120+,Raw,1991,,NE,231.00,182.5,195,-227.5,195.0,55,90,-142.5,90.0,165,-200,-200,165.0,450
1,Tommy Connell,M,SBD,MR-T,53,Raw,2005,,NE,49.00,62.5,-70,77.5,77.5,37.5,42.5,-50,42.5,85,92.5,105,105.0,225
1,Sidney Nosavan,M,SBD,MR-T,59,Raw,1998,,NE,58.40,150,160,165,165.0,95,105,-112.5,105.0,175,185,190,190.0,460
1,Michael Bartz,M,SBD,MR-T,83,Raw,2001,,NE,79.00,185,,,185.0,112.5,125,130,130.0,185,,,185.0,500
2,Patrick Kounnavong,M,SBD,MR-T,83,Raw,2000,,NE,80.30,160,-165,-165,160.0,77.5,85,-92.5,85.0,185,195,-212.5,195.0,440
1,Cooper Todd,M,SBD,MR-T,93,Raw,1999,Midland University,NE,86.90,160,170,-175,170.0,135,-140,140,140.0,-172.5,187.5,200,200.0,510
1,Koby Kuper,M,SBD,MR-T,105,Raw,2001,,NE,94.00,190,-210,210,210.0,102.5,-117.5,-117.5,102.5,182.5,192.5,-202.5,192.5,505
