﻿;VIII. DRŽAVNO PRVENSTVO 10.03.2019. PITOMAČA - BENCH PRESS;;;;;;;;;;;;;;;;;;;;;;;;;;;;;;;;;;;;;;
;Kategorija;Ime i Prezime;;Klub;;Težina;;;Benč;;;;;;Ukupno (lift);Plasman;Rezultat (IPF);;;;;;;;;;;;;;;;;;;;;;
;;;;;;;;;1;2;3;;naj.;;;;;;;;;;;;;;;;;;;;;;;;;;
;Žene;;;;;;;;;;;;;;;;;;;;;;;;;;;;;;;;;;;;;;
;;Kadet;;;;;;;;;;;;;;;;;;;;;;;;;;;;;;;;;;;;;
1;57;LAURA TURKALJ;;VIROVITICA;;56.8;;;27.5;32.5;35;;35.00;;35.00;1.;330.5591;;;;;;;;;;;;;;;;;;;;;;
;;;;;;;;;;;;;;;;;;;;;;;;;;;;;;;;;;;;;;;
2;84+;PINA TALIJAN;;ULTIMATE;;120.8;;;50;55;62.5;;55.00;;55.00;1.;383.6353;;;;;;;;;;;;;;;;;;;;;;
;;;;;;;;;;;;;;;;;;;;;;;;;;;;;;;;;;;;;;;
;;Junior;;;;;;;;;;;;;;;;;;;;;;;;;;;;;;;;;;;;;
3;52;SINDY BUBEK;;POZOJ;;48.8;;;55;60;60;;60.00;;60.00;1.;553.1642;;;;;;;;;;;;;;;;;;;;;;
;;;;;;;;;;;;;;;;;;;;;;;;;;;;;;;;;;;;;;;
4;63;ANDREA PETREK;;WILD HOGS;;62.7;;;82.5;87.5;90;;90.00;;90.00;1.;718.0255;;;;;;;;;;;;;;;;;;;;;;
;;;;;;;;;;;;;;;;;;;;;;;;;;;;;;;;;;;;;;;
5;72;SARA ŠOBAK;;ŠTANGA;;66.7;;;60;70;75;;75.00;;75.00;1.;595.6355;;;;;;;;;;;;;;;;;;;;;;
;;;;;;;;;;;;;;;;;;;;;;;;;;;;;;;;;;;;;;;
;;Open;;;;;;;;;;;;;;;;;;;;;;;;;;;;;;;;;;;;;
6;57;PATRICIA JANUŠ;;BODY ART;;55.2;;;60;65;70;;65.00;;65.00;1.;564.5043;;;;;;;;;;;;;;;;;;;;;;
;;;;;;;;;;;;;;;;;;;;;;;;;;;;;;;;;;;;;;;
7;63;IZIDORA POPOVIĆ;;VIROVITICA;;62.8;;;50;55;57.5;;55.00;;55.00;1.;464.9874;;;;;;;;;;;;;;;;;;;;;;
8;;NIVES MILOVIĆ;;BELIŠĆE;;61.8;;;50;55;55;;50.00;;50.00;2.;431.2711;;;;;;;;;;;;;;;;;;;;;;
;;;;;;;;;;;;;;;;;;;;;;;;;;;;;;;;;;;;;;;
9;72;KRISTINA HORVAT;;VIROVITICA;;66.9;;;80;85;87.5;;87.50;;87.50;1.;682.5001;;;;;;;;;;;;;;;;;;;;;;
;;;;;;;;;;;;;;;;;;;;;;;;;;;;;;;;;;;;;;;
;;Master I;;;;;;;;;;;;;;;;;;;;;;;;;;;;;;;;;;;;;
10;72;MILENA ĐURĐEVIĆ;;VIROVITICA;;67.1;;;47.5;52.5;55;;52.50;;52.50;1;436.9966;;;;;;;;;;;;;;;;;;;;;;
11;;NEVENKA LATIN;;ULTIMATE;;70.8;;;40;47.5;53;;47.50;;47.50;2.;395.2753;;;;;;;;;;;;;;;;;;;;;;
;;;;;;;;;;;;;;;;;;;;;;;;;;;;;;;;;;;;;;;
;;Master II;;;;;;;;;;;;;;;;;;;;;;;;;;;;;;;;;;;;;
12;63;RUŽICA MARTINIĆ;;SRELE BRUTAL TEAM;;58.7;;;70;76;78;;76.00;;76.00;1.;633.0969;;;;;;;;;;;;;;;;;;;;;;
;;;;;;;;;;;;;;;;;;;;;;;;;;;;;;;;;;;;;;;
;;;;;;;;;;;;;;;;;;;;;;;;;;;;;;;;;;;;;;;
;Muški;;;;;;;;;;;;;;;;;;;;;;;;;;;;;;;;;;;;;;
;;Kadet;;;;;;;;;;;;;;;;;;;;;;;;;;;;;;;;;;;;;
13;74;KARLO ŠIPEK;;SRELE BRUTAL TEAM;;72.9;;;62.5;65;70;;65.00;;65.00;2.;290.1464;;;;;;;;;;;;;;;;;;;;;;
14;;LUKA VUČINA;;ŠTANGA;;73.6;;;120;125;131;;125.00;;125.00;1.;555.3965;;;;;;;;;;;;;;;;;;;;;;
15;;MARIN ROGILĆ;;BLJESAK;;70.8;;;85;85;87.5;;0.00;;0.00;;0.0000;;;;;;;;;;;;;;;;;;;;;;
;;;;;;;;;;;;;;;;;;;;;;;;;;;;;;;;;;;;;;;
16;83;DINO MARKOVIĆ;;BELIŠĆE;;79.1;;;120;125;125;;120.00;;120.00;1.;505.0606;;;;;;;;;;;;;;;;;;;;;;
;;;;;;;;;;;;;;;;;;;;;;;;;;;;;;;;;;;;;;;
17;93;PAVEL KRANJEC;;POZOJ;;90.3;;;122.5;130;135;;135.00;;135.00;1.;518.2379;;;;;;;;;;;;;;;;;;;;;;
;;;;;;;;;;;;;;;;;;;;;;;;;;;;;;;;;;;;;;;
18;105;ROBERT BUNJAN;;ŠTANGA;;99.8;;;142.5;150;155;;142.50;;142.50;1.;512.9462;;;;;;;;;;;;;;;;;;;;;;
;;;;;;;;;;;;;;;;;;;;;;;;;;;;;;;;;;;;;;;
;;Junior;;;;;;;;;;;;;;;;;;;;;;;;;;;;;;;;;;;;;
19;74;LUKA CRNOMARIĆ;;ADAMAS;;75.7;;;100;105;110;;105.00;;105.00;;456.3963;;;;;;;;;;;;;;;;;;;;;;
20;;ROBERT KLANJŠĆEK;;BELIŠĆE;;68.4;;;95;100;105;;100.00;;100.00;1.;470.5392;;;;;;;;;;;;;;;;;;;;;;
;;;;;;;;;;;;;;;;;;;;;;;;;;;;;;;;;;;;;;;
21;83;MIHAEL BALLER;;NABILDANI MOZAK;;79.9;;;100;110;120;;110.00;;110.00;2.;459.5131;;;;;;;;;;;;;;;;;;;;;;
22;;BRUNO ŠIMUNOVIĆ;;ŠTANGA;;82.3;;;120;130;130;;120.00;;120.00;1.;490.8642;;;;;;;;;;;;;;;;;;;;;;
B;;;;;;;;;;;;;;;;;;;;;;;;;;;;;;;;;;;;;;;
23;93;DOMINIK KRIŠTOFIĆ;;POZOJ;;90.0;;;160;165;170.5;;170.50;;170.50;1.;656.0425;;;;;;;;;;;;;;;;;;;;;;
24;;KARLO HEISINGER;;ŠTANGA;;;;;;;;;;;;;;;;;;;;;;;;;;;;;;;;;;;
25;;FILIP RUKAVINA;;MAKSIMUM;;92.0;;;117.5;122.5;127.5;;127.50;;127.50;3.;483.4456;;;;;;;;;;;;;;;;;;;;;;
26;;DARIO ZELENBRZ;;MAKSIMUM;;85.9;;;110;115;122.5;;122.50;;122.50;4.;486.3589;;;;;;;;;;;;;;;;;;;;;;
27;;LOVRO GMAZ;;SRELE BRUTAL TEAM;;88.4;;;155;162.5;167.5;;162.50;;162.50;2.;632.8302;;;;;;;;;;;;;;;;;;;;;;
;;;;;;;;;;;;;;;;;;;;;;;;;;;;;;;;;;;;;;;
;;;;;;;;;;;;;;;;;;;;;;;;;;;;;;;;;;;;;;;
28;105;IVAN LUČIĆ;;MAKSIMUM;;102.4;;;145;152.5;0;;152.50;;152.50;2.;540.2679;;;;;;;;;;;;;;;;;;;;;;
29;;TOMISLAV VAĐON;;VIROVITICA;;99.0;;;165;170;172.5;;170.00;;170.00;1.;614.9756;;;;;;;;;;;;;;;;;;;;;;
;;;;;;;;;;;;;;;;;;;;;;;;;;;;;;;;;;;;;;;
30;120;JOSIP TORIĆ;;NABILDANI MOZAK;;107.0;;;140;147.5;155;;147.50;;147.50;1.;508.8716;;;;;;;;;;;;;;;;;;;;;;
31;;FRANE JERČIĆ;;ADAMAS;;114.3;;;125;135;140;;140.00;;140.00;2.;464.7683;;;;;;;;;;;;;;;;;;;;;;
;;;;;;;;;;;;;;;;;;;;;;;;;;;;;;;;;;;;;;;
32;120+;SVEN TODOROVIĆ;;POZOJ;;124.9;;;120;0;0;;120.00;;120.00;1.;379.3195;;;;;;;;;;;;;;;;;;;;;;
;;;;;;;;;;;;;;;;;;;;;;;;;;;;;;;;;;;;;;;
;;Open;;;;;;;;;;;;;;;;;;;;;;;;;;;;;;;;;;;;;
33;74;ANTONIO MILETIĆ;;BODY ART;;70.6;;;75;77.5;80;;77.50;;77.50;1.;355.0458;;;;;;;;;;;;;;;;;;;;;;
;;;;;;;;;;;;;;;;;;;;;;;;;;;;;;;;;;;;;;;
34;83;NEVEN ĆUK;;MAKSIMUM;;80.4;;;145;152.5;157.5;;152.50;;152.50;1.;634.5708;;;;;;;;;;;;;;;;;;;;;;
35;;MARIO GABUD;;ŠTANGA;;82.8;;;120;130;140;;140.00;;140.00;2.;570.3599;;;;;;;;;;;;;;;;;;;;;;
36;;MATEJ TAKALIĆ;;BELIŠĆE;;82.2;;;115;120;125;;125.00;;125.00;3.;511.7925;;;;;;;;;;;;;;;;;;;;;;
;;;;;;;;;;;;;;;;;;;;;;;;;;;;;;;;;;;;;;;
37;93;NIKOLA FIC;;POZOJ;;92.0;;;165;170;175;;170.00;;170.00;2.;644.6501;;;;;;;;;;;;;;;;;;;;;;
38;;IVAN SCHOBLOHER;;BELIŠĆE;;92.0;;;170;175;177.5;;177.50;;177.50;1.;673.0979;;;;;;;;;;;;;;;;;;;;;;
;;;;;;;;;;;;;;;;;;;;;;;;;;;;;;;;;;;;;;;
39;105;MARKO MILINOVIĆ;;BODY ART;;103.5;;;172.5;180;182.5;;182.50;;182.50;1.;642.2582;;;;;;;;;;;;;;;;;;;;;;
40;;MATEO HOLENDA;;WILD HOGS;;98.0;;;162.5;167.5;172.5;;172.50;;172.50;2.;628.0172;;;;;;;;;;;;;;;;;;;;;;
;;;;;;;;;;;;;;;;;;;;;;;;;;;;;;;;;;;;;;;
41;120;MARIO LESJAK;;ULTIMATE;;113.5;;;180;190;195;;190.00;;190.00;1.;633.0018;;;;;;;;;;;;;;;;;;;;;;
42;;MARKO BRANIŠA;;POZOJ;;118.1;;;170;180;182.5;;180.00;;180.00;2.;586.2947;;;;;;;;;;;;;;;;;;;;;;
;;;;;;;;;;;;;;;;;;;;;;;;;;;;;;;;;;;;;;;
;;Master I;;;;;;;;;;;;;;;;;;;;;;;;;;;;;;;;;;;;;
43;74;TOMISLAV PUHIN;;WILD HOGS;;71.5;;;100;105;105;;105.00;;105.00;2.;476.9068;;;;;;;;;;;;;;;;;;;;;;
44;;GORAN KARAMARKOVIĆ;;POZOJ;;72.6;;;160;165;170.5;;165.00;;165.00;1.;741.4968;;;;;;;;;;;;;;;;;;;;;;
;;;;;;;;;;;;;;;;;;;;;;;;;;;;;;;;;;;;;;;
45;83;SINIŠA KRIŽAN;;WILD HOGS;;77.8;;;125;130;135;;135.00;;135.00;1.;575.2989;;;;;;;;;;;;;;;;;;;;;;
;;;;;;;;;;;;;;;;;;;;;;;;;;;;;;;;;;;;;;;
46;93;ZORAN LOVRIĆ;;ADAMAS;;89.9;;;147.5;152.5;155;;155.00;;155.00;2.;596.8188;;;;;;;;;;;;;;;;;;;;;;
47;;BOJAN MILANOV;;SRELE BRUTAL TEAM;;88.9;;;140;145;156;;156.00;;156.00;1.;605.1943;;;;;;;;;;;;;;;;;;;;;;
;;;;;;;;;;;;;;;;;;;;;;;;;;;;;;;;;;;;;;;
48;105;DRAŽEN MOSLAVAC;;VIROVITICA;;93.1;;;120;125;132.5;;132.50;;132.50;1.;498.5240;;;;;;;;;;;;;;;;;;;;;;
;;;;;;;;;;;;;;;;;;;;;;;;;;;;;;;;;;;;;;;
49;120;DARIJO MARKOVIĆ;;BODY ART;;109.8;;;150;160;165;;160.00;;160.00;1.;543.5674;;;;;;;;;;;;;;;;;;;;;;
;;;;;;;;;;;;;;;;;;;;;;;;;;;;;;;;;;;;;;;
50;120+;SREĆKO MARTINIĆ;;SRELE BRUTAL TEAM;;124.9;;;170;182.5;187.5;;187.50;;187.50;1.;591.9970;;;;;;;;;;;;;;;;;;;;;;
;;;;;;;;;;;;;;;;;;;;;;;;;;;;;;;;;;;;;;;
;;Master II;;;;;;;;;;;;;;;;;;;;;;;;;;;;;;;;;;;;;
51;83;IVAN OVČAR;;POZOJ;;83.0;;;120;122.5;125;;125.00;;125.00;1.;508.2998;;;;;;;;;;;;;;;;;;;;;;
;;;;;;;;;;;;;;;;;;;;;;;;;;;;;;;;;;;;;;;
52;93;BORIS GREGORINA;;SRELE BRUTAL TEAM;;90.7;;;145;150;152.5;;150.00;;150.00;1.;574.1607;;;;;;;;;;;;;;;;;;;;;;
;;;;;;;;;;;;;;;;;;;;;;;;;;;;;;;;;;;;;;;
53;93;DAVOR JANUŠ;;BODY ART;;92.9;;;115;125;125;;115.00;;115.00;1.;433.2725;;;;;;;;;;;;;;;;;;;;;;
;;;;;;;;;;;;;;;;;;;;;;;;;;;;;;;;;;;;;;;
;;Master III;;;;;;;;;;;;;;;;;;;;;;;;;;;;;;;;;;;;;
54;83;IVAN LESJAK;;POZOJ;;80.4;;;97.5;102.5;105;;105.00;;105.00;1.;436.6121;;;;;;;;;;;;;;;;;;;;;;
;;;;;;;;;;;;;;;;;;;;;;;;;;;;;;;;;;;;;;;
55;93;HRVOJE LOVRIĆ;;ŠTANGA;;83.1;;;85;90;0;;90.00;;90.00;1.;365.4509;;;;;;;;;;;;;;;;;;;;;;
;;;;;;;;;;;;;;;;;;;;;;;;;;;;;;;;;;;;;;;
56;105;BRANKO TODOROVIĆ;;POZOJ;;100.0;;;110;115;120;;120.00;;120.00;1.;431.4590;;;;;;;;;;;;;;;;;;;;;;
;;;;;;;;;;;;;;;;;;;;;;;;;;;;;;;;;;;;;;;
57;120;TOMISLAV NOVAK;;ŠTANGA;;108.2;;;110;115;122.5;;115.00;;115.00;1.;394.2673;;;;;;;;;;;;;;;;;;;;;;