Division,WeightClassKg,Place,Name,Team,BodyweightKg,Best3SquatKg,Best3BenchKg,Best3DeadliftKg,TotalKg,Equipment,Event,Sex
Boys,51.71,1,Chantz Mickens,Palestine Westwood,51.35,138.35,70.31,136.08,344.73,Single-ply,SBD,M
Boys,51.71,2,Ricardo Rodriguez,Athens,51.71,86.18,70.31,117.93,274.42,Single-ply,SBD,M
Boys,51.71,3,Luis Camacho,Athens,50.8,81.65,52.16,115.67,249.48,Single-ply,SBD,M
Boys,67.13,1,Michael Murray,Palestine Westwood,59.96,172.37,74.84,167.83,415.04,Single-ply,SBD,M
Boys,59.87,2,Theron Dingas,Palestine Westwood,59.33,145.15,92.99,172.37,410.5,Single-ply,SBD,M
Boys,59.87,3,Tulio Cordon,Fairfield,58.51,142.88,95.25,158.76,396.89,Single-ply,SBD,M
Boys,59.87,4,Erick Garcia,Athens,59.42,102.06,74.84,122.47,299.37,Single-ply,SBD,M
Boys,59.87,DQ,Josh Dodds,Fairfield,59.87,,,,,Single-ply,SBD,M
Boys,67.13,1,Tyler Linville,Palestine Westwood,64.86,167.83,90.72,176.9,435.45,Single-ply,SBD,M
Boys,67.13,2,Brandon Johnson,Palestine Westwood,66.27,142.88,92.99,151.95,387.82,Single-ply,SBD,M
Boys,67.13,3,Colt Simmons,Cushing,64.41,129.27,81.65,145.15,356.07,Single-ply,SBD,M
Boys,67.13,4,Jeffrey Murray,Palestine Westwood,67.13,131.54,74.84,147.42,353.8,Single-ply,SBD,M
Boys,67.13,5,Daniel Salazar,Athens,62.6,106.59,77.11,133.81,317.51,Single-ply,SBD,M
Boys,67.13,6,Carlos Martinez,Athens,63.96,104.33,58.97,142.88,306.17,Single-ply,SBD,M
Boys,67.13,7,Daylon Johnson,Corsicana,63.05,92.99,61.23,124.74,278.96,Single-ply,SBD,M
Boys,74.84,1,Nick Morrow,Palestine Westwood,72.98,181.44,113.4,172.37,467.2,Single-ply,SBD,M
Boys,74.84,2,Jacob Cain,Fairfield,73.48,181.44,92.99,181.44,455.86,Single-ply,SBD,M
Boys,74.84,3,Ray Jackson,Cushing,74.39,167.83,108.86,170.1,446.79,Single-ply,SBD,M
Boys,74.84,4,Cole Barton,Corsicana,68.49,170.1,102.06,151.95,424.11,Single-ply,SBD,M
Boys,74.84,5,Josh O'Brien,Fairfield,74.62,140.61,81.65,170.1,392.36,Single-ply,SBD,M
Boys,74.84,6,Louis Collins,Oakwood,68.95,133.81,86.18,136.08,356.07,Single-ply,SBD,M
Boys,74.84,7,Ryan Jones,Palestine Westwood,72.8,117.93,92.99,142.88,353.8,Single-ply,SBD,M
Boys,82.1,1,Cody Evans,Corsicana,80.74,226.8,117.93,244.94,589.67,Single-ply,SBD,M
Boys,82.1,2,Lamar O'Brien,Fairfield,80.29,226.8,142.88,213.19,582.87,Single-ply,SBD,M
Boys,82.1,3,Brandon Evans,Corsicana,80.97,226.8,124.74,226.8,578.33,Single-ply,SBD,M
Boys,82.1,4,Luke Carmichael,Palestine Westwood,81.69,195.04,117.93,215.46,528.44,Single-ply,SBD,M
Boys,82.1,5,Jawvan Martin,Athens,79.38,158.76,113.4,181.44,453.59,Single-ply,SBD,M
Boys,82.1,6,Clayton Goins,Corsicana,78.47,163.29,92.99,165.56,421.84,Single-ply,SBD,M
Boys,82.1,7,Joel Murray,Oakwood,75.43,165.56,88.45,158.76,412.77,Single-ply,SBD,M
Boys,82.1,8,Christian Brummett,Oakwood,81.65,124.74,72.57,140.61,337.93,Single-ply,SBD,M
Boys,82.1,9,Alex Mendez,Corsicana,78.93,131.54,81.65,113.4,326.59,Single-ply,SBD,M
Boys,82.1,DQ,Josh Coleman,Athens,82.1,181.44,108.86,,,Single-ply,SBD,M
Boys,89.81,1,Garrett Henson,Fairfield,88,181.44,129.27,204.12,514.83,Single-ply,SBD,M
Boys,89.81,2,Cody Sell,Fairfield,87.32,185.97,117.93,181.44,485.34,Single-ply,SBD,M
Boys,89.81,3,Aj Gabriel,Fairfield,83.91,181.44,99.79,170.1,451.32,Single-ply,SBD,M
Boys,89.81,4,Ty Tunstall,Cushing,87.54,158.76,102.06,170.1,430.91,Single-ply,SBD,M
Boys,89.81,5,Chris Edling,Corsicana,87.32,145.15,99.79,142.88,387.82,Single-ply,SBD,M
Boys,89.81,6,Limon Eduardo,Athens,89.81,149.69,70.31,158.76,378.75,Single-ply,SBD,M
Boys,89.81,7,Jd Harris,Palestine Westwood,86.14,145.15,86.18,142.88,374.21,Single-ply,SBD,M
Boys,89.81,8,Chase Thomas,Corsicana,87.09,113.4,63.5,140.61,317.51,Single-ply,SBD,M
Boys,89.81,DQ,Julio Valdez,Corsicana,89.81,163.29,88.45,,,Single-ply,SBD,M
Boys,99.79,1,Brandon Polk,Corsicana,97.52,238.14,129.27,249.48,616.89,Single-ply,SBD,M
Boys,99.79,2,Mekail Faquir,Corsicana,97.98,215.46,124.74,233.6,573.79,Single-ply,SBD,M
Boys,99.79,3,Michael Mooneyham,Fairfield,95.71,226.8,131.54,213.19,571.53,Single-ply,SBD,M
Boys,99.79,4,Ryan Wilkinson,Fairfield,91.85,213.19,129.27,215.46,557.92,Single-ply,SBD,M
Boys,99.79,5,Clay Caroll,Corsicana,97.52,195.04,142.88,210.92,548.85,Single-ply,SBD,M
Boys,99.79,6,Cj Cantrell,Corsicana,98.43,217.72,113.4,190.51,521.63,Single-ply,SBD,M
Boys,99.79,7,Dominique Kelly,Corsicana,93.44,190.51,102.06,197.31,489.88,Single-ply,SBD,M
Boys,99.79,8,Colby Spencer,Cushing,99.11,163.29,97.52,163.29,424.11,Single-ply,SBD,M
Boys,99.79,9,Dakota Dezort,Cushing,95.71,154.22,95.25,158.76,408.23,Single-ply,SBD,M
Boys,99.79,10,Dean Fleetes,Corsicana,93.89,124.74,65.77,136.08,326.59,Single-ply,SBD,M
Boys,109.77,1,Cory Black,Fairfield,104.78,281.23,167.83,231.33,680.39,Single-ply,SBD,M
Boys,109.77,2,Jacob McKinney,Palestine Westwood,106.82,240.4,120.2,226.8,587.4,Single-ply,SBD,M
Boys,109.77,3,Zach Britton,Palestine Westwood,108.86,190.51,99.79,188.24,478.54,Single-ply,SBD,M
Boys,109.77,4,Michael Daley,Athens,109.77,185.97,117.93,174.63,478.54,Single-ply,SBD,M
Boys,124.74,1,Nick Richardson,Athens,122.7,254.01,145.15,240.4,639.57,Single-ply,SBD,M
Boys,124.74,2,Christian Ivy,Corsicana,122.92,249.48,147.42,231.33,628.23,Single-ply,SBD,M
Boys,124.74,3,Brock Eggleston,Fairfield,110.22,249.48,167.83,195.04,612.35,Single-ply,SBD,M
Boys,124.74,4,Bubba Jackson,Fairfield,118.16,272.16,142.88,181.44,596.47,Single-ply,SBD,M
Boys,124.74,5,Aj Jones,Fairfield,121.11,229.06,115.67,213.19,557.92,Single-ply,SBD,M
Boys,124.74,6,Michael Provost,Cushing,120.2,208.65,117.93,204.12,530.7,Single-ply,SBD,M
Boys,124.74,7,Ricky Hall,Corsicana,112.49,183.7,127.01,188.24,498.95,Single-ply,SBD,M
Boys,124.74,8,Alias Sardoneta,Oakwood,113.4,201.85,92.99,204.12,498.95,Single-ply,SBD,M
Boys,124.74,9,John Webb,Palestine Westwood,115.67,204.12,102.06,188.24,494.42,Single-ply,SBD,M
Boys,124.74,10,Alberto Rios,Athens,113.4,172.37,83.91,183.7,439.98,Single-ply,SBD,M
Boys,124.74,11,Devin Mason,Fairfield,116.57,158.76,120.2,158.76,437.72,Single-ply,SBD,M
Boys,124.74+,1,Eden Richardson,Fairfield,126.55,226.8,142.88,204.12,573.79,Single-ply,SBD,M
