Division,WeightClassKg,Place,Name,Team,BodyweightKg,Best3SquatKg,Best3BenchKg,Best3DeadliftKg,TotalKg,Equipment,Event,Sex
Boys,55.79,1,Kias Cooper,Center,51.94,142.88,65.77,147.42,356.07,Single-ply,SBD,M
Boys,51.71,2,William Cross,Huntington,51.62,136.08,70.31,145.15,351.53,Single-ply,SBD,M
Boys,55.79,3,Darren Shedd,Shelbyville,51.94,79.38,49.9,106.59,235.87,Single-ply,SBD,M
Boys,51.71,4,Cade Copeline,Shelbyville,37.19,81.65,43.09,86.18,210.92,Single-ply,SBD,M
Boys,55.79,1,Bj Wafer,Huntington,54.52,111.13,86.18,142.88,340.19,Single-ply,SBD,M
Boys,55.79,2,Benny Zuniga,Timpson,54.43,106.59,68.04,151.95,326.59,Single-ply,SBD,M
Boys,55.79,3,Brax Turner,Huntington,55.25,115.67,74.84,129.27,319.78,Single-ply,SBD,M
Boys,59.87,4,Fred Torres,Timpson,56.02,104.33,52.16,142.88,299.37,Single-ply,SBD,M
Boys,55.79,5,Clayton Barlow,Garrison,53.98,117.93,52.16,120.2,290.3,Single-ply,SBD,M
Boys,55.79,DQ,Michael Hughes,Garrison,54.88,88.45,,,,Single-ply,SBD,M
Boys,59.87,1,Tyler West,Shelbyville,59.87,183.7,99.79,170.1,453.59,Single-ply,SBD,M
Boys,59.87,2,Bruce Barlow,San Augustine,59.87,151.95,79.38,158.76,390.09,Single-ply,SBD,M
Boys,59.87,3,Armando Robles,Joaquin,58.97,142.88,83.91,158.76,385.55,Single-ply,SBD,M
Boys,67.13,4,Justin Adkison,Garrison,60.1,142.88,83.91,145.15,371.95,Single-ply,SBD,M
Boys,67.13,5,Edgar Sanchez,Center,60.1,115.67,79.38,131.54,326.59,Single-ply,SBD,M
Boys,59.87,6,Brayan Ruiz,Center,59.42,104.33,54.43,122.47,281.23,Single-ply,SBD,M
Boys,67.13,1,Jeremy Bennett,Rusk,67.13,149.69,83.91,181.44,415.04,Single-ply,SBD,M
Boys,67.13,2,Howard Watts,San Augustine,61.23,147.42,92.99,149.69,390.09,Single-ply,SBD,M
Boys,67.13,3,Dylan Thompson,Rusk,63.05,147.42,86.18,154.22,387.82,Single-ply,SBD,M
Boys,67.13,4,Broderick Dickerson,Huntington,63.05,140.61,70.31,167.83,378.75,Single-ply,SBD,M
Boys,67.13,5,Konner Innerarity,Huntington,65.82,149.69,74.84,142.88,367.41,Single-ply,SBD,M
Boys,67.13,6,Jessie Rose,Shelbyville,67.13,124.74,92.99,140.61,358.34,Single-ply,SBD,M
Boys,67.13,7,Cade Emerson,Rusk,65.32,131.54,79.38,136.08,347,Single-ply,SBD,M
Boys,67.13,8,Jacob Knight,Huntington,67.04,117.93,70.31,136.08,324.32,Single-ply,SBD,M
Boys,67.13,9,Derrick Arnt,Shelbyville,63.05,79.38,49.9,95.25,224.53,Single-ply,SBD,M
Boys,74.84,1,Beau Burleson,Woodville,73.48,197.31,115.67,185.97,498.95,Single-ply,SBD,M
Boys,74.84,2,Garrett Stanley,Center,74.84,176.9,99.79,213.19,489.88,Single-ply,SBD,M
Boys,74.84,3,Justin Releford,Woodville,74.84,204.12,95.25,188.24,487.61,Single-ply,SBD,M
Boys,74.84,4,Andrew Dean,Joaquin,74.84,183.7,104.33,172.37,460.4,Single-ply,SBD,M
Boys,74.84,5,Carlos Lewis,Diboll,73.94,167.83,90.72,190.51,449.06,Single-ply,SBD,M
Boys,74.84,6,Tanner Evett,Huntington,71.03,156.49,102.06,165.56,424.11,Single-ply,SBD,M
Boys,74.84,7,Michael Murry,Rusk,74.39,170.1,86.18,163.29,419.57,Single-ply,SBD,M
Boys,74.84,8,Austin Edwards,Garrison,68.27,138.35,86.18,170.1,394.63,Single-ply,SBD,M
Boys,74.84,9,Lane Williams,Huntington,71.21,147.42,77.11,163.29,387.82,Single-ply,SBD,M
Boys,74.84,10,Joseph Parker,Timpson,74.39,145.15,86.18,151.95,383.29,Single-ply,SBD,M
Boys,74.84,11,Tylor Green,Timpson,74.62,140.61,83.91,136.08,360.61,Single-ply,SBD,M
Boys,74.84,12,Blayze Kowalski,Shelbyville,68.49,122.47,77.11,145.15,344.73,Single-ply,SBD,M
Boys,74.84,13,Billy Riffe,Shelbyville,74.84,120.2,74.84,124.74,319.78,Single-ply,SBD,M
Boys,74.84,14,Nolan Borders,Shelbyville,73.03,102.06,68.04,124.74,294.84,Single-ply,SBD,M
Boys,82.1,1,Kj Garrett,Center,81.65,217.72,127.01,231.33,576.06,Single-ply,SBD,M
Boys,89.81,2,David Overstreet,Rusk,82.28,190.51,95.25,254.01,539.77,Single-ply,SBD,M
Boys,82.1,3,Ray Rosales,Rusk,80.29,185.97,117.93,201.85,505.76,Single-ply,SBD,M
Boys,82.1,4,Drew Diverdi,Center,78.02,176.9,120.2,199.58,496.68,Single-ply,SBD,M
Boys,82.1,5,Josh Packard,Huntington,77.93,185.97,102.06,181.44,469.47,Single-ply,SBD,M
Boys,82.1,6,Johnny Shaw,Center,79.83,172.37,83.91,204.12,460.4,Single-ply,SBD,M
Boys,82.1,7,Colton Brown,Shelbyville,81.65,181.44,90.72,185.97,458.13,Single-ply,SBD,M
Boys,82.1,8,Alex Renfro,San Augustine,78.47,154.22,104.33,183.7,442.25,Single-ply,SBD,M
Boys,82.1,9,Alan Woodfin,Joaquin,82.1,156.49,99.79,165.56,421.84,Single-ply,SBD,M
Boys,82.1,10,Tristan Green,Timpson,76.66,163.29,90.72,145.15,399.16,Single-ply,SBD,M
Boys,82.1,11,Clayton Bullock,Diboll,78.02,151.95,90.72,151.95,394.63,Single-ply,SBD,M
Boys,82.1,12,Chris Messer,Woodville,78.93,145.15,79.38,151.95,376.48,Single-ply,SBD,M
Boys,82.1,13,Hunter Mondy,Huntington,79.2,156.49,83.91,136.08,376.48,Single-ply,SBD,M
Boys,89.81,14,Lucas Harbison,Shelbyville,82.19,111.13,63.5,140.61,315.25,Single-ply,SBD,M
Boys,89.81,1,Jacob Cartwright,Huntington,88.45,240.4,136.08,226.8,603.28,Single-ply,SBD,M
Boys,89.81,2,Kiounis Williams,Center,89.81,222.26,111.13,226.8,560.19,Single-ply,SBD,M
Boys,89.81,3,Nathan Sears,Center,87.54,204.12,136.08,204.12,544.31,Single-ply,SBD,M
Boys,89.81,4,Chase Emerson,Rusk,85.73,226.8,127.01,181.44,535.24,Single-ply,SBD,M
Boys,89.81,5,Garrett Derouen,Woodville,88.45,188.24,127.01,195.04,510.29,Single-ply,SBD,M
Boys,89.81,6,Zach Mason,Joaquin,88.45,201.85,106.59,197.31,505.76,Single-ply,SBD,M
Boys,89.81,7,Colton McSwain,Timpson,88.9,183.7,129.27,185.97,498.95,Single-ply,SBD,M
Boys,89.81,8,Corey Mitchell,Woodville,83.01,165.56,108.86,215.46,489.88,Single-ply,SBD,M
Boys,89.81,9,Holden Cummings,Joaquin,89.36,161.03,92.99,185.97,439.98,Single-ply,SBD,M
Boys,89.81,10,Wyatt Windham,Shelbyville,86.64,161.03,99.79,167.83,428.64,Single-ply,SBD,M
Boys,89.81,11,MacKenzie Dockens,Center,85.28,158.76,86.18,154.22,399.16,Single-ply,SBD,M
Boys,89.81,12,Brennan Shedd,Shelbyville,87.54,156.49,77.11,163.29,396.89,Single-ply,SBD,M
Boys,99.79,1,Chris Valencia,Shelbyville,95.25,219.99,113.4,215.46,548.85,Single-ply,SBD,M
Boys,99.79,2,Derrick Thomas,Center,97.52,195.04,104.33,233.6,532.97,Single-ply,SBD,M
Boys,99.79,3,Alex Moreno,San Augustine,99.79,190.51,142.88,179.17,512.56,Single-ply,SBD,M
Boys,99.79,4,James Ruiz,Rusk,91.63,195.04,108.86,195.04,498.95,Single-ply,SBD,M
Boys,99.79,5,Julian Johnson,Shelbyville,98.43,172.37,86.18,147.42,405.97,Single-ply,SBD,M
Boys,99.79,6,Nathan Boyter,Joaquin,97.98,138.35,97.52,136.08,371.95,Single-ply,SBD,M
Boys,99.79,7,Dalton Wheless,Joaquin,99.34,133.81,72.57,140.61,347,Single-ply,SBD,M
Boys,109.77,1,Daniel Duran,Rusk,105.23,213.19,142.88,190.51,546.58,Single-ply,SBD,M
Boys,109.77,2,Zach Wildes,Joaquin,107.05,190.51,113.4,183.7,487.61,Single-ply,SBD,M
Boys,109.77,3,DaVincent Hoyt,Center,100.24,181.44,113.4,190.51,485.34,Single-ply,SBD,M
Boys,109.77,4,Luis Ramos,Diboll,107.95,113.4,97.52,183.7,394.63,Single-ply,SBD,M
Boys,124.74,1,Dj Parks,San Augustine,121.56,254.01,147.42,219.99,621.42,Single-ply,SBD,M
Boys,124.74,2,Austin Underbrink,Joaquin,122.92,249.48,167.83,204.12,621.42,Single-ply,SBD,M
Boys,124.74,3,Javaris Rankin,Center,114.31,238.14,131.54,206.38,576.06,Single-ply,SBD,M
Boys,124.74,4,Jacob Slaughter,Huntington,120.43,219.99,120.2,219.99,560.19,Single-ply,SBD,M
Boys,124.74,5,Rhett Golden,Joaquin,118.39,226.8,136.08,192.78,555.65,Single-ply,SBD,M
Boys,124.74,6,Fernando DeJesus,Diboll,113.85,204.12,106.59,176.9,487.61,Single-ply,SBD,M
Boys,124.74,7,Ruston Bush,Timpson,115.21,154.22,104.33,170.1,428.64,Single-ply,SBD,M
Boys,124.74+,1,Jake Davis,San Augustine,128.82,208.65,127.01,172.37,508.02,Single-ply,SBD,M
Boys,124.74+,2,Darren Franklin,Rusk,142.43,199.58,120.2,174.63,494.42,Single-ply,SBD,M
Boys,124.74+,3,Dayton Rodriguez,Huntington,140.89,174.63,104.33,165.56,444.52,Single-ply,SBD,M
Boys,124.74+,DQ,Jon Serratos,Diboll,136.08,,,,,Single-ply,SBD,M
