Division,WeightClassKg,Place,Name,Team,BodyweightKg,Best3SquatKg,Best3BenchKg,Best3DeadliftKg,TotalKg,Equipment,Event,Sex
Boys,51.71,1,Shimar Jennings,Plainview,51.07,147.42,86.18,167.83,401.43,Single-ply,SBD,M
Boys,51.71,2,Gabriel Hancock,Bovina,51.26,102.06,65.77,117.93,285.76,Single-ply,SBD,M
Boys,55.79,3,Tre'von Bates,Dumas,51.89,102.06,38.56,133.81,274.42,Single-ply,SBD,M
Boys,55.79,4,Matt Longoria,Tulia,51.85,99.79,56.7,113.4,269.89,Single-ply,SBD,M
Boys,51.71,5,Christian Botello,Dumas,50.71,72.57,45.36,97.52,215.46,Single-ply,SBD,M
Boys,51.71,6,Payton Riddle,Bushland,46.86,65.77,47.63,88.45,201.85,Single-ply,SBD,M
Boys,51.71,7,Fernando Corpus,Amarillo Highland Park,41.73,79.38,29.48,83.91,192.78,Single-ply,SBD,M
Boys,51.71,8,Jakob Williams,Childress,46.18,65.77,38.56,74.84,179.17,Single-ply,SBD,M
Boys,55.79,1,Oscar Trejo,Sunray,55.11,142.88,61.23,149.69,353.8,Single-ply,SBD,M
Boys,55.79,2,Jonathon Luna,Tulia,52.93,111.13,77.11,136.08,324.32,Single-ply,SBD,M
Boys,55.79,3,Trent Morgan,Amarillo Highland Park,53.39,102.06,61.23,120.2,283.5,Single-ply,SBD,M
Boys,55.79,4,Lane Miller,Dalhart,52.34,102.06,49.9,124.74,276.69,Single-ply,SBD,M
Boys,55.79,5,Derrick Seibman,Childress,52.71,95.25,65.77,115.67,276.69,Single-ply,SBD,M
Boys,55.79,6,Eddie Fierro,Sunray,52.84,97.52,56.7,106.59,260.82,Single-ply,SBD,M
Boys,55.79,7,Jason Dowd,Amarillo Highland Park,54.7,72.57,68.04,113.4,254.01,Single-ply,SBD,M
Boys,55.79,8,Ramiro Carmona,Bovina,52.98,90.72,40.82,117.93,249.48,Single-ply,SBD,M
Boys,55.79,DQ,Fabian Bencomo,Dalhart,54.16,83.91,,,,Single-ply,SBD,M
Boys,59.87,1,Dimas Rodriguez,Plainview,59.33,149.69,92.99,156.49,399.16,Single-ply,SBD,M
Boys,67.13,2,Corey Barker,Clarendon,60.06,142.88,92.99,154.22,390.09,Single-ply,SBD,M
Boys,59.87,3,Julian Gaspar,Sunray,58.24,136.08,70.31,147.42,353.8,Single-ply,SBD,M
Boys,59.87,4,Ismael Garcia,Memphis,59.74,113.4,77.11,140.61,331.12,Single-ply,SBD,M
Boys,59.87,5,Nolan Willingham,Canyon Randall,59.87,102.06,77.11,142.88,322.05,Single-ply,SBD,M
Boys,59.87,6,Jj Garcia,Tulia,58.2,115.67,74.84,124.74,315.25,Single-ply,SBD,M
Boys,59.87,7,Jordan Magers,Childress,59.1,104.33,81.65,127.01,312.98,Single-ply,SBD,M
Boys,59.87,8,Bryce Prescott,Bushland,58.24,104.33,72.57,131.54,308.44,Single-ply,SBD,M
Boys,59.87,9,Tyler Munoz,Vega,57.56,106.59,74.84,124.74,306.17,Single-ply,SBD,M
Boys,59.87,10,Braden Aguirre,Childress,57.79,108.86,70.31,117.93,297.1,Single-ply,SBD,M
Boys,59.87,11,Anthony Pondo,Tulia,57.83,90.72,63.5,122.47,276.69,Single-ply,SBD,M
Boys,59.87,12,Oscar Jasso,Bovina,59.38,92.99,58.97,120.2,272.16,Single-ply,SBD,M
Boys,59.87,13,Zack Wilkins,Plains,56.34,72.57,49.9,102.06,224.53,Single-ply,SBD,M
Boys,59.87,14,Grayson Jones,Dalhart,57.74,61.23,52.16,102.06,215.46,Single-ply,SBD,M
Boys,59.87,15,Piere Valencia,Dalhart,58.33,61.23,43.09,102.06,206.38,Single-ply,SBD,M
Boys,67.13,1,Kyle Stroud,Stinnett West Texas,64.82,142.88,86.18,181.44,410.5,Single-ply,SBD,M
Boys,67.13,2,Ernesto Muro,Perryton,63.91,138.35,95.25,172.37,405.97,Single-ply,SBD,M
Boys,67.13,3,Dominic Baca,Dalhart,63.68,142.88,90.72,163.29,396.89,Single-ply,SBD,M
Boys,67.13,4,Marco Terrones,Friona,63.68,147.42,88.45,158.76,394.63,Single-ply,SBD,M
Boys,67.13,5,Bobby Clift,Canyon Randall,61.78,151.95,88.45,149.69,390.09,Single-ply,SBD,M
Boys,67.13,6,Gilbert Rocha,Canyon Randall,65.32,127.01,106.59,136.08,369.68,Single-ply,SBD,M
Boys,67.13,7,Jacob Tobias,Canyon Randall,66.27,129.27,90.72,145.15,365.14,Single-ply,SBD,M
Boys,67.13,8,Miguel Herrera,Sunray,66.18,142.88,79.38,138.35,360.61,Single-ply,SBD,M
Boys,67.13,9,Cameron Barnes,Perryton,66.59,115.67,88.45,151.95,356.07,Single-ply,SBD,M
Boys,67.13,10,Bailey Settle,Plainview,63.68,136.08,79.38,136.08,351.53,Single-ply,SBD,M
Boys,67.13,11,Guillermo Davila,Dalhart,66.36,142.88,61.23,147.42,351.53,Single-ply,SBD,M
Boys,67.13,12,Ryan Bybee,Dumas,61.37,122.47,72.57,142.88,337.93,Single-ply,SBD,M
Boys,67.13,13,Tyler Gano,Canyon Randall,65.45,124.74,77.11,136.08,337.93,Single-ply,SBD,M
Boys,74.84,14,Brady Boyd,Bushland,67.36,117.93,74.84,133.81,326.59,Single-ply,SBD,M
Boys,67.13,15,Julian Navarez,Dumas,60.78,102.06,83.91,136.08,322.05,Single-ply,SBD,M
Boys,67.13,16,Andres Baskins,Dumas,65.18,83.91,83.91,154.22,322.05,Single-ply,SBD,M
Boys,67.13,17,Andrew Feese,Dumas,61.14,102.06,72.57,142.88,317.51,Single-ply,SBD,M
Boys,67.13,18,Ishmael Soto,Plainview,61.55,124.74,58.97,124.74,308.44,Single-ply,SBD,M
Boys,67.13,19,Ernesto Uribe,Perryton,63.41,92.99,79.38,136.08,308.44,Single-ply,SBD,M
Boys,67.13,20,Marq Burns,Amarillo Highland Park,65,111.13,61.23,127.01,299.37,Single-ply,SBD,M
Boys,67.13,21,Cole Gatzki,Plains,62.46,104.33,63.5,124.74,292.57,Single-ply,SBD,M
Boys,67.13,22,Eddie Garcia,Friona,62.23,104.33,58.97,127.01,290.3,Single-ply,SBD,M
Boys,67.13,23,Jairo Salas,Bovina,66.09,83.91,54.43,104.33,242.67,Single-ply,SBD,M
Boys,67.13,DQ,Stefano Knoll,Bovina,66.54,,,,,Single-ply,SBD,M
Boys,74.84,1,Alan Rivera,Plainview,74.12,226.8,115.67,213.19,555.65,Single-ply,SBD,M
Boys,74.84,2,Tony Dickey,Dumas,73.71,151.95,108.86,199.58,460.4,Single-ply,SBD,M
Boys,74.84,3,Brandon Guerrero,Memphis,70.58,174.63,92.99,185.97,453.59,Single-ply,SBD,M
Boys,74.84,4,Brendan Harris,Amarillo Highland Park,68.81,172.37,86.18,181.44,439.98,Single-ply,SBD,M
Boys,74.84,5,Landon Oelke,Dalhart,74.21,147.42,90.72,192.78,430.91,Single-ply,SBD,M
Boys,74.84,6,Pablo Jimenez,Plainview,72.62,154.22,90.72,183.7,428.64,Single-ply,SBD,M
Boys,74.84,7,Briton Tarango,Perryton,69.99,142.88,83.91,170.1,396.89,Single-ply,SBD,M
Boys,74.84,8,Lance Mullins,Amarillo Highland Park,72.76,142.88,72.57,181.44,396.89,Single-ply,SBD,M
Boys,82.1,9,Edgar Martinez,Memphis,75.07,151.95,86.18,154.22,392.36,Single-ply,SBD,M
Boys,74.84,10,Christian Axelsen,Sunray,74.53,129.27,97.52,156.49,383.29,Single-ply,SBD,M
Boys,74.84,11,Jeremy Johnson,Clarendon,69.31,145.15,90.72,145.15,381.02,Single-ply,SBD,M
Boys,74.84,12,Omar Ramos,Friona,69.49,138.35,88.45,145.15,371.95,Single-ply,SBD,M
Boys,74.84,13,Phong Nguyen,Amarillo Highland Park,69.76,142.88,68.04,158.76,369.68,Single-ply,SBD,M
Boys,74.84,14,Jesus Romero,Dumas,74.66,142.88,68.04,158.76,369.68,Single-ply,SBD,M
Boys,74.84,15,Domingo Macias,Dumas,71.76,129.27,77.11,158.76,365.14,Single-ply,SBD,M
Boys,74.84,16,Jorge Arroyo,Sunray,74.75,142.88,74.84,127.01,344.73,Single-ply,SBD,M
Boys,82.1,17,Adrian Prieto,Friona,74.93,127.01,74.84,142.88,344.73,Single-ply,SBD,M
Boys,74.84,18,Kennedy Prescott,Amarillo Highland Park,71.35,122.47,83.91,136.08,342.46,Single-ply,SBD,M
Boys,74.84,19,Lonnie Ellifritz,Childress,74.3,124.74,86.18,131.54,342.46,Single-ply,SBD,M
Boys,74.84,20,Miguel Carnero,Perryton,68.86,124.74,72.57,142.88,340.19,Single-ply,SBD,M
Boys,74.84,21,Justin Esch,Plains,70.94,115.67,70.31,151.95,337.93,Single-ply,SBD,M
Boys,74.84,22,Alejandro Guevara,Bovina,70.53,115.67,70.31,140.61,326.59,Single-ply,SBD,M
Boys,74.84,23,Luis Morales,Vega,67.77,90.72,83.91,127.01,301.64,Single-ply,SBD,M
Boys,74.84,24,David Velo,Bovina,67.81,106.59,61.23,120.2,288.03,Single-ply,SBD,M
Boys,74.84,25,Jd Lopez,Childress,69.76,104.33,77.11,104.33,285.76,Single-ply,SBD,M
Boys,74.84,26,Jacob Reyna,Bovina,73.57,90.72,58.97,117.93,267.62,Single-ply,SBD,M
Boys,74.84,27,Hector Lopez,Bovina,72.39,92.99,54.43,106.59,254.01,Single-ply,SBD,M
Boys,74.84,28,Jonathan Ruiz,Dumas,68.49,61.23,61.23,115.67,238.14,Single-ply,SBD,M
Boys,74.84,29,James Hill,Tulia,73.89,65.77,47.63,97.52,210.92,Single-ply,SBD,M
Boys,74.84,DQ,Chris Taylor,Amarillo Highland Park,71.12,,,,,Single-ply,SBD,M
Boys,82.1,1,Aldo Marquez,Plainview,78.06,183.7,92.99,197.31,474,Single-ply,SBD,M
Boys,82.1,2,Zack Lewis,Stinnett West Texas,81.51,192.78,92.99,183.7,469.47,Single-ply,SBD,M
Boys,82.1,3,Tavish Lightner,Perryton,75.75,151.95,124.74,183.7,460.4,Single-ply,SBD,M
Boys,82.1,4,Isaac Moran,Dumas,78.02,176.9,92.99,183.7,453.59,Single-ply,SBD,M
Boys,82.1,5,Ceaser Aguirre,Amarillo Highland Park,75.52,170.1,92.99,154.22,417.3,Single-ply,SBD,M
Boys,82.1,6,Luis Davila,Dalhart,77.66,156.49,86.18,158.76,401.43,Single-ply,SBD,M
Boys,82.1,7,Frank Byers,Bushland,77.47,147.42,97.52,147.42,392.36,Single-ply,SBD,M
Boys,82.1,8,Michael Garcia,Friona,75.8,142.88,92.99,147.42,383.29,Single-ply,SBD,M
Boys,82.1,9,Grant Sherwood,Bushland,80.15,154.22,86.18,142.88,383.29,Single-ply,SBD,M
Boys,82.1,10,Ricky Ramirez,Tulia,79.42,149.69,72.57,142.88,365.14,Single-ply,SBD,M
Boys,82.1,11,Michael Garcia,Plainview,75.89,138.35,70.31,151.95,360.61,Single-ply,SBD,M
Boys,82.1,12,Jacobe Atwood,Vega,75.61,111.13,102.06,142.88,356.07,Single-ply,SBD,M
Boys,82.1,13,Zach Castillo,Bovina,79.92,108.86,74.84,142.88,326.59,Single-ply,SBD,M
Boys,82.1,14,Nicholas Anna,Plains,76.61,104.33,58.97,140.61,303.91,Single-ply,SBD,M
Boys,82.1,15,Tanner Thompson,Childress,78.15,90.72,72.57,102.06,265.35,Single-ply,SBD,M
Boys,82.1,16,Alexis Oliva,Bovina,79.06,97.52,56.7,95.25,249.48,Single-ply,SBD,M
Boys,82.1,DQ,Zach Admire,Dumas,75.25,136.08,,,,Single-ply,SBD,M
Boys,89.81,1,Shawn Lindsey,Sunray,85.14,192.78,124.74,197.31,514.83,Single-ply,SBD,M
Boys,89.81,2,Denver Morris,Childress,84.82,174.63,127.01,190.51,492.15,Single-ply,SBD,M
Boys,89.81,3,Tanner Halford,Dumas,87.04,188.24,83.91,210.92,483.08,Single-ply,SBD,M
Boys,89.81,4,Eduardo Rojas,Friona,85.68,176.9,95.25,181.44,453.59,Single-ply,SBD,M
Boys,89.81,5,Corey Carter,Stinnett West Texas,87.27,165.56,102.06,183.7,451.32,Single-ply,SBD,M
Boys,89.81,6,Josh Hull,Sunray,88.41,161.03,111.13,170.1,442.25,Single-ply,SBD,M
Boys,89.81,7,Anthony Tapia,Friona,89.45,165.56,97.52,158.76,421.84,Single-ply,SBD,M
Boys,89.81,8,Max Zapata,Sunray,87.95,158.76,79.38,165.56,403.7,Single-ply,SBD,M
Boys,89.81,9,Rowdy Speed,Clarendon,88.81,149.69,95.25,149.69,394.63,Single-ply,SBD,M
Boys,89.81,10,Joe Rojas,Childress,85.5,145.15,83.91,158.76,387.82,Single-ply,SBD,M
Boys,89.81,11,Guillermo Flores,Plainview,87.41,154.22,74.84,151.95,381.02,Single-ply,SBD,M
Boys,89.81,12,Juan Chavira,Dalhart,87.14,102.06,104.33,170.1,376.48,Single-ply,SBD,M
Boys,89.81,13,Ryan Ramirez,Tulia,84.37,147.42,72.57,149.69,369.68,Single-ply,SBD,M
Boys,89.81,14,Jesus Navarez,Dumas,84.41,129.27,74.84,165.56,369.68,Single-ply,SBD,M
Boys,89.81,15,Gabe Marquez,Dalhart,85.77,136.08,61.23,154.22,351.53,Single-ply,SBD,M
Boys,89.81,16,Abel Palacios,Friona,82.92,131.54,70.31,147.42,349.27,Single-ply,SBD,M
Boys,89.81,17,Daniel Soltero,Friona,83.28,122.47,81.65,140.61,344.73,Single-ply,SBD,M
Boys,89.81,18,Luis Tafoya,Bovina,87.04,124.74,68.04,151.95,344.73,Single-ply,SBD,M
Boys,89.81,19,Brady Brown,Perryton,84.78,115.67,81.65,131.54,328.85,Single-ply,SBD,M
Boys,89.81,20,Javier Torres,Dalhart,84.78,83.91,61.23,129.27,274.42,Single-ply,SBD,M
Boys,89.81,DQ,Kyler Battin,Canyon Randall,84.96,142.88,,,,Single-ply,SBD,M
Boys,89.81,DQ,Colton Hedrick,Canyon Randall,89.36,158.76,,,,Single-ply,SBD,M
Boys,99.79,1,Zach Subealdea,Plainview,95.75,222.26,129.27,226.8,578.33,Single-ply,SBD,M
Boys,99.79,2,Brett Cummings,Stinnett West Texas,98.61,210.92,127.01,213.19,551.11,Single-ply,SBD,M
Boys,99.79,3,Santiago Fabela,Plainview,95.62,206.38,138.35,195.04,539.77,Single-ply,SBD,M
Boys,99.79,4,Danny Montelongo,Plainview,96.89,197.31,127.01,188.24,512.56,Single-ply,SBD,M
Boys,99.79,5,Octavius Ledbetter,Memphis,90.54,215.46,102.06,190.51,508.02,Single-ply,SBD,M
Boys,99.79,6,Zack Sperazza,Canyon Randall,94.48,174.63,124.74,204.12,503.49,Single-ply,SBD,M
Boys,99.79,7,Mason Cook,Vega,92.35,183.7,133.81,183.7,501.22,Single-ply,SBD,M
Boys,99.79,8,Gerardo Urquidiz,Sunray,91.85,190.51,97.52,183.7,471.74,Single-ply,SBD,M
Boys,99.79,9,Alex Arce,Canyon Randall,97.34,149.69,108.86,176.9,435.45,Single-ply,SBD,M
Boys,99.79,10,Cole Campbell,Bushland,98.34,142.88,88.45,183.7,415.04,Single-ply,SBD,M
Boys,99.79,11,Aiden Lopez,Plainview,94.85,154.22,90.72,161.03,405.97,Single-ply,SBD,M
Boys,99.79,12,Mark Munoz,Memphis,95.84,147.42,95.25,151.95,394.63,Single-ply,SBD,M
Boys,99.79,13,Zack McCoy,Childress,90.49,129.27,79.38,124.74,333.39,Single-ply,SBD,M
Boys,99.79,14,Michael Lunde,Amarillo Highland Park,91.81,113.4,61.23,124.74,299.37,Single-ply,SBD,M
Boys,99.79,DQ,Mario Pineda,Amarillo Highland Park,96.75,111.13,,,,Single-ply,SBD,M
Boys,99.79,DQ,Omar Montez,Tulia,93.53,97.52,,,,Single-ply,SBD,M
Boys,109.77,1,Angelo Samaripa,Plainview,106.28,251.74,172.37,210.92,635.03,Single-ply,SBD,M
Boys,109.77,2,Steven Leyendecker,Plainview,107.59,240.4,129.27,226.8,596.47,Single-ply,SBD,M
Boys,109.77,3,Alvine Flores,Plainview,106.82,213.19,104.33,213.19,530.7,Single-ply,SBD,M
Boys,109.77,4,Trenton Merkel,Perryton,108.86,204.12,115.67,176.9,496.68,Single-ply,SBD,M
Boys,109.77,5,Cameron Patterson,Dumas,102.24,183.7,111.13,190.51,485.34,Single-ply,SBD,M
Boys,109.77,6,Kevin Bercerril,Perryton,106.96,188.24,120.2,174.63,483.08,Single-ply,SBD,M
Boys,124.74,7,Celso Guerrero,Memphis,110,149.69,113.4,176.9,439.98,Single-ply,SBD,M
Boys,109.77,8,Jaylen Owens,Plainview,100.83,170.1,97.52,170.1,437.72,Single-ply,SBD,M
Boys,109.77,9,Chris Shuls,Clarendon,107.27,140.61,92.99,181.44,415.04,Single-ply,SBD,M
Boys,109.77,10,Seth Whitten,Childress,103.6,161.03,88.45,158.76,408.23,Single-ply,SBD,M
Boys,109.77,11,Brennan George,Tulia,102.24,113.4,97.52,156.49,367.41,Single-ply,SBD,M
Boys,109.77,12,Angel Vera,Dumas,104.78,113.4,74.84,127.01,315.25,Single-ply,SBD,M
Boys,109.77,13,Weldon Wright,Perryton,105.05,136.08,65.77,104.33,306.17,Single-ply,SBD,M
Boys,124.74,1,O'Scotty Castro,Dalhart,115.76,260.82,136.08,231.33,628.23,Single-ply,SBD,M
Boys,124.74,2,Marcos Hinojos Jr,Plainview,116.21,240.4,142.88,206.38,589.67,Single-ply,SBD,M
Boys,124.74,3,Dallam Read,Dalhart,118.25,188.24,115.67,188.24,492.15,Single-ply,SBD,M
Boys,124.74,4,Cristian Murga,Dumas,111.27,158.76,102.06,199.58,460.4,Single-ply,SBD,M
Boys,124.74,5,Carlos García,Sunray,114.44,174.63,113.4,163.29,451.32,Single-ply,SBD,M
Boys,124.74,6,Jimbo Bentley,Childress,113.9,172.37,106.59,170.1,449.06,Single-ply,SBD,M
Boys,124.74,7,Hank Perez,Dumas,121.56,165.56,92.99,136.08,394.63,Single-ply,SBD,M
Boys,124.74,DQ,Bradely Boucher,Perryton,124.74,190.51,,,,Single-ply,SBD,M
Boys,124.74,DQ,Ty Fisher,Bushland,110.59,,,,,Single-ply,SBD,M
Boys,124.74+,1,Gary Silacci,Dalhart,127.05,197.31,124.74,219.99,542.04,Single-ply,SBD,M
Boys,124.74+,2,Marcus Burk,Canyon Randall,125.69,226.8,122.47,190.51,539.77,Single-ply,SBD,M
Boys,124.74+,3,Kory Williams,Plainview,182.62,183.7,108.86,204.12,496.68,Single-ply,SBD,M
Boys,124.74+,4,Brandon Turner,Memphis,138.39,154.22,131.54,158.76,444.52,Single-ply,SBD,M
Boys,124.74+,5,Wesley Escamilla,Amarillo Highland Park,151.14,158.76,86.18,165.56,410.5,Single-ply,SBD,M
Boys,124.74+,6,Jobe Allen,Stinnett West Texas,136.94,149.69,102.06,147.42,399.16,Single-ply,SBD,M
Boys,124.74+,7,Julian Martinez,Bovina,125.74,111.13,72.57,142.88,326.59,Single-ply,SBD,M
