Division,WeightClassKg,Place,Name,Team,BodyweightKg,Best3SquatKg,Best3BenchKg,Best3DeadliftKg,TotalKg,Equipment,Event,Sex
Boys,51.71,1,Jacob Couey,Newton,50.35,104.33,54.43,113.4,272.16,Single-ply,SBD,M
Boys,51.71,2,Dakota Primeaux,Newton,49.44,83.91,49.9,104.33,238.14,Single-ply,SBD,M
Boys,51.71,3,Andrew Smith,Jasper,50.8,61.23,43.09,83.91,188.24,Single-ply,SBD,M
Boys,51.71,4,Kelvonte Renfro,Jasper,43.09,68.04,38.56,61.23,167.83,Single-ply,SBD,M
Boys,55.79,1,Shannon Davis,Kirbyville,55.79,131.54,70.31,163.29,365.14,Single-ply,SBD,M
Boys,55.79,2,Corey Frazier,Jasper,53.98,88.45,54.43,142.88,285.76,Single-ply,SBD,M
Boys,55.79,3,Sauls Colton,Kirbyville,55.61,77.11,47.63,95.25,219.99,Single-ply,SBD,M
Boys,55.79,DQ,Kailen Bland,Hemphill,54.48,79.38,,97.52,,Single-ply,SBD,M
Boys,55.79,DQ,Michael Shaddock,Hemphill,52.71,90.72,,95.25,,Single-ply,SBD,M
Boys,59.87,1,Gerard Rhodes,Newton,58.06,158.76,81.65,161.03,401.43,Single-ply,SBD,M
Boys,59.87,2,Raymond Lawrence,Newton,59.87,111.13,74.84,142.88,328.85,Single-ply,SBD,M
Boys,59.87,3,Thomas Socia,Jasper,58.97,65.77,43.09,108.86,217.72,Single-ply,SBD,M
Boys,67.13,1,Deroddrick Hadnot,Jasper,66.22,204.12,131.54,217.72,553.38,Single-ply,SBD,M
Boys,67.13,2,Jaron Hanks,Newton,67.13,195.04,92.99,174.63,462.66,Single-ply,SBD,M
Boys,74.84,3,Jordan Holsonback,Kirbyville,67.18,158.76,95.25,176.9,430.91,Single-ply,SBD,M
Boys,67.13,4,Alonzo Simmons,Jasper,66.68,158.76,104.33,158.76,421.84,Single-ply,SBD,M
Boys,67.13,5,Bobby Bass,Newton,66.68,156.49,97.52,161.03,415.04,Single-ply,SBD,M
Boys,67.13,6,Bo Wood,Newton,62.6,156.49,77.11,167.83,401.43,Single-ply,SBD,M
Boys,67.13,7,Caldero Frank,Kirbyville,66.04,145.15,74.84,158.76,378.75,Single-ply,SBD,M
Boys,67.13,8,Dj Seastrunk,Newton,66.22,108.86,68.04,138.35,315.25,Single-ply,SBD,M
Boys,67.13,9,Luis Cruz,Newton,62.6,108.86,52.16,136.08,297.1,Single-ply,SBD,M
Boys,67.13,10,Jafet Santiaguillo,Kirbyville,64.32,108.86,56.7,124.74,290.3,Single-ply,SBD,M
Boys,67.13,11,Cade Ratcliff,Jasper,67.13,102.06,61.23,115.67,278.96,Single-ply,SBD,M
Boys,67.13,12,Chase Chandler,Jasper,65.77,86.18,72.57,95.25,254.01,Single-ply,SBD,M
Boys,67.13,13,Eli Dodson,Kirbyville,63.87,81.65,47.63,97.52,226.8,Single-ply,SBD,M
Boys,67.13,DQ,Tyrese Samuel,Kirbyville,64.23,,,,,Single-ply,SBD,M
Boys,67.13,DQ,Conner Kerr,Newton,67.13,,,,,Single-ply,SBD,M
Boys,67.13,DQ,Aaron Shaddock,Hemphill,63.05,136.08,,156.49,,Single-ply,SBD,M
Boys,74.84,1,Jace Thomas,Newton,74.39,219.99,131.54,256.28,607.81,Single-ply,SBD,M
Boys,74.84,2,Kellian Weathered,Jasper,70.76,163.29,106.59,174.63,444.52,Single-ply,SBD,M
Boys,74.84,3,Tyler Ebner,Kirbyville,68.95,161.03,86.18,163.29,410.5,Single-ply,SBD,M
Boys,74.84,4,Matthew Peveto,Kirbyville,73.39,151.95,74.84,183.7,410.5,Single-ply,SBD,M
Boys,74.84,5,Jahlil Brown,Jasper,74.39,154.22,86.18,165.56,405.97,Single-ply,SBD,M
Boys,74.84,6,Jakeithan Adams,Jasper,69.85,111.13,86.18,170.1,367.41,Single-ply,SBD,M
Boys,74.84,7,Dekeidrian Rollins,Newton,70.31,138.35,92.99,131.54,362.87,Single-ply,SBD,M
Boys,74.84,8,Justin Odom,Kirbyville,72.57,136.08,74.84,133.81,344.73,Single-ply,SBD,M
Boys,74.84,9,Cameron Brewster,Kirbyville,73.12,106.59,65.77,136.08,308.44,Single-ply,SBD,M
Boys,74.84,10,Luke Windham,Newton,68.49,106.59,56.7,120.2,283.5,Single-ply,SBD,M
Boys,74.84,DQ,Tavioun Fillyaw,Jasper,70.76,,,,,Single-ply,SBD,M
Boys,74.84,DQ,Rudy Weaver,Hemphill,70.67,140.61,,142.88,,Single-ply,SBD,M
Boys,82.1,1,Dalton Phillips,Kirbyville,79.2,183.7,95.25,204.12,483.08,Single-ply,SBD,M
Boys,82.1,2,Dustin Willett,Kirbyville,80.38,176.9,106.59,170.1,453.59,Single-ply,SBD,M
Boys,82.1,3,DeCorrian Holmes,Jasper,81.65,158.76,113.4,181.44,453.59,Single-ply,SBD,M
Boys,82.1,4,Hunter Flanigan,Newton,81.65,154.22,97.52,183.7,435.45,Single-ply,SBD,M
Boys,82.1,5,Antwaine Hunter,Newton,80.29,165.56,81.65,154.22,401.43,Single-ply,SBD,M
Boys,82.1,6,Chris Conner,Newton,79.83,147.42,74.84,167.83,390.09,Single-ply,SBD,M
Boys,82.1,7,Koy Debney,Jasper,79.83,124.74,83.91,149.69,358.34,Single-ply,SBD,M
Boys,82.1,8,John Martin,Buna,81.65,124.74,74.84,136.08,335.66,Single-ply,SBD,M
Boys,82.1,9,Ty Pelletier,Jasper,80.74,102.06,72.57,120.2,294.84,Single-ply,SBD,M
Boys,82.1,10,Kris Carroll,Jasper,77.11,90.72,58.97,97.52,247.21,Single-ply,SBD,M
Boys,82.1,DQ,Brauck Hubbard,Newton,78.47,,,,,Single-ply,SBD,M
Boys,82.1,DQ,Dominique Clark,Newton,79.38,,,,,Single-ply,SBD,M
Boys,89.81,1,Brandon Johnson,Newton,84.82,263.08,149.69,249.48,662.24,Single-ply,SBD,M
Boys,89.81,2,Devonta Hawthorne,Jasper,83.91,213.19,151.95,208.65,573.79,Single-ply,SBD,M
Boys,89.81,3,Chedrick Hanks,Newton,87.09,185.97,133.81,222.26,542.04,Single-ply,SBD,M
Boys,89.81,4,Blaine Rhodes,Kirbyville,89.36,190.51,102.06,208.65,501.22,Single-ply,SBD,M
Boys,89.81,5,Dillon Kroner,Kirbyville,88,163.29,108.86,192.78,464.93,Single-ply,SBD,M
Boys,89.81,6,Tajhwan Denson,Newton,83.91,129.27,79.38,181.44,390.09,Single-ply,SBD,M
Boys,89.81,7,Colton Liles,Kirbyville,83.01,133.81,99.79,151.95,385.55,Single-ply,SBD,M
Boys,89.81,DQ,Nethaniel Martinez,Jasper,89.36,,,,,Single-ply,SBD,M
Boys,89.81,DQ,Markeith Cauley,Jasper,89.36,,,,,Single-ply,SBD,M
Boys,99.79,1,Terrance Cuney,Jasper,99.79,263.08,172.37,249.48,684.92,Single-ply,SBD,M
Boys,99.79,2,Trea'Von Davis,Newton,98.43,226.8,147.42,222.26,596.47,Single-ply,SBD,M
Boys,99.79,3,Isiah Myers,Newton,92.99,213.19,136.08,240.4,589.67,Single-ply,SBD,M
Boys,99.79,4,Robert Wood,Newton,98.88,199.58,113.4,206.38,519.36,Single-ply,SBD,M
Boys,99.79,5,Daylen Nichols,Kirbyville,93.53,188.24,108.86,172.37,469.47,Single-ply,SBD,M
Boys,99.79,6,Leonard Wysingle,Jasper,93.44,136.08,72.57,185.97,394.63,Single-ply,SBD,M
Boys,99.79,7,Janathaen Ezidore,Newton,97.52,151.95,77.11,165.56,394.63,Single-ply,SBD,M
Boys,99.79,8,Blake Mitchell,Jasper,99.79,129.27,81.65,154.22,365.14,Single-ply,SBD,M
Boys,99.79,9,Trajan Williams,Jasper,95.25,104.33,74.84,142.88,322.05,Single-ply,SBD,M
Boys,99.79,10,Chris Bennet,Jasper,90.72,102.06,70.31,102.06,274.42,Single-ply,SBD,M
Boys,99.79,DQ,Brandaren Collins,Jasper,95.25,,,,,Single-ply,SBD,M
Boys,109.77,1,DeAnthony Cuney,Jasper,107.95,238.14,163.29,235.87,637.3,Single-ply,SBD,M
Boys,109.77,2,Anthony Hadnot,Newton,104.78,244.94,142.88,231.33,619.15,Single-ply,SBD,M
Boys,109.77,3,Keithan Diggles,Jasper,105.69,192.78,124.74,233.6,551.11,Single-ply,SBD,M
Boys,109.77,4,Raymond Harper,Jasper,105.69,151.95,102.06,204.12,458.13,Single-ply,SBD,M
Boys,109.77,4,Jarrod Brooks,Kirbyville,106.78,213.19,95.25,208.65,517.1,Single-ply,SBD,M
Boys,109.77,5,Keenen Myers,Newton,101.15,181.44,131.54,185.97,498.95,Single-ply,SBD,M
Boys,109.77,6,Tyler Martin,Kirbyville,109.13,181.44,108.86,170.1,460.4,Single-ply,SBD,M
Boys,124.74,1,Dave Lewis,Newton,112.49,240.4,142.88,249.48,632.76,Single-ply,SBD,M
Boys,124.74,2,Jason Cochran,Newton,118.39,204.12,108.86,208.65,521.63,Single-ply,SBD,M
Boys,124.74,3,Michael Matthews,Newton,115.67,213.19,117.93,188.24,519.36,Single-ply,SBD,M
Boys,124.74,5,Jordan Garms,Buna,119.29,165.56,79.38,179.17,424.11,Single-ply,SBD,M
Boys,124.74,6,Zach Fairchild,Kirbyville,110.59,172.37,86.18,154.22,412.77,Single-ply,SBD,M
Boys,124.74,7,Tristan Truitt,Jasper,124.28,129.27,81.65,122.47,333.39,Single-ply,SBD,M
Boys,124.74,DQ,William Simmons,Newton,113.4,,,,,Single-ply,SBD,M
Boys,124.74,DQ,Trey Harris,Hemphill,118.93,254.01,,199.58,,Single-ply,SBD,M
Boys,124.74+,1,Ashton Limbrick,Jasper,129.27,238.14,147.42,238.14,623.69,Single-ply,SBD,M
Boys,124.74+,2,Trent Smith,Kirbyville,137.17,197.31,136.08,170.1,503.49,Single-ply,SBD,M
Boys,124.74+,3,Tommy Jones,Buna,133.81,156.49,88.45,190.51,435.45,Single-ply,SBD,M
Boys,124.74+,4,Rahshaan Garner,Newton,128.37,142.88,79.38,154.22,376.48,Single-ply,SBD,M
Boys,124.74+,5,Antwaan Houston,Jasper,137.89,113.4,83.91,136.08,333.39,Single-ply,SBD,M
Boys,124.74+,6,Sabian Bluitt,Jasper,145.15,113.4,77.11,142.88,333.39,Single-ply,SBD,M
Boys,124.74+,DQ,Brent Simmons,Newton,125.65,,,,,Single-ply,SBD,M
