Name,BirthDate,Team,Sex,Age,Division,Equipment,BodyweightKg,WeightClassKg,Squat1Kg,Squat2Kg,Squat3Kg,Squat4Kg,Best3SquatKg,Bench1Kg,Bench2Kg,Bench3Kg,Bench4Kg,Best3BenchKg,Deadlift1Kg,Deadlift2Kg,Deadlift3Kg,Deadlift4Kg,Best3DeadliftKg,TotalKg,Event,Place
Karina Garces Herrera,1993-07-24,Power Menace,F,25,Open,Wraps,49,52,107.5,112.5,116,118,116,50,-53,53,,53,130.5,135,-140,,135,304,SBD,1
Fernanda Fuenzalida,2001-05-12,Areslifters,F,17,Open,Wraps,49.8,52,-80,80,-90,,80,30,-35,35,,35,85,90,102.5,-121,102.5,217.5,SBD,2
Fernanda Fuenzalida,2001-05-12,Areslifters,F,17,Tn 16-17,Wraps,49.8,52,-80,80,-90,,80,30,-35,35,,35,85,90,102.5,-121,102.5,217.5,SBD,1
Pamela Quezada,2001-02-12,Titanes SC,F,17,Open,Wraps,53.7,56,-100,100,105,,105,-45,47.5,50,,50,100,107.5,-110,,107.5,262.5,SBD,2
Pamela Quezada,2001-02-12,Titanes SC,F,17,Tn 16-17,Wraps,53.7,56,-100,100,105,,105,-45,47.5,50,,50,100,107.5,-110,,107.5,262.5,SBD,1
Maryorie Flores Valenzuela,1995-02-01,Warlike,F,23,Open,Wraps,54.4,56,90,95,-100,,95,60,-62.5,62.5,,62.5,130,135,140,142.5,140,297.5,SBD,1
Maryorie Flores Valenzuela,1995-02-01,Warlike,F,23,Junior,Wraps,54.4,56,90,95,-100,,95,60,-62.5,62.5,,62.5,130,135,140,142.5,140,297.5,SBD,1
Catalina Barriga Pinto,1997-04-29,Agogelifting,F,21,Open,Wraps,58.4,60,95,100,105,,105,42.5,-45,-45,,42.5,105,110,115,,115,262.5,SBD,2
Catalina Barriga Pinto,1997-04-29,Agogelifting,F,21,Junior,Wraps,58.4,60,95,100,105,,105,42.5,-45,-45,,42.5,105,110,115,,115,262.5,SBD,1
Yassna Riffo Sepúlveda,1973-01-11,Vikingos,F,45,Open,Wraps,57.6,60,-130,-130,130,,130,65,-67.5,-67.5,,65,130,140,-145,,140,335,SBD,1
Yassna Riffo Sepúlveda,1973-01-11,Vikingos,F,45,Master,Wraps,57.6,60,-130,-130,130,,130,65,-67.5,-67.5,,65,130,140,-145,,140,335,SBD,1
Paula Erices Silva,1992-10-12,Iron Grip,F,26,Open,Wraps,67.5,67.5,110,120,-125,,120,45,-50,,,45,120,130,,,130,295,SBD,2
Rosalia Llancaleo Saavedra,1968-09-19,Génesis,F,50,Open,Wraps,65.9,67.5,190,200,,,200,80,90,95,,95,150,170,,,170,465,SBD,1
Rosalia Llancaleo Saavedra,1968-09-19,Génesis,F,50,Master,Wraps,65.9,67.5,190,200,,,200,80,90,95,,95,150,170,,,170,465,SBD,1
Nataly Aravena Ortiz,1993-12-13,Génesis,F,24,Open,Wraps,70.2,75,170,-180,180,,180,75,80,87.5,,87.5,140,150,160,,160,427.5,SBD,1
Adriana Renaut Recalde,1979-03-24,Génesis,F,39,Open,Wraps,79.5,82.5,-140,150,-160,,150,50,60,65,,65,160,170,180,,180,395,SBD,1
Stephanie Barriga Neira,1996-01-07,Vikingos,F,22,Open,Wraps,98.2,100,120,140,-160,,140,80,85,90,,90,160,170,-175,,170,400,SBD,1
Stephanie Barriga Neira,1996-01-07,Vikingos,F,22,Junior,Wraps,98.2,100,120,140,-160,,140,80,85,90,,90,160,170,-175,,170,400,SBD,1
Andrea Torres Vera,1991-02-24,Génesis,F,27,Open,Wraps,105.3,100+,-160,160,170,,170,60,65,-67.5,,65,150,160,170,,170,405,SBD,1
Cristian Mateluna Nuñez,1986-07-14,Warlike,M,32,Open,Wraps,54.3,56,130,135,-139,,135,85,-91,-91,,85,170,-184,-184,,170,390,SBD,1
Adolfo Pacheco Tolosa,2001-11-08,Liceo Manuel Montt,M,17,Open,Wraps,55.3,56,-80,82.5,95,,95,60,65,-70,,65,90,105,115,,115,275,SBD,2
Adolfo Pacheco Tolosa,2001-11-08,Liceo Manuel Montt,M,17,Tn 16-17,Wraps,55.3,56,-80,82.5,95,,95,60,65,-70,,65,90,105,115,,115,275,SBD,1
Jean Pauol Rodriguez Cid,1992-07-06,Power Menace,M,26,Open,Wraps,59.8,60,130,150,-160,,150,90,-100,,,90,150,-165,,,150,390,SBD,1
Ariel Arce Romero,1998-09-05,Power Menace,M,20,Open,Wraps,66.4,67.5,140,160,-170,,160,60,70,77.5,,77.5,195,205,222.5,,222.5,460,SBD,2
Ariel Arce Romero,1998-09-05,Power Menace,M,20,Junior,Wraps,66.4,67.5,140,160,-170,,160,60,70,77.5,,77.5,195,205,222.5,,222.5,460,SBD,1
Nathan Villagra Opazo,1994-11-19,Agogelifting,M,24,Open,Wraps,67.2,67.5,,160,-175,,160,-80,-87.5,-87.5,,,175,-180,,,175,,SBD,DQ
Rodrigo Fuentes Figueroa,1996-11-18,Warlike,M,22,Open,Wraps,66.2,67.5,145,155,162.5,,162.5,95,105,-107.5,,105,175,190,-200,,190,457.5,SBD,3
Rodrigo Fuentes Figueroa,1996-11-18,Warlike,M,22,Junior,Wraps,66.2,67.5,145,155,162.5,,162.5,95,105,-107.5,,105,175,190,-200,,190,457.5,SBD,2
Jourdan Mellado Venegas,1990-12-29,Vikingos,M,27,Open,Wraps,61.9,67.5,100,120,125,,125,55,-60,60,,60,120,140,-150,,140,325,SBD,6
Jorge Gonzalez Cornejo,2003-06-08,Liceo Manuel Montt,M,15,Open,Wraps,65.4,67.5,115,120,132.5,,132.5,70,75,-80,,75,130,140,150,,150,357.5,SBD,5
Jorge Gonzalez Cornejo,2003-06-08,Liceo Manuel Montt,M,15,Tn 13-15,Wraps,65.4,67.5,115,120,132.5,,132.5,70,75,-80,,75,130,140,150,,150,357.5,SBD,1
Antonio Cancino Rios,1984-10-14,Génesis,M,34,Open,Wraps,65.8,67.5,140,150,160,,160,90,95,100,,100,160,170,-180,,170,430,SBD,4
Omar Gutiérrez Olave,1990-09-15,Génesis,M,28,Open,Wraps,66.4,67.5,160,-170,170,,170,110,-115,115,,115,200,210,,,210,495,SBD,1
Benjamin Salas Delporte,1999-09-13,Powerlift,M,19,Open,Wraps,73.3,75,120,130,-135,,130,85,87.5,90,,90,180,190,-200,,190,410,SBD,6
Benjamin Salas Delporte,1999-09-13,Powerlift,M,19,Tn 18-19,Wraps,73.3,75,120,130,-135,,130,85,87.5,90,,90,180,190,-200,,190,410,SBD,1
Matias Ampuero Jiménez,1996-12-06,Iron Grip,M,22,Open,Wraps,74.9,75,-180,200.5,-207.5,,200.5,95,100,-105,,100,180,195,-210,,195,495.5,SBD,5
Matias Ampuero Jiménez,1996-12-06,Iron Grip,M,22,Junior,Wraps,74.9,75,-180,200.5,-207.5,,200.5,95,100,-105,,100,180,195,-210,,195,495.5,SBD,2
Bastian Rosal Montenegro,1996-05-05,Iron Grip,M,22,Open,Wraps,73.9,75,170,180,-190,,180,-122.5,-125,125,-130.5,125,200,210,-220,,210,515,SBD,3
Bastian Rosal Montenegro,1996-05-05,Iron Grip,M,22,Junior,Wraps,73.9,75,170,180,-190,,180,-122.5,-125,125,-130.5,125,200,210,-220,,210,515,SBD,1
Arnaldo Salinas Sepulveda,1983-04-01,Ludus Élite Fitness,M,35,Open,Wraps,73.3,75,255,270,282.5,,282.5,125,130,-135,,130,245,267.5,-288,,267.5,680,SBD,1
Luis Tejo Quezada,1989-02-10,Warlike,M,29,Open,Wraps,70.3,75,150,180,-200,,180,105,117.5,122.5,,122.5,180,205,-215,,205,507.5,SBD,4
Patricio Poblete Acuña,1994-01-26,Power Menace,M,24,Open,Wraps,75,75,200,210,-217.5,,210,132.5,140.5,-142.5,,140.5,210,220,227.5,,227.5,578,SBD,2
Raul Gajardo Mejias,2002-08-19,Liceo Manuel Montt,M,16,Open,Wraps,73.3,75,110,115,130,,130,70,75,80,,80,160,165,175,,175,385,SBD,7
Raul Gajardo Mejias,2002-08-19,Liceo Manuel Montt,M,16,Tn 16-17,Wraps,73.3,75,110,115,130,,130,70,75,80,,80,160,165,175,,175,385,SBD,1
Sebastian Morales Contreras,2001-05-10,Liceo Manuel Montt,M,17,Open,Wraps,77,82.5,80,85,90,,90,75,-80,80,,80,130,140,145,,145,315,SBD,7
Sebastian Morales Contreras,2001-05-10,Liceo Manuel Montt,M,17,Tn 16-17,Wraps,77,82.5,80,85,90,,90,75,-80,80,,80,130,140,145,,145,315,SBD,1
Felipe Hernández #3,1998-04-03,Titanes Quirihue,M,20,Open,Wraps,81,82.5,200,210,-215,,210,105,-110,-110,,105,185,195,-200,,195,510,SBD,6
Felipe Hernández #3,1998-04-03,Titanes Quirihue,M,20,Junior,Wraps,81,82.5,200,210,-215,,210,105,-110,-110,,105,185,195,-200,,195,510,SBD,2
Matias Peña Perelli,1994-10-20,Powerlift,M,24,Open,Wraps,79.7,82.5,-170,180,-190,,180,115,120,-125,,120,200,220,-240,,220,520,SBD,5
Francisco Parra Flores,1994-10-31,Agogelifting,M,24,Open,Wraps,79.5,82.5,260,270,-280,,270,140,145,147.5,,147.5,230,-240,-240,,230,647.5,SBD,2
Jose Rivas Rivas,1988-06-11,Warlike,M,30,Open,Wraps,80.4,82.5,180,-190,190,,190,-145,-145,145,,145,-250,250,-260,,250,585,SBD,3
Lucas Bosch Messina,1998-02-17,Powerlift,M,20,Open,Wraps,82.2,82.5,175,190,-200,,190,110,-115,-115,,110,240,-265,265,,265,565,SBD,4
Lucas Bosch Messina,1998-02-17,Powerlift,M,20,Junior,Wraps,82.2,82.5,175,190,-200,,190,110,-115,-115,,110,240,-265,265,,265,565,SBD,1
Eric Montecinos Haro,1991-01-27,Agogelifting,M,27,Open,Wraps,81.7,82.5,-230,235,-245,,235,140,145,-150,,145,260,270,-275,,270,650,SBD,1
Jaime Flores Espinoza,1993-08-08,Power Menace,M,25,Open,Wraps,87.9,90,170,180,185,,185,105,-115,-115,,105,200,210,225,,225,515,SBD,9
Christopher Clif Galindo,1991-05-31,Team Rhino,M,27,Open,Wraps,87.3,90,200,215,-230,,215,130,140,-150,,140,190,200,215,,215,570,SBD,7
Victor Inotroza Torres,1996-03-06,Team Rhino,M,22,Open,Wraps,86.9,90,165,-175,-175,,165,120,125,-130,,125,180,195,210,,210,500,SBD,11
Victor Inotroza Torres,1996-03-06,Team Rhino,M,22,Junior,Wraps,86.9,90,165,-175,-175,,165,120,125,-130,,125,180,195,210,,210,500,SBD,1
Mauricio Rodriguez Cid,1988-07-06,Power Menace,M,30,Open,Wraps,88.6,90,225,240,-252.5,,240,120,127.5,-132.5,,127.5,235,247.5,-255,,247.5,615,SBD,4
Edgardo Venegas,1993-04-11,Titanes SC,M,25,Open,Wraps,86.9,90,235,250,262.5,,262.5,135,145,-150,,145,230,245,255,,255,662.5,SBD,1
Alberto Yeh Sun,1997-07-11,Powerlift,M,21,Open,Wraps,88.3,90,150,-170,180,,180,100,105,-110,,105,160,190,205,,205,490,SBD,12
Alberto Yeh Sun,1997-07-11,Powerlift,M,21,Junior,Wraps,88.3,90,150,-170,180,,180,100,105,-110,,105,160,190,205,,205,490,SBD,2
Alan Gallardo Gordillo,1987-12-19,Quiltros Rage,M,30,Open,Wraps,87.5,90,195,-205,205,,205,115,120,130,,130,200,215,225,,225,560,SBD,8
Diego Aqueveque Campos,1999-11-08,Team Olimpia,M,19,Open,Wraps,89.1,90,200,210,225,,225,100,120,-130,,120,250,260,270,,270,615,SBD,5
Diego Aqueveque Campos,1999-11-08,Team Olimpia,M,19,Tn 18-19,Wraps,89.1,90,200,210,225,,225,100,120,-130,,120,250,260,270,,270,615,SBD,2
Sebastian Fuenzalida de Regil,1999-04-07,Areslifters,M,19,Open,Wraps,88.7,90,180,210,-230,,210,130,135,-140,,135,225,240,250,,250,595,SBD,6
Sebastian Fuenzalida de Regil,1999-04-07,Areslifters,M,19,Tn 18-19,Wraps,88.7,90,180,210,-230,,210,130,135,-140,,135,225,240,250,,250,595,SBD,3
Sebastián Abuter Gangas,1991-03-21,Vikingos,M,27,Open,Wraps,87.8,90,160,170,-180,,170,105,-115,-115,,105,210,230,,,230,505,SBD,10
Lenin Rojas Fuentes,2000-09-25,Liceo Manuel Montt,M,18,Open,Wraps,86.6,90,140,-150,-160,,140,70,80,90,,90,170,180,200,,200,430,SBD,13
Lenin Rojas Fuentes,2000-09-25,Liceo Manuel Montt,M,18,Tn 18-19,Wraps,86.6,90,140,-150,-160,,140,70,80,90,,90,170,180,200,,200,430,SBD,4
Diego Carrasco Martinez,2000-06-08,Titanes Quirihue,M,18,Open,Wraps,87.7,90,-220,235,-245,,235,-115,-115,115,,115,240,257.5,270,,270,620,SBD,3
Diego Carrasco Martinez,2000-06-08,Titanes Quirihue,M,18,Tn 18-19,Wraps,87.7,90,-220,235,-245,,235,-115,-115,115,,115,240,257.5,270,,270,620,SBD,1
Cristian Marín Cáceres,1983-11-05,Génesis,M,35,Open,Wraps,88.1,90,-240,-250,250,,250,150,160,-167.5,,160,230,-240,-252.5,,230,640,SBD,2
Ricardo Romero Morales,1994-04-18,Power Menace,M,24,Open,Wraps,98.4,100,220,235,-245,,235,150,160,165,,165,250,270,280,,280,680,SBD,1
Fernando Molina Guajardo,1991-02-23,Team Rhino,M,27,Open,Wraps,94.2,100,130,150,-170,,150,100,110,-120,,110,180,200,-230,,200,460,SBD,3
Juan Parada Uyarte,1987-09-12,Génesis,M,31,Open,Wraps,99.1,100,250,-265,-270,,250,130,137.5,-145,,137.5,250,-260,-285,,250,637.5,SBD,2
Christian Sepulveda Jaque,1995-02-10,Agogelifting,M,23,Open,Wraps,100.2,110,230,-240,245,,245,150,155,160,,160,230,240,-250,,240,645,SBD,1
Christian Sepulveda Jaque,1995-02-10,Agogelifting,M,23,Junior,Wraps,100.2,110,230,-240,245,,245,150,155,160,,160,230,240,-250,,240,645,SBD,1
Jose Ferrada Sepulveda,1989-11-13,Team Olimpia,M,29,Open,Wraps,101.5,110,220,230,245,,245,130,-135,,,130,250,270,-280,,270,645,SBD,2
Juan Diaz Vergara,1988-08-30,Quiltros Rage,M,30,Open,Wraps,106.4,110,185,195,205,,205,110,120,-130,,120,200,215,225,,225,550,SBD,3
Fernando Rivera Quevedo,2002-02-25,Liceo Manuel Montt,M,16,Open,Wraps,108,110,-180,190,200,,200,100,110,-120,,110,210,220,-230,,220,530,SBD,4
Fernando Rivera Quevedo,2002-02-25,Liceo Manuel Montt,M,16,Tn 16-17,Wraps,108,110,-180,190,200,,200,100,110,-120,,110,210,220,-230,,220,530,SBD,1
Pedro Pinilla Barrera,1991-11-18,Agogelifting,M,27,Open,Wraps,113,125,215,225,-240,,225,120,130,-137.5,,130,220,230,-240,,230,585,SBD,1
Alejandro Acuña,1985-03-13,Titanes SC,M,33,Open,Wraps,126,140,260,-280,-300,,260,150,160,170,,170,300,325.5,-330.5,,325.5,755.5,SBD,1
Edgardo Leal Contreras,1973-04-19,Vikingos,M,45,Open,Wraps,165,140+,330,-350,350,,350,190,200,,,200,-260,260,-280,,260,810,SBD,1
Edgardo Leal Contreras,1973-04-19,Vikingos,M,45,Master,Wraps,165,140+,330,-350,350,,350,190,200,,,200,-260,260,-280,,260,810,SBD,1
Carina Canales Bravo,1995-11-30,Agogelifting,F,23,Open,Raw,66.4,67.5,,,,,,45,-47.5,-50,,45,110,115,-120,,115,160,BD,2
Carina Canales Bravo,1995-11-30,Agogelifting,F,23,Junior,Raw,66.4,67.5,,,,,,45,-47.5,-50,,45,110,115,-120,,115,160,BD,1
Rosalia Llancaleo Saavedra,1968-09-19,Genesis,F,50,Open,Raw,67.1,67.5,,,,,,80,90,95,,95,150,160,170,,170,265,BD,1
Rosalia Llancaleo Saavedra,1968-09-19,Genesis,F,50,M50-59,Raw,67.1,67.5,,,,,,80,90,95,,95,150,160,170,,170,265,BD,1
Cristian Mateluna Nuñez,1986-07-14,Warlike,M,32,Open,Raw,55.1,56,,,,,,80,85,-88,,85,160,170,180,,180,265,BD,1
Jean Pauol Rodriguez Cid,1992-07-06,Power Menace,M,26,Open,Raw,59.8,60,,,,,,75,-95,,,75,140,,,,140,215,BD,1
Ariel Arce Romero,1998-09-05,Power Menace,M,20,Open,Raw,67.3,67.5,,,,,,60,70,,,70,195,210,,,210,280,BD,3
Ariel Arce Romero,1998-09-05,Power Menace,M,20,Junior,Raw,67.3,67.5,,,,,,60,70,,,70,195,210,,,210,280,BD,2
Ricardo Martinez Flores,1997-08-26,Warlike,M,21,Open,Raw,65.9,67.5,,,,,,120,126,-128,,126,-205,-205,205,-223,205,331,BD,2
Ricardo Martinez Flores,1997-08-26,Warlike,M,21,Junior,Raw,65.9,67.5,,,,,,120,126,-128,,126,-205,-205,205,-223,205,331,BD,1
Omar Gutiérrez Olave,1990-09-15,Genesis,M,28,Open,Raw,66.9,67.5,,,,,,110,115,120,,120,210,215,,,215,335,BD,1
Daniel Orellana Badilla,1994-01-25,S/E,M,24,Open,Raw,74.5,75,,,,,,-110,-110,-110,,,140,155,-170,,155,,BD,DQ
Esteban Peña Zacconni,1989-11-07,Areslifters,M,29,Open,Raw,72.7,75,,,,,,135,-141,-141,,135,200,211,-220,,211,346,BD,1
Diego Alvarado Oyarzun,1992-08-15,Powerlifting Chiloé,M,26,Open,Raw,82,82.5,,,,,,,120,135,-142.5,135,235,250,-260.5,,250,385,BD,1
Carlos Zurita Quintana,1984-06-01,Team Olimpia,M,34,Open,Raw,81.5,82.5,,,,,,85,95,-100,,95,190,-200,-200,,190,285,BD,2
Mauricio Rodriguez Cid,1988-07-06,Power Menace,M,30,Open,Raw,88.6,90,,,,,,105,110,-125,,110,180,200,,,200,310,BD,1
Enrique Miranda Astete,2001-05-30,Vikingos,M,17,Open,Raw,86.3,90,,,,,,100,105,-107.5,,105,140,150,155,-160,155,260,BD,2
Enrique Miranda Astete,2001-05-30,Vikingos,M,17,Tn 17,Raw,86.3,90,,,,,,100,105,-107.5,,105,140,150,155,-160,155,260,BD,1
Sebastián Jara Pérez,1988-12-27,S/E,M,29,Open,Raw,91.2,100,,,,,,140,150,-160,,150,280,300,-305,,300,450,BD,1
Christian Sepulveda Jaque,1995-02-10,Agogelifting,M,23,Open,Raw,100.2,110,,,,,,150,155,157.5,,157.5,235,245,-247.5,,245,402.5,BD,1
Christian Sepulveda Jaque,1995-02-10,Agogelifting,M,23,Junior,Raw,100.2,110,,,,,,150,155,157.5,,157.5,235,245,-247.5,,245,402.5,BD,1
Rodrigo Aravena Améstica,1996-03-06,Vikingos,M,22,Open,Raw,100.2,110,,,,,,140,150,-160,,150,240,250,-255,,250,400,BD,2
Rodrigo Aravena Améstica,1996-03-06,Vikingos,M,22,Junior,Raw,100.2,110,,,,,,140,150,-160,,150,240,250,-255,,250,400,BD,2
Antonio Vergara Monares,1984-10-10,Team Animal,M,34,Open,Raw,117,125,,,,,,80,-85,-85,,80,170,177.5,182.5,,182.5,262.5,BD,1
Aldo Cornejo Torres,1971-01-05,Team Animal,M,47,Open,Raw,127,140,,,,,,140,150,-157.5,,150,282.5,300,,,300,450,BD,1
Aldo Cornejo Torres,1971-01-05,Team Animal,M,47,M40-49,Raw,127,140,,,,,,140,150,-157.5,,150,282.5,300,,,300,450,BD,1
