Name,WeightClassKg,Division,Sex,Best3SquatKg,Best3BenchKg,Best3DeadliftKg,TotalKg,Age,Event,Equipment,Place
S. Lewis,53,Open,F,79.38,36.29,92.99,208.65,,SBD,Single-ply,1
Kim Austin,53,Open,F,70.31,27.22,90.72,188.24,,SBD,Single-ply,2
Kari Sabin,63,Open,F,122.47,83.91,172.37,378.75,,SBD,Single-ply,1
V. Duggan,63,Open,F,72.57,54.43,95.25,222.26,,SBD,Single-ply,2
D. Oleson,,Masters 40-49,F,65.77,45.36,99.79,210.92,,SBD,Single-ply,1
Helen Watkins,,Masters 50-59,F,95.25,47.63,102.06,244.94,,SBD,Single-ply,2
Bud Jeffries,,Teen,M,340.19,170.1,278.96,789.25,19,SBD,Single-ply,1
B. Hall #1,,Teen,M,240.4,124.74,238.14,603.28,,SBD,Single-ply,2
E. White,,Teen,M,142.88,83.91,149.69,376.48,,SBD,Single-ply,3
J. Kirk,,Teen,M,183.71,83.91,217.72,485.34,,SBD,Single-ply,4
B. Hoffman,,Teen,M,138.35,58.97,172.37,369.68,,SBD,Single-ply,5
R. Preston,,Teen,M,133.81,68.04,149.69,351.53,,SBD,Single-ply,6
Moses Battles,125,Masters 40-44,M,396.89,217.72,301.64,916.26,,SBD,Single-ply,1
Sherman Johnson,67.5,Masters 40-44,M,231.33,142.88,254.01,628.23,,SBD,Single-ply,2
Tom O'Donell,110,Masters 40-44,M,299.37,190.51,290.3,780.18,,SBD,Single-ply,3
M. Whitten,75,Masters 40-44,M,231.33,117.93,240.4,589.67,,SBD,Single-ply,4
J. Milligan,100,Masters 40-44,M,269.89,183.71,265.35,718.94,,SBD,Single-ply,5
L. Perez,,Masters 45-49,M,188.24,129.27,192.78,510.29,,SBD,Single-ply,1
D. Hunt,,Masters 45-49,M,197.31,122.47,231.33,551.12,,SBD,Single-ply,2
D. Brown,,Masters 45-49,M,199.58,108.86,199.58,508.02,,SBD,Single-ply,3
D. Beeson,,Masters 45-49,M,183.71,142.88,192.78,519.36,,SBD,Single-ply,4
H. Anhaus,,Masters 45-49,M,106.59,92.99,158.76,358.34,,SBD,Single-ply,5
F. Flack,,Masters 50-54,M,254.01,199.58,238.14,691.73,,SBD,Single-ply,1
Reggie Blankenship,,Masters 50-54,M,217.72,154.22,204.12,576.06,,SBD,Single-ply,2
L. Meyers,,Masters 55-59,M,192.78,115.67,215.46,523.9,,SBD,Single-ply,1
J. Best,,Masters 55-59,M,161.03,108.86,183.71,453.59,,SBD,Single-ply,2
Bill Remley,,Masters 60-69,M,215.46,136.08,208.65,560.19,61,SBD,Single-ply,1
John French,,Masters 70+,M,90.72,68.04,133.81,292.57,,SBD,Single-ply,1
Ken Snell,52,Open,M,145.15,104.33,183.71,433.18,,SBD,Single-ply,1
J. Sutherland,56,Open,M,172.37,102.06,170.1,444.52,,SBD,Single-ply,1
Steve Soukup,60,Open,M,147.42,113.4,165.56,426.38,,SBD,Single-ply,1
Tony Conyers,67.5,Open,M,285.76,183.71,276.69,746.16,,SBD,Single-ply,1
Sherman Johnson,67.5,Open,M,231.33,142.88,254.01,628.23,,SBD,Single-ply,2
H. Jones,75,Open,M,204.12,167.83,240.4,612.35,,SBD,Single-ply,1
B. Smallwood,75,Open,M,229.06,142.88,217.72,589.67,,SBD,Single-ply,2
M. Whitten,75,Open,M,231.33,117.93,240.4,589.67,,SBD,Single-ply,3
Howard Krieger,82.5,Open,M,294.84,161.03,272.16,728.02,,SBD,Single-ply,1
Mike Barquera,82.5,Open,M,247.21,170.1,263.08,680.39,,SBD,Single-ply,2
W. Conoly,82.5,Open,M,231.33,172.37,244.94,648.64,,SBD,Single-ply,3
B. Strickland,82.5,Open,M,254.01,147.42,226.8,628.23,,SBD,Single-ply,4
Cliff Fountain,82.5,Open,M,204.12,129.27,208.65,542.04,,SBD,Single-ply,5
L. Carl,82.5,Open,M,208.65,122.47,199.58,530.7,,SBD,Single-ply,6
M. Krieger,90,Open,M,294.84,145.15,274.42,714.41,,SBD,Single-ply,1
L. Starling,90,Open,M,217.72,147.42,260.82,625.96,,SBD,Single-ply,2
J. Mantia,90,Open,M,224.53,158.76,231.33,614.62,,SBD,Single-ply,3
K. Tillman,90,Open,M,238.14,124.74,226.8,589.67,,SBD,Single-ply,4
J. Jacobs,100,Open,M,299.37,208.65,263.08,771.11,,SBD,Single-ply,1
J. Mulligan,100,Open,M,269.89,183.71,265.35,718.94,,SBD,Single-ply,2
J. Stocker,100,Open,M,215.46,158.76,265.35,639.57,,SBD,Single-ply,3
Tom O'Donell,110,Open,M,299.37,190.51,290.3,780.18,,SBD,Single-ply,1
S. Cluster,110,Open,M,308.44,213.19,249.48,771.11,,SBD,Single-ply,2
R. Moretti,110,Open,M,272.16,161.03,299.37,732.55,,SBD,Single-ply,3
P. Bush,110,Open,M,283.5,156.49,238.14,678.12,,SBD,Single-ply,4
D. Crocks,110,Open,M,249.48,140.61,263.08,653.17,,SBD,Single-ply,5
Moses Battles,125,Open,M,396.89,217.72,301.64,916.26,,SBD,Single-ply,1
Tom Mahoney,125,Open,M,317.52,199.58,299.37,816.47,,SBD,Single-ply,2
J. Coan,125,Open,M,283.5,192.78,294.84,771.11,,SBD,Single-ply,3
Beau Moore #1,125+,Open,M,306.18,242.67,317.52,866.36,,SBD,Single-ply,1
A. Chappell,125+,Open,M,306.18,195.04,272.16,773.38,,SBD,Single-ply,2
J. Severino,125+,Open,M,267.62,190.51,256.28,714.41,,SBD,Single-ply,3
C. Bentley,67.5,Novice,M,199.58,136.08,192.78,528.44,,SBD,Single-ply,1
S. Burns,67.5,Novice,M,154.22,117.93,197.31,469.47,,SBD,Single-ply,2
J. Minor,75,Novice,M,185.97,127.01,231.33,544.31,,SBD,Single-ply,1
L. Digangi,75,Novice,M,195.04,117.93,210.92,523.9,,SBD,Single-ply,2
C. Zawaiski,75,Novice,M,208.65,104.33,204.12,517.1,,SBD,Single-ply,3
D. Magann,75,Novice,M,174.63,142.88,185.97,503.49,,SBD,Single-ply,4
T. O'Malie,82.5,Novice,M,215.46,145.15,201.85,562.46,,SBD,Single-ply,1
C. Trevorah,82.5,Novice,M,176.9,104.33,190.51,471.74,,SBD,Single-ply,2
C. Hunter,90,Novice,M,235.87,145.15,242.67,623.69,,SBD,Single-ply,1
K. Bass,90,Novice,M,226.8,124.74,226.8,578.33,,SBD,Single-ply,2
B. Donahay,90,Novice,M,213.19,145.15,208.65,566.99,,SBD,Single-ply,3
P. Wallis,100,Novice,M,244.94,138.35,251.74,635.03,,SBD,Single-ply,1
D. Eldridge,100,Novice,M,190.51,138.35,254.01,582.87,,SBD,Single-ply,2
K. Stover,100,Novice,M,195.04,154.22,222.26,571.53,,SBD,Single-ply,3
M. Wall,110,Novice,M,272.16,176.9,231.33,680.39,,SBD,Single-ply,1
G. Toy,110,Novice,M,226.8,154.22,244.94,625.96,,SBD,Single-ply,2
F. Forti,110,Novice,M,226.8,154.22,226.8,607.81,,SBD,Single-ply,3
K. Sunday,110,Novice,M,195.04,136.08,195.04,526.17,,SBD,Single-ply,4
