﻿APF/AAPF Georgia State PL & BP Championships
11 Sept 2010
Hiram, GA

BENCH ONLY			SQ		BP		DL		TL

Masters:
RAW
165
Charlie Levinge APF (64)				264
181
Jimmy May APF (67)					270
308
Chris Foster APF (44)					402
EQUIPPED
198
Tom Sisk APF (74)					336
220
Jimmy Grizzle APF (63)				352

Open Mens:
RAW
165
Eddie Patton-Gooch AAPF				319
SHW
Jacob Miller APF					352
												
DEADLIFT ONLY	

Womens:
RAW MASTERS
148
Ann Salter AAPF (54)						231

Masters:
RAW
165
Tim Mcwhirter AAPF (58)						369

Open Mens:
RAW
165
Eddie Patton-Gooch AAPF						468
EQUIPPED
165
Jeff Clem APF							512	
FULL POWERLIFTING		SQ		BP		DL		TL

Open Womens:
RAW
123
Sheena Hunter APF			225		154		275		655
CLASSIC
181
Erika Medlin APF			336		165		424		925		
SHW
Jenny Brooks AAPF			363		203		369		936	

Teenage:
RAW
123
Josh Thrasher AAPF (12)		154		93		214		462	
148
Tyler Weimann APF (13)		154		93		203		451		
165
Jackson Govatos APF (18)		374		325		473		1172
181
Chad Koon APF (14)			259		159		347		766
242
Anthony Waller APF (19)		363		226		413		1003
						
Masters:
CLASSIC
220
Joey Edwards APF (43)		424		270		440		1135
308
Tim Teal APF (47)			446		325		501		1273
EQUIPPED
181
Rey Guevara AAPF (42)		545		363		440		1372
Rick Layman APF (63)		523		275		501		1300
198
Mark Lichtenberger APF (53)	733 AR	529		501		1763
Brian Barger APF (41)		622		413		622		1658
Michael Steck APF (53)		628		440		462		1570	
Alan Truslow AAPF (54)		606 AR	154		540		1300

Open Mens:
RAW
165
Jeramy Buchanan APF		418		330		462		1212
181
Jamie Lewis APF			567		347		617		1532
220
Mike Lane APF			402		253		473		1107
275
Derrick Balicki AAPF			523		385		650		1559
CLASSIC
181
WC Waldron AAPF			545		347		600		1493
198
CJ Shaw APF				600		402		573		1576
Chris Lampien APF			529		303		589		1421
220
Matt Warren AAPF			562		374		573		1510
242
Jarrett Moore APF			551		385		551		1444
308
Buddy Mckee APF (54)		600		363		573		1537
EQUIPPED
308
Brandon Ganey APF			451		352		429		1234
