Division,WeightClassKg,Place,Name,Team,BodyweightKg,Best3SquatKg,Best3BenchKg,Best3DeadliftKg,TotalKg,Equipment,Event,Sex
Boys,51.71,1,Rodney Barnes,Everman,51.35,176.9,95.25,183.7,455.86,Single-ply,SBD,M
Boys,51.71,2,Sahir Alibhai,Oakridge School,50.08,97.52,63.5,117.93,278.96,Single-ply,SBD,M
Boys,51.71,3,Darian Butler,Denison,47.08,102.06,52.16,115.67,269.89,Single-ply,SBD,M
Boys,55.79,1,Daylon Jackson,Everman,55.34,145.15,81.65,167.83,394.63,Single-ply,SBD,M
Boys,55.79,2,Alejandro Cosio,Fort Worth North Side,55.25,147.42,74.84,167.83,390.09,Single-ply,SBD,M
Boys,55.79,3,Jabril Clayborne,North Crowley,52.98,115.67,61.23,122.47,299.37,Single-ply,SBD,M
Boys,55.79,4,Brandon McKee,Cedar Hill,54.43,115.67,61.23,104.33,281.23,Single-ply,SBD,M
Boys,55.79,5,Holden Bailey,North Forney,53.16,102.06,52.16,106.59,260.82,Single-ply,SBD,M
Boys,55.79,6,Max Mills,Bishop Lynch,55.61,83.91,61.23,95.25,240.4,Single-ply,SBD,M
Boys,59.87,1,Chris Hairston,Cedar Hill,59.19,179.17,104.33,201.85,485.34,Single-ply,SBD,M
Boys,67.13,2,Christian Nedd,Cedar Hill,60.06,158.76,90.72,190.51,439.98,Single-ply,SBD,M
Boys,59.87,3,Wilson Kirkbride,Denison,59.6,158.76,86.18,170.1,415.04,Single-ply,SBD,M
Boys,67.13,4,Jeffery Cuellar,Corsicana,60.06,147.42,97.52,165.56,410.5,Single-ply,SBD,M
Boys,59.87,5,Nahum Ferretiz,Bishop Lynch,59.42,142.88,81.65,151.95,376.48,Single-ply,SBD,M
Boys,59.87,6,Jacob Spradlin,Fort Worth Western Hills,58.06,120.2,70.31,142.88,333.39,Single-ply,SBD,M
Boys,59.87,7,Bradley Macaulay,Everman,58.97,136.08,70.31,120.2,326.59,Single-ply,SBD,M
Boys,67.13,8,Garrett McGuire,Cedar Hill,60.06,124.74,65.77,127.01,317.51,Single-ply,SBD,M
Boys,59.87,DQ,Jamarlon Clardy,Everman,58.15,,,,,Single-ply,SBD,M
Boys,67.13,1,Tommy Martinez,Midlothian,67.04,208.65,120.2,195.04,523.9,Single-ply,SBD,M
Boys,67.13,2,Brandon Jackson,Cedar Hill,66.68,201.85,117.93,190.51,510.29,Single-ply,SBD,M
Boys,67.13,3,Deontre Baker,Denison,64.95,185.97,90.72,229.06,505.76,Single-ply,SBD,M
Boys,67.13,4,Jake Ratcliff,Denison,66.68,199.58,90.72,197.31,487.61,Single-ply,SBD,M
Boys,67.13,5,Hayden Dibble,North Crowley,62.78,185.97,90.72,183.7,460.4,Single-ply,SBD,M
Boys,67.13,6,Luke Elkins,Corsicana,63.5,165.56,104.33,174.63,444.52,Single-ply,SBD,M
Boys,67.13,7,Alex Lara,Bishop Lynch,64.5,161.03,90.72,172.37,424.11,Single-ply,SBD,M
Boys,67.13,8,DeQuavas Sneed,Lancaster,66.68,156.49,81.65,149.69,387.82,Single-ply,SBD,M
Boys,67.13,9,Nathan Roblin,Cedar Hill,63.59,138.35,83.91,151.95,374.21,Single-ply,SBD,M
Boys,67.13,10,Didier Chavez,Fort Worth North Side,65.95,124.74,74.84,170.1,369.68,Single-ply,SBD,M
Boys,67.13,11,Jacob Fielder,Oakridge School,66.41,122.47,70.31,142.88,335.66,Single-ply,SBD,M
Boys,67.13,12,Robert Castillo,Fort Worth North Side,60.96,83.91,54.43,102.06,240.4,Single-ply,SBD,M
Boys,67.13,DQ,Vale Fitzpatrick,Dallas Highland Park,63.41,,,,,Single-ply,SBD,M
Boys,67.13,DQ,Darrius Sockwell,Cedar Hill,67.04,,,,,Single-ply,SBD,M
Boys,74.84,1,Jarod Hill,Everman,71.4,260.82,142.88,294.84,698.53,Single-ply,SBD,M
Boys,74.84,2,Kenny Stafford,Everman,68.13,249.48,127.01,235.87,612.35,Single-ply,SBD,M
Boys,74.84,3,Jeffrey Gage,Keller Timber Creek,70.31,170.1,136.08,215.46,521.63,Single-ply,SBD,M
Boys,82.1,4,Ben Walzel,Dallas Highland Park,74.93,204.12,131.54,185.97,521.63,Single-ply,SBD,M
Boys,74.84,5,Maurice Saunders,Keller Timber Creek,74.03,199.58,117.93,190.51,508.02,Single-ply,SBD,M
Boys,82.1,6,Hennon Cooper,Cedar Hill,74.89,188.24,111.13,201.85,501.22,Single-ply,SBD,M
Boys,74.84,7,Isaeh Washington,Everman,71.85,192.78,106.59,192.78,492.15,Single-ply,SBD,M
Boys,74.84,8,DeMarr Henry,Corsicana,72.03,185.97,113.4,185.97,485.34,Single-ply,SBD,M
Boys,74.84,9,Logan Jordan,Fort Worth Western Hills,73.57,174.63,133.81,174.63,483.08,Single-ply,SBD,M
Boys,82.1,10,Trelon Lyday,Denison,75.02,181.44,106.59,181.44,469.47,Single-ply,SBD,M
Boys,74.84,11,Jamorien Primus,Everman,74.21,170.1,92.99,192.78,455.86,Single-ply,SBD,M
Boys,74.84,12,Davion Brown,Everman,71.49,181.44,86.18,185.97,453.59,Single-ply,SBD,M
Boys,74.84,13,Bradley Walker,Denison,74.12,161.03,97.52,192.78,451.32,Single-ply,SBD,M
Boys,74.84,14,Jacobey Law,North Crowley,74.3,163.29,122.47,158.76,444.52,Single-ply,SBD,M
Boys,74.84,15,Brian Aguilar,Everman,72.76,154.22,92.99,185.97,433.18,Single-ply,SBD,M
Boys,74.84,16,Langston Madison,Corsicana,73.75,158.76,99.79,147.42,405.97,Single-ply,SBD,M
Boys,74.84,17,Jacori Chandler,Corsicana,73.75,129.27,83.91,165.56,378.75,Single-ply,SBD,M
Boys,74.84,18,Santos Bazan,Fort Worth Western Hills,72.67,136.08,81.65,158.76,376.48,Single-ply,SBD,M
Boys,74.84,19,Finn Jent,Dallas Highland Park,71.3,151.95,83.91,131.54,367.41,Single-ply,SBD,M
Boys,74.84,20,Lee Gaines,Oakridge School,74.66,115.67,68.04,181.44,365.14,Single-ply,SBD,M
Boys,74.84,21,Flavio Godoy,Fort Worth North Side,73.39,136.08,61.23,151.95,349.27,Single-ply,SBD,M
Boys,74.84,22,Arthur Elgin,Oakridge School,72.12,124.74,70.31,147.42,342.46,Single-ply,SBD,M
Boys,74.84,23,Edgar Reyes,North Crowley,74.12,108.86,86.18,136.08,331.12,Single-ply,SBD,M
Boys,74.84,24,Sam Mitchell,Oakridge School,72.03,117.93,72.57,131.54,322.05,Single-ply,SBD,M
Boys,74.84,25,Tyreq Nolen,Arlington Seguin,74.75,106.59,63.5,136.08,306.17,Single-ply,SBD,M
Boys,74.84,DQ,Chris Pitts,North Crowley,69.31,154.22,,,,Single-ply,SBD,M
Boys,74.84,DQ,Justice Hudley,Arlington Seguin,72.85,,,,,Single-ply,SBD,M
Boys,82.1,1,Sedrick Antwine,Cedar Hill,81.65,233.6,127.01,231.33,591.94,Single-ply,SBD,M
Boys,82.1,2,Darrell Pinkston,Everman,81.01,249.48,129.27,204.12,582.87,Single-ply,SBD,M
Boys,89.81,3,Devon Blanton,Denison,82.19,215.46,113.4,244.94,573.79,Single-ply,SBD,M
Boys,82.1,4,Elijah Moore,Cedar Hill,81.65,210.92,140.61,201.85,553.38,Single-ply,SBD,M
Boys,89.81,5,Mason Walker,Midlothian,82.19,201.85,124.74,206.38,532.97,Single-ply,SBD,M
Boys,89.81,6,Kolbi McGary,Cedar Hill,82.33,204.12,106.59,217.72,528.44,Single-ply,SBD,M
Boys,82.1,7,Jermaine Mask,Bishop Lynch,76.2,197.31,102.06,199.58,498.95,Single-ply,SBD,M
Boys,89.81,8,Greg Martinez,Bishop Lynch,82.28,176.9,113.4,188.24,478.54,Single-ply,SBD,M
Boys,82.1,9,Abraham Flores,Fort Worth North Side,80.65,170.1,102.06,204.12,476.27,Single-ply,SBD,M
Boys,82.1,10,Greg Jackson,Cedar Hill,81.33,170.1,92.99,185.97,449.06,Single-ply,SBD,M
Boys,82.1,11,Micah Cotton,Cedar Hill,78.2,161.03,90.72,185.97,437.72,Single-ply,SBD,M
Boys,82.1,12,Alexander Rollins,Lancaster,80.47,142.88,113.4,172.37,428.64,Single-ply,SBD,M
Boys,82.1,13,Preston Smith,Midlothian,81.83,163.29,97.52,158.76,419.57,Single-ply,SBD,M
Boys,82.1,14,Trent Wallace,Arlington Seguin,78.65,170.1,77.11,154.22,401.43,Single-ply,SBD,M
Boys,82.1,15,Mason Guthrie,Fort Worth Western Hills,77.38,124.74,113.4,142.88,381.02,Single-ply,SBD,M
Boys,82.1,16,Joseph Sparks,Arlington Seguin,76.38,154.22,63.5,147.42,365.14,Single-ply,SBD,M
Boys,82.1,17,Ryan Landsberg,Dallas Highland Park,76.93,136.08,79.38,136.08,351.53,Single-ply,SBD,M
Boys,82.1,18,Nick Kester,Bishop Lynch,81.56,142.88,83.91,122.47,349.27,Single-ply,SBD,M
Boys,82.1,19,Jacob Meadows,Oakridge School,77.2,120.2,72.57,129.27,322.05,Single-ply,SBD,M
Boys,82.1,20,Ben Richardson,Dallas Highland Park,79.74,122.47,70.31,127.01,319.78,Single-ply,SBD,M
Boys,82.1,21,Adeja Ajack,Bishop Lynch,79.38,113.4,61.23,136.08,310.71,Single-ply,SBD,M
Boys,82.1,DQ,James Worthy,Everman,82.01,,,,,Single-ply,SBD,M
Boys,99.79,1,Tim Hutchins,Cedar Hill,89.95,258.55,151.95,251.74,662.24,Single-ply,SBD,M
Boys,89.81,2,Bowen Kirkbride,Denison,87.36,254.01,151.95,249.48,655.44,Single-ply,SBD,M
Boys,89.81,3,Vincent Ajagebu,North Crowley,89.45,242.67,133.81,256.28,632.76,Single-ply,SBD,M
Boys,89.81,4,Chase Coleman,North Crowley,89.54,208.65,127.01,251.74,587.4,Single-ply,SBD,M
Boys,89.81,5,Khaemon Edwards,Everman,86.73,226.8,136.08,208.65,571.53,Single-ply,SBD,M
Boys,89.81,6,Hunter Powell,Keller Timber Creek,88.36,226.8,136.08,183.7,546.58,Single-ply,SBD,M
Boys,89.81,7,Andrew Lee,North Crowley,83.01,204.12,122.47,204.12,530.7,Single-ply,SBD,M
Boys,89.81,8,Matthew Cherry,Midlothian,88.63,158.76,108.86,181.44,449.06,Single-ply,SBD,M
Boys,89.81,9,Dillon Hampton,Arlington Seguin,84.28,201.85,83.91,158.76,444.52,Single-ply,SBD,M
Boys,89.81,10,Sharif Thompson,Arlington Seguin,88.99,136.08,99.79,188.24,424.11,Single-ply,SBD,M
Boys,89.81,11,Will Esquivel,Dallas Highland Park,84.01,172.37,86.18,147.42,405.97,Single-ply,SBD,M
Boys,89.81,12,Henry Allen,Dallas Highland Park,84.14,158.76,83.91,154.22,396.89,Single-ply,SBD,M
Boys,89.81,13,Andrew White,Oakridge School,84.01,147.42,86.18,161.03,394.63,Single-ply,SBD,M
Boys,89.81,14,Nick Tran,Oakridge School,88.09,158.76,65.77,158.76,383.29,Single-ply,SBD,M
Boys,89.81,15,Keandre Paxton,Arlington Seguin,88.54,147.42,70.31,147.42,365.14,Single-ply,SBD,M
Boys,89.81,16,Ryan Coxe,Dallas Highland Park,87.72,136.08,86.18,136.08,358.34,Single-ply,SBD,M
Boys,89.81,17,Hasan Dirir,Arlington Seguin,89.45,124.74,61.23,113.4,299.37,Single-ply,SBD,M
Boys,89.81,18,Lyn Gaines,Oakridge School,85.09,83.91,49.9,90.72,224.53,Single-ply,SBD,M
Boys,89.81,DQ,Jaylon Parmes,Everman,83.82,,,,,Single-ply,SBD,M
Boys,99.79,1,Najee Mustafaa,Midlothian,96.71,249.48,142.88,233.6,625.96,Single-ply,SBD,M
Boys,99.79,2,Ian Masakini,Keller Timber Creek,93.26,235.87,145.15,215.46,596.47,Single-ply,SBD,M
Boys,99.79,3,Darius Watson,Corsicana,95.07,233.6,122.47,231.33,587.4,Single-ply,SBD,M
Boys,99.79,4,D Falana,Cedar Hill,99.56,235.87,129.27,222.26,587.4,Single-ply,SBD,M
Boys,99.79,5,Josh Brown,North Crowley,96.62,226.8,131.54,215.46,573.79,Single-ply,SBD,M
Boys,99.79,6,Carson Yeager,Dallas Highland Park,97.98,217.72,122.47,226.8,566.99,Single-ply,SBD,M
Boys,99.79,7,Bennett Brock,Dallas Highland Park,94.08,215.46,120.2,206.38,542.04,Single-ply,SBD,M
Boys,99.79,8,Zach Snelling,Dallas Highland Park,98.79,204.12,122.47,204.12,530.7,Single-ply,SBD,M
Boys,99.79,9,Anthony Smith,Cedar Hill,94.94,204.12,106.59,204.12,514.83,Single-ply,SBD,M
Boys,99.79,10,Garrett Wingrove,Dallas Highland Park,98.7,188.24,106.59,190.51,485.34,Single-ply,SBD,M
Boys,99.79,11,Tristen Rubio,Bishop Lynch,98.16,176.9,108.86,172.37,458.13,Single-ply,SBD,M
Boys,99.79,12,Ezekiel Veal,Everman,91.35,158.76,99.79,181.44,439.98,Single-ply,SBD,M
Boys,99.79,13,Ty Tidwell,Corsicana,99.61,154.22,111.13,165.56,430.91,Single-ply,SBD,M
Boys,99.79,14,Cesar Rivera,North Forney,93.35,165.56,97.52,163.29,426.38,Single-ply,SBD,M
Boys,99.79,15,Montrel Morgan,Everman,91.35,154.22,92.99,167.83,415.04,Single-ply,SBD,M
Boys,99.79,16,Turner Coxe,Dallas Highland Park,98.07,145.15,102.06,158.76,405.97,Single-ply,SBD,M
Boys,99.79,17,Sherman Bowen,Lancaster,96.34,142.88,83.91,165.56,392.36,Single-ply,SBD,M
Boys,99.79,18,Richard Harris,North Crowley,94.53,142.88,77.11,158.76,378.75,Single-ply,SBD,M
Boys,99.79,19,Cruz Villegas,Everman,90.9,136.08,68.04,158.76,362.87,Single-ply,SBD,M
Boys,99.79,20,Brian Parish,Arlington Seguin,97.61,131.54,74.84,145.15,351.53,Single-ply,SBD,M
Boys,99.79,21,Emmanuel Simuwelu,Fort Worth Western Hills,96.62,117.93,99.79,124.74,342.46,Single-ply,SBD,M
Boys,99.79,DQ,Seymor Battle,Arlington Seguin,99.16,174.63,88.45,,,Single-ply,SBD,M
Boys,99.79,DQ,Tyrell Jeffries,Denison,97.07,274.42,176.9,,,Single-ply,SBD,M
Boys,99.79,DQ,Trevor Goree,Keller Timber Creek,98.25,,,,,Single-ply,SBD,M
Boys,109.77,1,Javier Alva,Fort Worth North Side,105.32,251.74,138.35,240.4,630.49,Single-ply,SBD,M
Boys,109.77,2,Darrion Hammonds,Arlington Seguin,103.24,219.99,140.61,213.19,573.79,Single-ply,SBD,M
Boys,109.77,3,Bailey Reid,Denison,103.15,222.26,145.15,199.58,566.99,Single-ply,SBD,M
Boys,109.77,4,Anthony Urieta,Bishop Lynch,106.87,199.58,127.01,213.19,539.77,Single-ply,SBD,M
Boys,109.77,5,Grant Fischer,North Forney,105.41,176.9,106.59,204.12,487.61,Single-ply,SBD,M
Boys,109.77,6,Christopher Labra,Fort Worth North Side,106.23,147.42,90.72,238.14,476.27,Single-ply,SBD,M
Boys,109.77,7,Tim Akinyode,Arlington Seguin,102.42,195.04,77.11,199.58,471.74,Single-ply,SBD,M
Boys,109.77,8,Terrian Livingston,Arlington Seguin,108.86,185.97,92.99,181.44,460.4,Single-ply,SBD,M
Boys,109.77,9,David Taylor,Arlington Seguin,100.7,174.63,86.18,176.9,437.72,Single-ply,SBD,M
Boys,109.77,10,Taylor Phillippi,Midlothian,102.33,149.69,99.79,158.76,408.23,Single-ply,SBD,M
Boys,109.77,11,Terrell Haynes,Arlington Seguin,104.6,154.22,74.84,145.15,374.21,Single-ply,SBD,M
Boys,109.77,12,Keelan Morrow,Arlington Seguin,108.14,136.08,49.9,142.88,328.85,Single-ply,SBD,M
Boys,109.77,DQ,Trevor Dyson,Lancaster,105.14,,,,,Single-ply,SBD,M
Boys,109.77,DQ,Steven Fulmer,Arlington Seguin,100.88,,,,,Single-ply,SBD,M
Boys,124.74,1,James Harrison,Lancaster,117.75,181.44,106.59,201.85,489.88,Single-ply,SBD,M
Boys,124.74,2,Elijah Buller,Arlington Seguin,123.56,181.44,79.38,197.31,458.13,Single-ply,SBD,M
Boys,124.74,3,George Roam,Everman,114.76,158.76,102.06,190.51,451.32,Single-ply,SBD,M
Boys,124.74,4,Malik Williams,Fort Worth North Side,118.12,176.9,81.65,181.44,439.98,Single-ply,SBD,M
Boys,124.74,5,Ceasar Gomez,Corsicana,115.39,151.95,102.06,183.7,437.72,Single-ply,SBD,M
Boys,124.74,6,Devin Beamon,North Forney,114.21,165.56,97.52,172.37,435.45,Single-ply,SBD,M
Boys,124.74,7,Austin Patricia,North Forney,117.21,156.49,79.38,183.7,419.57,Single-ply,SBD,M
Boys,124.74,8,Adam Friesen,North Forney,113.58,136.08,79.38,163.29,378.75,Single-ply,SBD,M
Boys,124.74,9,Christian Pittman,Arlington Seguin,112.49,124.74,77.11,151.95,353.8,Single-ply,SBD,M
Boys,124.74+,10,Isaac Gomez,Fort Worth North Side,124.83,117.93,61.23,136.08,315.25,Single-ply,SBD,M
Boys,124.74,DQ,Logan Shoup,Arlington Seguin,120.66,,,,,Single-ply,SBD,M
Boys,124.74+,1,Randy Crystian,Cedar Hill,128,215.46,156.49,238.14,610.08,Single-ply,SBD,M
Boys,124.74+,2,Norris Floyd,North Forney,134.44,249.48,131.54,226.8,607.81,Single-ply,SBD,M
Boys,124.74+,3,Cameron Kennaley,Midlothian,133.36,217.72,124.74,213.19,555.65,Single-ply,SBD,M
Boys,124.74+,4,Kenyette King,North Crowley,133.72,215.46,131.54,199.58,546.58,Single-ply,SBD,M
Boys,124.74+,5,Andrew Kelly,Bishop Lynch,125.65,190.51,122.47,192.78,505.76,Single-ply,SBD,M
Boys,124.74+,6,Chris McKinney,Denison,160.25,183.7,99.79,215.46,498.95,Single-ply,SBD,M
Boys,124.74+,7,Jaylin Hendrix,Everman,134.26,172.37,102.06,199.58,474,Single-ply,SBD,M
Boys,124.74+,8,Caleb Reed,Everman,127.46,195.04,104.33,165.56,464.93,Single-ply,SBD,M
Boys,124.74+,9,Robert Traylor,Arlington Seguin,143.79,181.44,106.59,174.63,462.66,Single-ply,SBD,M
Boys,124.74+,10,Treston Price,Lancaster,133.08,158.76,113.4,181.44,453.59,Single-ply,SBD,M
Boys,124.74+,11,Julio Fantao,Corsicana,129.55,156.49,102.06,151.95,410.5,Single-ply,SBD,M
Boys,124.74+,DQ,Cliffton Coffey,Cedar Hill,151.64,290.3,161.03,,,Single-ply,SBD,M
Boys,124.74+,DQ,Juac Angoi,Bishop Lynch,132.09,,,,,Single-ply,SBD,M
Boys,124.74+,DQ,Josh Grat,Arlington Seguin,126.64,231.33,108.86,,,Single-ply,SBD,M
