Division,WeightClassKg,Place,Name,Team,BodyweightKg,Best3SquatKg,Best3BenchKg,Best3DeadliftKg,TotalKg,Equipment,Event,Sex
Boys,51.71,1,Favian Castellanos,Sunray,49.9,117.93,65.77,127.01,310.71,Single-ply,SBD,M
Boys,51.71,2,Kordell Lawrence,Dalhart,49.35,102.06,45.36,102.06,249.48,Single-ply,SBD,M
Boys,55.79,3,Sergio Romero,Childress,51.8,95.25,54.43,99.79,249.48,Single-ply,SBD,M
Boys,55.79,DQ,Bryan Tran,Amarillo Highland Park,51.89,,,,,Single-ply,SBD,M
Boys,55.79,1,Dang Nguyen,Amarillo Highland Park,55.43,142.88,79.38,163.29,385.55,Single-ply,SBD,M
Boys,55.79,2,Hector Bustillos,Sunray,55.43,138.35,72.57,147.42,358.34,Single-ply,SBD,M
Boys,55.79,3,Alex Lugo,Perryton,55.34,102.06,61.23,129.27,292.57,Single-ply,SBD,M
Boys,55.79,4,Juan Moreno,Amarillo Highland Park,54.93,97.52,63.5,124.74,285.76,Single-ply,SBD,M
Boys,55.79,5,Ray Jaramillo,Clarendon,52.62,102.06,65.77,113.4,281.23,Single-ply,SBD,M
Boys,55.79,6,Landon Williams,Dumas,53.25,90.72,65.77,106.59,263.08,Single-ply,SBD,M
Boys,59.87,1,Miguel Espino,Perryton,58.69,145.15,90.72,181.44,417.3,Single-ply,SBD,M
Boys,59.87,2,Fernando Corpus,Amarillo Highland Park,57.42,136.08,77.11,145.15,358.34,Single-ply,SBD,M
Boys,59.87,3,Kaiden Summerville,Perryton,58.88,115.67,70.31,129.27,315.25,Single-ply,SBD,M
Boys,59.87,4,Alex Alcantara,Sunray,57.24,106.59,54.43,124.74,285.76,Single-ply,SBD,M
Boys,59.87,5,Clint Franks,Clarendon,59.6,83.91,56.7,99.79,240.4,Single-ply,SBD,M
Boys,59.87,DQ,Daniel Patterson,Sunray,59.87,,,,,Single-ply,SBD,M
Boys,67.13,1,Fabian Bencomo,Dalhart,66.68,156.49,79.38,170.1,405.97,Single-ply,SBD,M
Boys,67.13,2,Garrett Ely,Sunray,61.69,117.93,81.65,147.42,347,Single-ply,SBD,M
Boys,67.13,3,Joseph Jaramillo,Clarendon,64.59,106.59,88.45,151.95,347,Single-ply,SBD,M
Boys,67.13,4,Nick Ramos,Dumas,64.23,97.52,83.91,147.42,328.85,Single-ply,SBD,M
Boys,67.13,5,Christian Landeros,Dumas,64.5,122.47,70.31,136.08,328.85,Single-ply,SBD,M
Boys,67.13,6,Dalton Stang,Stinnett West Texas,60.6,113.4,72.57,124.74,310.71,Single-ply,SBD,M
Boys,67.13,7,Francisco Borunda,Perryton,63.41,113.4,65.77,127.01,306.17,Single-ply,SBD,M
Boys,67.13,8,David Del Fraire,Perryton,64.41,104.33,56.7,142.88,303.91,Single-ply,SBD,M
Boys,67.13,9,Trey Lopez,Childress,62.14,111.13,56.7,108.86,276.69,Single-ply,SBD,M
Boys,67.13,10,Cedrick Pena,Dumas,64.41,111.13,54.43,108.86,274.42,Single-ply,SBD,M
Boys,67.13,11,Nick Shadle,Clarendon,63.23,97.52,61.23,113.4,272.16,Single-ply,SBD,M
Boys,67.13,12,Jacob Miller,White Deer,64.14,99.79,65.77,86.18,251.74,Single-ply,SBD,M
Boys,67.13,13,Jaime Lizama,Childress,67.04,92.99,52.16,97.52,242.67,Single-ply,SBD,M
Boys,67.13,14,Taylor Patterson,White Deer,65.59,79.38,56.7,92.99,229.06,Single-ply,SBD,M
Boys,74.84,1,Jd Lopez,Childress,72.57,199.58,122.47,188.24,510.29,Single-ply,SBD,M
Boys,74.84,2,Franky Medina,Dalhart,67.95,183.7,104.33,183.7,471.74,Single-ply,SBD,M
Boys,74.84,3,Jarric Weber,Borger,68.22,167.83,106.59,195.04,469.47,Single-ply,SBD,M
Boys,74.84,4,Ryan Shemwell,Panhandle,69.4,170.1,106.59,170.1,446.79,Single-ply,SBD,M
Boys,74.84,5,Maurice Coleman,Dalhart,69.58,142.88,61.23,195.04,399.16,Single-ply,SBD,M
Boys,74.84,6,Garron Weber,Borger,68.4,136.08,92.99,158.76,387.82,Single-ply,SBD,M
Boys,82.1,7,Nathan Blackwell,Dumas,75.02,140.61,86.18,158.76,385.55,Single-ply,SBD,M
Boys,74.84,8,Steven Espino,Dumas,68.31,131.54,74.84,165.56,371.95,Single-ply,SBD,M
Boys,74.84,9,Julio Sanchez,Perryton,71.49,131.54,81.65,158.76,371.95,Single-ply,SBD,M
Boys,74.84,10,Ethan Hays,Panhandle,72.57,133.81,83.91,142.88,360.61,Single-ply,SBD,M
Boys,74.84,11,Devin Novak,Amarillo Highland Park,70.76,136.08,79.38,142.88,358.34,Single-ply,SBD,M
Boys,74.84,12,Isaac Summerlin,Friona,74.84,131.54,61.23,158.76,351.53,Single-ply,SBD,M
Boys,74.84,13,Robert Quilimaco,White Deer,70.76,120.2,74.84,147.42,342.46,Single-ply,SBD,M
Boys,74.84,14,Mason Mercer,Panhandle,72.39,127.01,74.84,136.08,337.93,Single-ply,SBD,M
Boys,74.84,15,Christian Trejo,Dumas,71.94,108.86,86.18,138.35,333.39,Single-ply,SBD,M
Boys,74.84,16,Elias Fuentes,Dumas,72.94,90.72,90.72,142.88,324.32,Single-ply,SBD,M
Boys,74.84,17,Owen Norris,Bushland,67.86,111.13,79.38,127.01,317.51,Single-ply,SBD,M
Boys,74.84,18,Austin Prater,Childress,71.4,115.67,70.31,124.74,310.71,Single-ply,SBD,M
Boys,74.84,19,Ethan Ballard,Clarendon,74.3,99.79,74.84,136.08,310.71,Single-ply,SBD,M
Boys,74.84,20,Justin Gandy,Panhandle,74.84,104.33,56.7,120.2,281.23,Single-ply,SBD,M
Boys,74.84,DQ,Tyler Miller,Sunray,74.21,136.08,77.11,,,Single-ply,SBD,M
Boys,74.84,DQ,Tyrell Campbell,Amarillo Highland Park,74.75,,,,,Single-ply,SBD,M
Boys,82.1,1,Guillermo Davila,Dalhart,79.11,242.67,127.01,215.46,585.13,Single-ply,SBD,M
Boys,82.1,2,Alexis Mendoza,Sunray,82.01,201.85,111.13,217.72,530.7,Single-ply,SBD,M
Boys,82.1,3,Dalten Luman,Panhandle,78.83,179.17,111.13,206.38,496.68,Single-ply,SBD,M
Boys,82.1,4,Courtney Gravely,Amarillo Highland Park,79.56,174.63,104.33,192.78,471.74,Single-ply,SBD,M
Boys,82.1,5,Tyler Baker,Borger,79.02,174.63,122.47,165.56,462.66,Single-ply,SBD,M
Boys,82.1,6,Alexander Guerrero,Childress,80.38,163.29,108.86,188.24,460.4,Single-ply,SBD,M
Boys,82.1,7,Mario Lechuga,Sunray,79.38,170.1,102.06,183.7,455.86,Single-ply,SBD,M
Boys,82.1,8,Rene Rodriguez,Friona,79.83,158.76,102.06,181.44,442.25,Single-ply,SBD,M
Boys,82.1,9,Andrew Bichsel,White Deer,79.02,156.49,102.06,181.44,439.98,Single-ply,SBD,M
Boys,82.1,10,Allen Cruz,Amarillo Highland Park,80.92,165.56,102.06,165.56,433.18,Single-ply,SBD,M
Boys,82.1,11,Dominique de la Rosa,Sunray,78.47,165.56,83.91,158.76,408.23,Single-ply,SBD,M
Boys,82.1,12,Jaime Cigarroa,Friona,78.93,158.76,74.84,142.88,376.48,Single-ply,SBD,M
Boys,82.1,13,Derek Ditto,Dumas,75.84,113.4,102.06,142.88,358.34,Single-ply,SBD,M
Boys,82.1,14,Wesley Ward,Borger,80.29,145.15,72.57,140.61,358.34,Single-ply,SBD,M
Boys,82.1,15,Bryce Day,Borger,77.84,136.08,83.91,124.74,344.73,Single-ply,SBD,M
Boys,82.1,16,Miguel Olivas,Perryton,80.74,111.13,77.11,154.22,342.46,Single-ply,SBD,M
Boys,82.1,17,Christopher Chavez,Friona,76.38,124.74,63.5,142.88,331.12,Single-ply,SBD,M
Boys,82.1,18,Adalberto Rangel,Dumas,80.38,108.86,79.38,142.88,331.12,Single-ply,SBD,M
Boys,82.1,19,Jt Bennett,Stinnett West Texas,79.65,113.4,83.91,124.74,322.05,Single-ply,SBD,M
Boys,82.1,DQ,Jose Rodriguez,Friona,77.2,133.81,,,,Single-ply,SBD,M
Boys,82.1,DQ,Luis Perez,Dumas,80.74,,,,,Single-ply,SBD,M
Boys,89.81,1,Gabe Marquez,Dalhart,88.81,192.78,131.54,199.58,523.9,Single-ply,SBD,M
Boys,89.81,2,Miguel Rangel,Borger,85.18,197.31,113.4,192.78,503.49,Single-ply,SBD,M
Boys,89.81,3,Chase Galyean,Childress,87,179.17,97.52,176.9,453.59,Single-ply,SBD,M
Boys,89.81,4,Jonathan Anderson,Sunray,83.46,183.7,102.06,161.03,446.79,Single-ply,SBD,M
Boys,89.81,5,Cesar Calderon,Sunray,84.91,174.63,92.99,174.63,442.25,Single-ply,SBD,M
Boys,89.81,6,Austin Archuleta,Panhandle,83.91,158.76,83.91,136.08,378.75,Single-ply,SBD,M
Boys,89.81,7,Gage Alexander,Panhandle,84.55,142.88,81.65,154.22,378.75,Single-ply,SBD,M
Boys,89.81,8,Miguel Baray,Dumas,86.27,147.42,86.18,142.88,376.48,Single-ply,SBD,M
Boys,89.81,9,Aaron Arellanes,Dumas,83.55,136.08,86.18,151.95,374.21,Single-ply,SBD,M
Boys,89.81,10,Kendall Anders,Amarillo Highland Park,89.09,136.08,72.57,154.22,362.87,Single-ply,SBD,M
Boys,89.81,11,Richard Garza,Dumas,83.01,124.74,83.91,136.08,344.73,Single-ply,SBD,M
Boys,89.81,12,Patrick Cheney,Amarillo Highland Park,88.36,106.59,61.23,111.13,278.96,Single-ply,SBD,M
Boys,99.79,1,Kevin Flores,Sunray,97.25,188.24,131.54,181.44,501.22,Single-ply,SBD,M
Boys,99.79,2,David Reyes,Dumas,92.99,161.03,122.47,188.24,471.74,Single-ply,SBD,M
Boys,109.77,3,Evan Putman,White Deer,99.97,158.76,117.93,179.17,455.86,Single-ply,SBD,M
Boys,99.79,4,Dustin Thomas,White Deer,98.97,124.74,83.91,158.76,367.41,Single-ply,SBD,M
Boys,99.79,5,Antonio Covarrubias,Perryton,90.99,113.4,68.04,158.76,340.19,Single-ply,SBD,M
Boys,99.79,6,Hernan Torres,Dumas,98.52,104.33,79.38,151.95,335.66,Single-ply,SBD,M
Boys,99.79,DQ,Justis Veale,Bushland,99.34,138.35,,,,Single-ply,SBD,M
Boys,99.79,DQ,Cobee Harrison,Sunray,92.17,151.95,,,,Single-ply,SBD,M
Boys,124.74,1,Abayomi Salinas,Friona,109.95,249.48,127.01,208.65,585.13,Single-ply,SBD,M
Boys,109.77,2,Tyler Brewer,Dalhart,106.23,226.8,108.86,219.99,555.65,Single-ply,SBD,M
Boys,109.77,3,Javier Torres,Dalhart,101.33,192.78,117.93,210.92,521.63,Single-ply,SBD,M
Boys,109.77,4,Freddy Martinez,Dumas,106.41,183.7,108.86,206.38,498.95,Single-ply,SBD,M
Boys,109.77,5,Daniel Carillo,Amarillo Highland Park,108.86,172.37,102.06,179.17,453.59,Single-ply,SBD,M
Boys,109.77,6,Bruno Talamantes,Dumas,107.23,174.63,99.79,167.83,442.25,Single-ply,SBD,M
Boys,109.77,7,Jorge Sanchez,Dumas,109.59,149.69,108.86,183.7,442.25,Single-ply,SBD,M
Boys,109.77,8,Jovan Acosta,Dumas,104.96,158.76,81.65,181.44,421.84,Single-ply,SBD,M
Boys,109.77,9,Steven Holsey,Borger,106.68,167.83,81.65,151.95,401.43,Single-ply,SBD,M
Boys,109.77,10,Ever Regalado,Dumas,109.04,140.61,72.57,138.35,351.53,Single-ply,SBD,M
Boys,109.77,11,Brady Cooke,Panhandle,101.51,106.59,65.77,124.74,297.1,Single-ply,SBD,M
Boys,109.77,DQ,Dakota McWhorter,Panhandle,105.96,190.51,113.4,,,Single-ply,SBD,M
Boys,124.74,1,Celso Guerrero,Childress,123.92,244.94,185.97,240.4,671.32,Single-ply,SBD,M
Boys,124.74,2,Spencer Holsey,Borger,120.93,265.35,142.88,256.28,664.51,Single-ply,SBD,M
Boys,124.74,3,Anthony Anzuldua,Dalhart,111.49,226.8,129.27,183.7,539.77,Single-ply,SBD,M
Boys,124.74,4,Colton Jones,Borger,117.3,204.12,122.47,208.65,535.24,Single-ply,SBD,M
Boys,124.74,5,Mark Munoz,Childress,116.3,181.44,136.08,190.51,508.02,Single-ply,SBD,M
Boys,124.74,6,JR Rodriquez,Bushland,111.22,170.1,129.27,188.24,487.61,Single-ply,SBD,M
Boys,124.74,7,Justin Barrera,Dalhart,122.47,192.78,90.72,190.51,474,Single-ply,SBD,M
Boys,124.74,8,Andrew Smith,Panhandle,116.48,161.03,115.67,176.9,453.59,Single-ply,SBD,M
Boys,124.74+,1,Kyle Weiss,Panhandle,145.88,256.28,199.58,215.46,671.32,Single-ply,SBD,M
Boys,124.74+,2,Colby Roach,Panhandle,134.72,226.8,113.4,204.12,544.31,Single-ply,SBD,M
Boys,124.74+,3,Kyle Key,Dumas,128.73,158.76,83.91,149.69,392.36,Single-ply,SBD,M
Boys,124.74+,4,Casey Stewart,Dalhart,127.1,163.29,83.91,142.88,390.09,Single-ply,SBD,M
